rank 169 Tb = 0.830762 sec, Ta = 0.000002 sec, comp_time = 0.519618 sec, comm_time = 0.311113 sec, neigh_comm_time = 0.311056 sec, ptp_comm_time = 0.000010 sec, coll_comm_time = 0.000010 sec, T_cmp_b = 0.519618 sec, T_cmp_a = 0.000000 sec, T_comm_b = 0.311113 sec, T_comm_a = 0.000000 sec.
rank 63 Tb = 0.830629 sec, Ta = 0.830965 sec, comp_time = 1.038703 sec, comm_time = 0.622826 sec, neigh_comm_time = 0.622710 sec, ptp_comm_time = 0.000022 sec, coll_comm_time = 0.000021 sec, T_cmp_b = 0.519352 sec, T_cmp_a = 0.519351 sec, T_comm_b = 0.311245 sec, T_comm_a = 0.311581 sec.
rank 56 Tb = 0.830660 sec, Ta = 0.830976 sec, comp_time = 1.038703 sec, comm_time = 0.622868 sec, neigh_comm_time = 0.622753 sec, ptp_comm_time = 0.000022 sec, coll_comm_time = 0.000021 sec, T_cmp_b = 0.519352 sec, T_cmp_a = 0.519351 sec, T_comm_b = 0.311276 sec, T_comm_a = 0.311592 sec.
rank 255 Tb = 0.830622 sec, Ta = 0.830956 sec, comp_time = 1.038700 sec, comm_time = 0.622813 sec, neigh_comm_time = 0.622698 sec, ptp_comm_time = 0.000021 sec, coll_comm_time = 0.000021 sec, T_cmp_b = 0.519350 sec, T_cmp_a = 0.519350 sec, T_comm_b = 0.311239 sec, T_comm_a = 0.311574 sec.
rank 47 Tb = 0.830656 sec, Ta = 0.830993 sec, comp_time = 1.038886 sec, comm_time = 0.622700 sec, neigh_comm_time = 0.622585 sec, ptp_comm_time = 0.000021 sec, coll_comm_time = 0.000021 sec, T_cmp_b = 0.519443 sec, T_cmp_a = 0.519443 sec, T_comm_b = 0.311181 sec, T_comm_a = 0.311519 sec.
rank 256 Tb = 0.000003 sec, Ta = 0.831080 sec, comp_time = 0.519622 sec, comm_time = 0.311427 sec, neigh_comm_time = 0.311370 sec, ptp_comm_time = 0.000010 sec, coll_comm_time = 0.000010 sec, T_cmp_b = 0.000000 sec, T_cmp_a = 0.519622 sec, T_comm_b = 0.000000 sec, T_comm_a = 0.311427 sec.
rank 237 Tb = 0.830675 sec, Ta = 0.831011 sec, comp_time = 1.039055 sec, comm_time = 0.622567 sec, neigh_comm_time = 0.622453 sec, ptp_comm_time = 0.000021 sec, coll_comm_time = 0.000020 sec, T_cmp_b = 0.519527 sec, T_cmp_a = 0.519527 sec, T_comm_b = 0.311115 sec, T_comm_a = 0.311452 sec.
rank 191 Tb = 0.830668 sec, Ta = 0.830997 sec, comp_time = 1.038886 sec, comm_time = 0.622716 sec, neigh_comm_time = 0.622602 sec, ptp_comm_time = 0.000020 sec, coll_comm_time = 0.000020 sec, T_cmp_b = 0.519444 sec, T_cmp_a = 0.519443 sec, T_comm_b = 0.311193 sec, T_comm_a = 0.311523 sec.
rank 239 Tb = 0.830661 sec, Ta = 0.830992 sec, comp_time = 1.038882 sec, comm_time = 0.622708 sec, neigh_comm_time = 0.622594 sec, ptp_comm_time = 0.000021 sec, coll_comm_time = 0.000020 sec, T_cmp_b = 0.519441 sec, T_cmp_a = 0.519441 sec, T_comm_b = 0.311188 sec, T_comm_a = 0.311520 sec.
rank 232 Tb = 0.830680 sec, Ta = 0.830993 sec, comp_time = 1.038883 sec, comm_time = 0.622728 sec, neigh_comm_time = 0.622614 sec, ptp_comm_time = 0.000021 sec, coll_comm_time = 0.000020 sec, T_cmp_b = 0.519441 sec, T_cmp_a = 0.519442 sec, T_comm_b = 0.311207 sec, T_comm_a = 0.311521 sec.
rank 60 Tb = 0.830657 sec, Ta = 0.830986 sec, comp_time = 1.038881 sec, comm_time = 0.622699 sec, neigh_comm_time = 0.622585 sec, ptp_comm_time = 0.000020 sec, coll_comm_time = 0.000020 sec, T_cmp_b = 0.519441 sec, T_cmp_a = 0.519440 sec, T_comm_b = 0.311184 sec, T_comm_a = 0.311514 sec.
rank 59 Tb = 0.830673 sec, Ta = 0.830982 sec, comp_time = 1.038881 sec, comm_time = 0.622711 sec, neigh_comm_time = 0.622598 sec, ptp_comm_time = 0.000020 sec, coll_comm_time = 0.000020 sec, T_cmp_b = 0.519440 sec, T_cmp_a = 0.519441 sec, T_comm_b = 0.311201 sec, T_comm_a = 0.311510 sec.
rank 248 Tb = 0.830650 sec, Ta = 0.830949 sec, comp_time = 1.038698 sec, comm_time = 0.622836 sec, neigh_comm_time = 0.622721 sec, ptp_comm_time = 0.000021 sec, coll_comm_time = 0.000021 sec, T_cmp_b = 0.519350 sec, T_cmp_a = 0.519348 sec, T_comm_b = 0.311267 sec, T_comm_a = 0.311569 sec.
rank 40 Tb = 0.830700 sec, Ta = 0.831003 sec, comp_time = 1.038885 sec, comm_time = 0.622754 sec, neigh_comm_time = 0.622640 sec, ptp_comm_time = 0.000021 sec, coll_comm_time = 0.000020 sec, T_cmp_b = 0.519443 sec, T_cmp_a = 0.519443 sec, T_comm_b = 0.311225 sec, T_comm_a = 0.311529 sec.
rank 235 Tb = 0.830681 sec, Ta = 0.831025 sec, comp_time = 1.039057 sec, comm_time = 0.622586 sec, neigh_comm_time = 0.622472 sec, ptp_comm_time = 0.000020 sec, coll_comm_time = 0.000020 sec, T_cmp_b = 0.519529 sec, T_cmp_a = 0.519528 sec, T_comm_b = 0.311120 sec, T_comm_a = 0.311465 sec.
rank 184 Tb = 0.830695 sec, Ta = 0.830996 sec, comp_time = 1.038886 sec, comm_time = 0.622743 sec, neigh_comm_time = 0.622629 sec, ptp_comm_time = 0.000020 sec, coll_comm_time = 0.000020 sec, T_cmp_b = 0.519443 sec, T_cmp_a = 0.519442 sec, T_comm_b = 0.311220 sec, T_comm_a = 0.311523 sec.
rank 127 Tb = 0.830669 sec, Ta = 0.831008 sec, comp_time = 1.038889 sec, comm_time = 0.622725 sec, neigh_comm_time = 0.622611 sec, ptp_comm_time = 0.000020 sec, coll_comm_time = 0.000020 sec, T_cmp_b = 0.519445 sec, T_cmp_a = 0.519444 sec, T_comm_b = 0.311192 sec, T_comm_a = 0.311533 sec.
rank 192 Tb = 0.830703 sec, Ta = 0.831020 sec, comp_time = 1.038699 sec, comm_time = 0.622958 sec, neigh_comm_time = 0.622843 sec, ptp_comm_time = 0.000022 sec, coll_comm_time = 0.000021 sec, T_cmp_b = 0.519349 sec, T_cmp_a = 0.519350 sec, T_comm_b = 0.311321 sec, T_comm_a = 0.311637 sec.
rank 61 Tb = 0.830657 sec, Ta = 0.830991 sec, comp_time = 1.038878 sec, comm_time = 0.622706 sec, neigh_comm_time = 0.622592 sec, ptp_comm_time = 0.000020 sec, coll_comm_time = 0.000020 sec, T_cmp_b = 0.519439 sec, T_cmp_a = 0.519439 sec, T_comm_b = 0.311185 sec, T_comm_a = 0.311521 sec.
rank 58 Tb = 0.830681 sec, Ta = 0.830984 sec, comp_time = 1.038881 sec, comm_time = 0.622721 sec, neigh_comm_time = 0.622608 sec, ptp_comm_time = 0.000020 sec, coll_comm_time = 0.000020 sec, T_cmp_b = 0.519441 sec, T_cmp_a = 0.519440 sec, T_comm_b = 0.311209 sec, T_comm_a = 0.311512 sec.
rank 252 Tb = 0.830650 sec, Ta = 0.830977 sec, comp_time = 1.038880 sec, comm_time = 0.622683 sec, neigh_comm_time = 0.622569 sec, ptp_comm_time = 0.000020 sec, coll_comm_time = 0.000020 sec, T_cmp_b = 0.519440 sec, T_cmp_a = 0.519439 sec, T_comm_b = 0.311178 sec, T_comm_a = 0.311506 sec.
rank 45 Tb = 0.830687 sec, Ta = 0.831013 sec, comp_time = 1.039055 sec, comm_time = 0.622581 sec, neigh_comm_time = 0.622467 sec, ptp_comm_time = 0.000020 sec, coll_comm_time = 0.000020 sec, T_cmp_b = 0.519528 sec, T_cmp_a = 0.519527 sec, T_comm_b = 0.311127 sec, T_comm_a = 0.311454 sec.
rank 111 Tb = 0.830704 sec, Ta = 0.831042 sec, comp_time = 1.039064 sec, comm_time = 0.622619 sec, neigh_comm_time = 0.622505 sec, ptp_comm_time = 0.000020 sec, coll_comm_time = 0.000020 sec, T_cmp_b = 0.519532 sec, T_cmp_a = 0.519532 sec, T_comm_b = 0.311140 sec, T_comm_a = 0.311479 sec.
rank 188 Tb = 0.830695 sec, Ta = 0.831027 sec, comp_time = 1.039061 sec, comm_time = 0.622598 sec, neigh_comm_time = 0.622484 sec, ptp_comm_time = 0.000020 sec, coll_comm_time = 0.000020 sec, T_cmp_b = 0.519531 sec, T_cmp_a = 0.519530 sec, T_comm_b = 0.311132 sec, T_comm_a = 0.311466 sec.
rank 231 Tb = 0.830673 sec, Ta = 0.831018 sec, comp_time = 1.038886 sec, comm_time = 0.622741 sec, neigh_comm_time = 0.622627 sec, ptp_comm_time = 0.000020 sec, coll_comm_time = 0.000020 sec, T_cmp_b = 0.519444 sec, T_cmp_a = 0.519443 sec, T_comm_b = 0.311198 sec, T_comm_a = 0.311544 sec.
rank 120 Tb = 0.830698 sec, Ta = 0.831022 sec, comp_time = 1.038889 sec, comm_time = 0.622769 sec, neigh_comm_time = 0.622655 sec, ptp_comm_time = 0.000020 sec, coll_comm_time = 0.000020 sec, T_cmp_b = 0.519445 sec, T_cmp_a = 0.519444 sec, T_comm_b = 0.311221 sec, T_comm_a = 0.311547 sec.
rank 62 Tb = 0.830665 sec, Ta = 0.831002 sec, comp_time = 1.038885 sec, comm_time = 0.622720 sec, neigh_comm_time = 0.622606 sec, ptp_comm_time = 0.000020 sec, coll_comm_time = 0.000020 sec, T_cmp_b = 0.519442 sec, T_cmp_a = 0.519442 sec, T_comm_b = 0.311191 sec, T_comm_a = 0.311529 sec.
rank 57 Tb = 0.830697 sec, Ta = 0.830993 sec, comp_time = 1.038885 sec, comm_time = 0.622742 sec, neigh_comm_time = 0.622628 sec, ptp_comm_time = 0.000020 sec, coll_comm_time = 0.000020 sec, T_cmp_b = 0.519443 sec, T_cmp_a = 0.519442 sec, T_comm_b = 0.311222 sec, T_comm_a = 0.311520 sec.
rank 251 Tb = 0.830659 sec, Ta = 0.830975 sec, comp_time = 1.038881 sec, comm_time = 0.622690 sec, neigh_comm_time = 0.622577 sec, ptp_comm_time = 0.000020 sec, coll_comm_time = 0.000020 sec, T_cmp_b = 0.519441 sec, T_cmp_a = 0.519440 sec, T_comm_b = 0.311186 sec, T_comm_a = 0.311504 sec.
rank 42 Tb = 0.830696 sec, Ta = 0.831014 sec, comp_time = 1.039056 sec, comm_time = 0.622591 sec, neigh_comm_time = 0.622477 sec, ptp_comm_time = 0.000020 sec, coll_comm_time = 0.000020 sec, T_cmp_b = 0.519528 sec, T_cmp_a = 0.519528 sec, T_comm_b = 0.311136 sec, T_comm_a = 0.311455 sec.
rank 104 Tb = 0.830736 sec, Ta = 0.831052 sec, comp_time = 1.039064 sec, comm_time = 0.622662 sec, neigh_comm_time = 0.622547 sec, ptp_comm_time = 0.000020 sec, coll_comm_time = 0.000020 sec, T_cmp_b = 0.519532 sec, T_cmp_a = 0.519532 sec, T_comm_b = 0.311172 sec, T_comm_a = 0.311489 sec.
rank 187 Tb = 0.830706 sec, Ta = 0.831024 sec, comp_time = 1.039061 sec, comm_time = 0.622606 sec, neigh_comm_time = 0.622492 sec, ptp_comm_time = 0.000020 sec, coll_comm_time = 0.000020 sec, T_cmp_b = 0.519531 sec, T_cmp_a = 0.519530 sec, T_comm_b = 0.311143 sec, T_comm_a = 0.311463 sec.
rank 245 Tb = 0.830698 sec, Ta = 0.831029 sec, comp_time = 1.039061 sec, comm_time = 0.622603 sec, neigh_comm_time = 0.622489 sec, ptp_comm_time = 0.000020 sec, coll_comm_time = 0.000020 sec, T_cmp_b = 0.519531 sec, T_cmp_a = 0.519530 sec, T_comm_b = 0.311135 sec, T_comm_a = 0.311468 sec.
rank 234 Tb = 0.830683 sec, Ta = 0.831016 sec, comp_time = 1.039058 sec, comm_time = 0.622578 sec, neigh_comm_time = 0.622464 sec, ptp_comm_time = 0.000020 sec, coll_comm_time = 0.000020 sec, T_cmp_b = 0.519529 sec, T_cmp_a = 0.519529 sec, T_comm_b = 0.311122 sec, T_comm_a = 0.311456 sec.
rank 55 Tb = 0.830676 sec, Ta = 0.831009 sec, comp_time = 1.038884 sec, comm_time = 0.622738 sec, neigh_comm_time = 0.622624 sec, ptp_comm_time = 0.000020 sec, coll_comm_time = 0.000020 sec, T_cmp_b = 0.519442 sec, T_cmp_a = 0.519442 sec, T_comm_b = 0.311202 sec, T_comm_a = 0.311536 sec.
rank 48 Tb = 0.830704 sec, Ta = 0.831026 sec, comp_time = 1.038884 sec, comm_time = 0.622783 sec, neigh_comm_time = 0.622669 sec, ptp_comm_time = 0.000020 sec, coll_comm_time = 0.000020 sec, T_cmp_b = 0.519442 sec, T_cmp_a = 0.519442 sec, T_comm_b = 0.311231 sec, T_comm_a = 0.311553 sec.
rank 250 Tb = 0.830673 sec, Ta = 0.830978 sec, comp_time = 1.038882 sec, comm_time = 0.622706 sec, neigh_comm_time = 0.622593 sec, ptp_comm_time = 0.000020 sec, coll_comm_time = 0.000020 sec, T_cmp_b = 0.519441 sec, T_cmp_a = 0.519441 sec, T_comm_b = 0.311200 sec, T_comm_a = 0.311506 sec.
rank 44 Tb = 0.830690 sec, Ta = 0.831016 sec, comp_time = 1.039057 sec, comm_time = 0.622586 sec, neigh_comm_time = 0.622472 sec, ptp_comm_time = 0.000020 sec, coll_comm_time = 0.000020 sec, T_cmp_b = 0.519529 sec, T_cmp_a = 0.519528 sec, T_comm_b = 0.311130 sec, T_comm_a = 0.311456 sec.
rank 103 Tb = 0.830722 sec, Ta = 0.831052 sec, comp_time = 1.039061 sec, comm_time = 0.622651 sec, neigh_comm_time = 0.622537 sec, ptp_comm_time = 0.000020 sec, coll_comm_time = 0.000020 sec, T_cmp_b = 0.519531 sec, T_cmp_a = 0.519530 sec, T_comm_b = 0.311160 sec, T_comm_a = 0.311491 sec.
rank 189 Tb = 0.830698 sec, Ta = 0.831031 sec, comp_time = 1.039061 sec, comm_time = 0.622606 sec, neigh_comm_time = 0.622492 sec, ptp_comm_time = 0.000020 sec, coll_comm_time = 0.000020 sec, T_cmp_b = 0.519531 sec, T_cmp_a = 0.519530 sec, T_comm_b = 0.311136 sec, T_comm_a = 0.311470 sec.
rank 199 Tb = 0.830679 sec, Ta = 0.831020 sec, comp_time = 1.038700 sec, comm_time = 0.622934 sec, neigh_comm_time = 0.622818 sec, ptp_comm_time = 0.000023 sec, coll_comm_time = 0.000021 sec, T_cmp_b = 0.519350 sec, T_cmp_a = 0.519349 sec, T_comm_b = 0.311295 sec, T_comm_a = 0.311639 sec.
rank 243 Tb = 0.830705 sec, Ta = 0.831023 sec, comp_time = 1.039061 sec, comm_time = 0.622605 sec, neigh_comm_time = 0.622491 sec, ptp_comm_time = 0.000020 sec, coll_comm_time = 0.000020 sec, T_cmp_b = 0.519531 sec, T_cmp_a = 0.519530 sec, T_comm_b = 0.311143 sec, T_comm_a = 0.311462 sec.
rank 31 Tb = 0.830691 sec, Ta = 0.831024 sec, comp_time = 1.038884 sec, comm_time = 0.622769 sec, neigh_comm_time = 0.622655 sec, ptp_comm_time = 0.000020 sec, coll_comm_time = 0.000020 sec, T_cmp_b = 0.519443 sec, T_cmp_a = 0.519442 sec, T_comm_b = 0.311217 sec, T_comm_a = 0.311551 sec.
rank 51 Tb = 0.830720 sec, Ta = 0.831029 sec, comp_time = 1.039061 sec, comm_time = 0.622626 sec, neigh_comm_time = 0.622511 sec, ptp_comm_time = 0.000020 sec, coll_comm_time = 0.000020 sec, T_cmp_b = 0.519530 sec, T_cmp_a = 0.519530 sec, T_comm_b = 0.311158 sec, T_comm_a = 0.311468 sec.
rank 253 Tb = 0.830649 sec, Ta = 0.830983 sec, comp_time = 1.038878 sec, comm_time = 0.622690 sec, neigh_comm_time = 0.622577 sec, ptp_comm_time = 0.000020 sec, coll_comm_time = 0.000020 sec, T_cmp_b = 0.519439 sec, T_cmp_a = 0.519439 sec, T_comm_b = 0.311178 sec, T_comm_a = 0.311512 sec.
rank 43 Tb = 0.830700 sec, Ta = 0.831018 sec, comp_time = 1.039057 sec, comm_time = 0.622598 sec, neigh_comm_time = 0.622484 sec, ptp_comm_time = 0.000020 sec, coll_comm_time = 0.000020 sec, T_cmp_b = 0.519529 sec, T_cmp_a = 0.519528 sec, T_comm_b = 0.311139 sec, T_comm_a = 0.311458 sec.
rank 106 Tb = 0.830736 sec, Ta = 0.831052 sec, comp_time = 1.039236 sec, comm_time = 0.622490 sec, neigh_comm_time = 0.622376 sec, ptp_comm_time = 0.000020 sec, coll_comm_time = 0.000020 sec, T_cmp_b = 0.519618 sec, T_cmp_a = 0.519617 sec, T_comm_b = 0.311086 sec, T_comm_a = 0.311404 sec.
rank 186 Tb = 0.830722 sec, Ta = 0.831027 sec, comp_time = 1.039060 sec, comm_time = 0.622626 sec, neigh_comm_time = 0.622512 sec, ptp_comm_time = 0.000020 sec, coll_comm_time = 0.000020 sec, T_cmp_b = 0.519530 sec, T_cmp_a = 0.519530 sec, T_comm_b = 0.311160 sec, T_comm_a = 0.311466 sec.
rank 125 Tb = 0.830697 sec, Ta = 0.831035 sec, comp_time = 1.039061 sec, comm_time = 0.622609 sec, neigh_comm_time = 0.622495 sec, ptp_comm_time = 0.000020 sec, coll_comm_time = 0.000020 sec, T_cmp_b = 0.519531 sec, T_cmp_a = 0.519530 sec, T_comm_b = 0.311135 sec, T_comm_a = 0.311474 sec.
rank 224 Tb = 0.830691 sec, Ta = 0.831022 sec, comp_time = 1.038887 sec, comm_time = 0.622763 sec, neigh_comm_time = 0.622650 sec, ptp_comm_time = 0.000020 sec, coll_comm_time = 0.000020 sec, T_cmp_b = 0.519443 sec, T_cmp_a = 0.519443 sec, T_comm_b = 0.311216 sec, T_comm_a = 0.311547 sec.
rank 175 Tb = 0.830705 sec, Ta = 0.831037 sec, comp_time = 1.039061 sec, comm_time = 0.622618 sec, neigh_comm_time = 0.622504 sec, ptp_comm_time = 0.000020 sec, coll_comm_time = 0.000020 sec, T_cmp_b = 0.519531 sec, T_cmp_a = 0.519530 sec, T_comm_b = 0.311142 sec, T_comm_a = 0.311476 sec.
rank 168 Tb = 0.830725 sec, Ta = 0.831048 sec, comp_time = 1.039061 sec, comm_time = 0.622650 sec, neigh_comm_time = 0.622536 sec, ptp_comm_time = 0.000020 sec, coll_comm_time = 0.000020 sec, T_cmp_b = 0.519531 sec, T_cmp_a = 0.519530 sec, T_comm_b = 0.311163 sec, T_comm_a = 0.311487 sec.
rank 249 Tb = 0.830688 sec, Ta = 0.830985 sec, comp_time = 1.038885 sec, comm_time = 0.622726 sec, neigh_comm_time = 0.622612 sec, ptp_comm_time = 0.000020 sec, coll_comm_time = 0.000020 sec, T_cmp_b = 0.519443 sec, T_cmp_a = 0.519442 sec, T_comm_b = 0.311214 sec, T_comm_a = 0.311512 sec.
rank 39 Tb = 0.830682 sec, Ta = 0.831019 sec, comp_time = 1.038884 sec, comm_time = 0.622755 sec, neigh_comm_time = 0.622641 sec, ptp_comm_time = 0.000020 sec, coll_comm_time = 0.000020 sec, T_cmp_b = 0.519442 sec, T_cmp_a = 0.519442 sec, T_comm_b = 0.311208 sec, T_comm_a = 0.311547 sec.
rank 109 Tb = 0.830726 sec, Ta = 0.831052 sec, comp_time = 1.039236 sec, comm_time = 0.622480 sec, neigh_comm_time = 0.622366 sec, ptp_comm_time = 0.000020 sec, coll_comm_time = 0.000020 sec, T_cmp_b = 0.519618 sec, T_cmp_a = 0.519618 sec, T_comm_b = 0.311076 sec, T_comm_a = 0.311404 sec.
rank 190 Tb = 0.830712 sec, Ta = 0.831035 sec, comp_time = 1.039062 sec, comm_time = 0.622623 sec, neigh_comm_time = 0.622509 sec, ptp_comm_time = 0.000020 sec, coll_comm_time = 0.000020 sec, T_cmp_b = 0.519531 sec, T_cmp_a = 0.519530 sec, T_comm_b = 0.311150 sec, T_comm_a = 0.311474 sec.
rank 236 Tb = 0.830677 sec, Ta = 0.831019 sec, comp_time = 1.039057 sec, comm_time = 0.622576 sec, neigh_comm_time = 0.622462 sec, ptp_comm_time = 0.000020 sec, coll_comm_time = 0.000020 sec, T_cmp_b = 0.519529 sec, T_cmp_a = 0.519528 sec, T_comm_b = 0.311116 sec, T_comm_a = 0.311460 sec.
rank 123 Tb = 0.830714 sec, Ta = 0.831024 sec, comp_time = 1.039060 sec, comm_time = 0.622615 sec, neigh_comm_time = 0.622501 sec, ptp_comm_time = 0.000020 sec, coll_comm_time = 0.000020 sec, T_cmp_b = 0.519530 sec, T_cmp_a = 0.519530 sec, T_comm_b = 0.311152 sec, T_comm_a = 0.311463 sec.
rank 52 Tb = 0.830706 sec, Ta = 0.831031 sec, comp_time = 1.039061 sec, comm_time = 0.622613 sec, neigh_comm_time = 0.622499 sec, ptp_comm_time = 0.000020 sec, coll_comm_time = 0.000020 sec, T_cmp_b = 0.519531 sec, T_cmp_a = 0.519530 sec, T_comm_b = 0.311144 sec, T_comm_a = 0.311470 sec.
rank 50 Tb = 0.830727 sec, Ta = 0.831030 sec, comp_time = 1.039061 sec, comm_time = 0.622633 sec, neigh_comm_time = 0.622519 sec, ptp_comm_time = 0.000020 sec, coll_comm_time = 0.000020 sec, T_cmp_b = 0.519531 sec, T_cmp_a = 0.519530 sec, T_comm_b = 0.311165 sec, T_comm_a = 0.311468 sec.
rank 254 Tb = 0.830659 sec, Ta = 0.830987 sec, comp_time = 1.038885 sec, comm_time = 0.622699 sec, neigh_comm_time = 0.622585 sec, ptp_comm_time = 0.000020 sec, coll_comm_time = 0.000020 sec, T_cmp_b = 0.519443 sec, T_cmp_a = 0.519442 sec, T_comm_b = 0.311185 sec, T_comm_a = 0.311514 sec.
rank 32 Tb = 0.830705 sec, Ta = 0.831026 sec, comp_time = 1.038883 sec, comm_time = 0.622786 sec, neigh_comm_time = 0.622672 sec, ptp_comm_time = 0.000020 sec, coll_comm_time = 0.000020 sec, T_cmp_b = 0.519441 sec, T_cmp_a = 0.519441 sec, T_comm_b = 0.311232 sec, T_comm_a = 0.311554 sec.
rank 107 Tb = 0.830738 sec, Ta = 0.831057 sec, comp_time = 1.039236 sec, comm_time = 0.622496 sec, neigh_comm_time = 0.622382 sec, ptp_comm_time = 0.000020 sec, coll_comm_time = 0.000020 sec, T_cmp_b = 0.519618 sec, T_cmp_a = 0.519618 sec, T_comm_b = 0.311088 sec, T_comm_a = 0.311409 sec.
rank 185 Tb = 0.830735 sec, Ta = 0.831032 sec, comp_time = 1.039058 sec, comm_time = 0.622646 sec, neigh_comm_time = 0.622532 sec, ptp_comm_time = 0.000020 sec, coll_comm_time = 0.000020 sec, T_cmp_b = 0.519529 sec, T_cmp_a = 0.519529 sec, T_comm_b = 0.311174 sec, T_comm_a = 0.311472 sec.
rank 126 Tb = 0.830711 sec, Ta = 0.831042 sec, comp_time = 1.039061 sec, comm_time = 0.622629 sec, neigh_comm_time = 0.622515 sec, ptp_comm_time = 0.000020 sec, coll_comm_time = 0.000020 sec, T_cmp_b = 0.519531 sec, T_cmp_a = 0.519530 sec, T_comm_b = 0.311148 sec, T_comm_a = 0.311481 sec.
rank 233 Tb = 0.830721 sec, Ta = 0.831038 sec, comp_time = 1.039059 sec, comm_time = 0.622637 sec, neigh_comm_time = 0.622523 sec, ptp_comm_time = 0.000020 sec, coll_comm_time = 0.000020 sec, T_cmp_b = 0.519529 sec, T_cmp_a = 0.519530 sec, T_comm_b = 0.311160 sec, T_comm_a = 0.311477 sec.
rank 53 Tb = 0.830704 sec, Ta = 0.831039 sec, comp_time = 1.039061 sec, comm_time = 0.622619 sec, neigh_comm_time = 0.622505 sec, ptp_comm_time = 0.000020 sec, coll_comm_time = 0.000020 sec, T_cmp_b = 0.519531 sec, T_cmp_a = 0.519531 sec, T_comm_b = 0.311142 sec, T_comm_a = 0.311478 sec.
rank 160 Tb = 0.830743 sec, Ta = 0.831060 sec, comp_time = 1.039065 sec, comm_time = 0.622676 sec, neigh_comm_time = 0.622561 sec, ptp_comm_time = 0.000020 sec, coll_comm_time = 0.000020 sec, T_cmp_b = 0.519533 sec, T_cmp_a = 0.519532 sec, T_comm_b = 0.311179 sec, T_comm_a = 0.311497 sec.
rank 240 Tb = 0.830697 sec, Ta = 0.830993 sec, comp_time = 1.038888 sec, comm_time = 0.622740 sec, neigh_comm_time = 0.622626 sec, ptp_comm_time = 0.000020 sec, coll_comm_time = 0.000020 sec, T_cmp_b = 0.519444 sec, T_cmp_a = 0.519444 sec, T_comm_b = 0.311222 sec, T_comm_a = 0.311518 sec.
rank 7 Tb = 0.830711 sec, Ta = 0.831021 sec, comp_time = 1.038703 sec, comm_time = 0.622964 sec, neigh_comm_time = 0.622849 sec, ptp_comm_time = 0.000023 sec, coll_comm_time = 0.000021 sec, T_cmp_b = 0.519352 sec, T_cmp_a = 0.519351 sec, T_comm_b = 0.311326 sec, T_comm_a = 0.311638 sec.
rank 108 Tb = 0.830725 sec, Ta = 0.831055 sec, comp_time = 1.039236 sec, comm_time = 0.622481 sec, neigh_comm_time = 0.622366 sec, ptp_comm_time = 0.000020 sec, coll_comm_time = 0.000020 sec, T_cmp_b = 0.519618 sec, T_cmp_a = 0.519618 sec, T_comm_b = 0.311075 sec, T_comm_a = 0.311405 sec.
rank 183 Tb = 0.830715 sec, Ta = 0.831040 sec, comp_time = 1.039066 sec, comm_time = 0.622626 sec, neigh_comm_time = 0.622512 sec, ptp_comm_time = 0.000020 sec, coll_comm_time = 0.000020 sec, T_cmp_b = 0.519533 sec, T_cmp_a = 0.519533 sec, T_comm_b = 0.311150 sec, T_comm_a = 0.311476 sec.
rank 238 Tb = 0.830694 sec, Ta = 0.831031 sec, comp_time = 1.039059 sec, comm_time = 0.622603 sec, neigh_comm_time = 0.622489 sec, ptp_comm_time = 0.000020 sec, coll_comm_time = 0.000020 sec, T_cmp_b = 0.519530 sec, T_cmp_a = 0.519529 sec, T_comm_b = 0.311132 sec, T_comm_a = 0.311471 sec.
rank 121 Tb = 0.830741 sec, Ta = 0.831035 sec, comp_time = 1.039058 sec, comm_time = 0.622654 sec, neigh_comm_time = 0.622540 sec, ptp_comm_time = 0.000020 sec, coll_comm_time = 0.000020 sec, T_cmp_b = 0.519529 sec, T_cmp_a = 0.519529 sec, T_comm_b = 0.311180 sec, T_comm_a = 0.311475 sec.
rank 167 Tb = 0.830726 sec, Ta = 0.831059 sec, comp_time = 1.039065 sec, comm_time = 0.622657 sec, neigh_comm_time = 0.622543 sec, ptp_comm_time = 0.000020 sec, coll_comm_time = 0.000020 sec, T_cmp_b = 0.519533 sec, T_cmp_a = 0.519532 sec, T_comm_b = 0.311161 sec, T_comm_a = 0.311496 sec.
rank 24 Tb = 0.830724 sec, Ta = 0.831033 sec, comp_time = 1.038883 sec, comm_time = 0.622811 sec, neigh_comm_time = 0.622698 sec, ptp_comm_time = 0.000020 sec, coll_comm_time = 0.000020 sec, T_cmp_b = 0.519442 sec, T_cmp_a = 0.519441 sec, T_comm_b = 0.311250 sec, T_comm_a = 0.311561 sec.
rank 247 Tb = 0.830665 sec, Ta = 0.830994 sec, comp_time = 1.038889 sec, comm_time = 0.622708 sec, neigh_comm_time = 0.622593 sec, ptp_comm_time = 0.000020 sec, coll_comm_time = 0.000020 sec, T_cmp_b = 0.519444 sec, T_cmp_a = 0.519444 sec, T_comm_b = 0.311189 sec, T_comm_a = 0.311518 sec.
rank 34 Tb = 0.830729 sec, Ta = 0.831027 sec, comp_time = 1.039058 sec, comm_time = 0.622635 sec, neigh_comm_time = 0.622521 sec, ptp_comm_time = 0.000020 sec, coll_comm_time = 0.000020 sec, T_cmp_b = 0.519529 sec, T_cmp_a = 0.519529 sec, T_comm_b = 0.311168 sec, T_comm_a = 0.311467 sec.
rank 96 Tb = 0.830751 sec, Ta = 0.831063 sec, comp_time = 1.039061 sec, comm_time = 0.622691 sec, neigh_comm_time = 0.622577 sec, ptp_comm_time = 0.000020 sec, coll_comm_time = 0.000020 sec, T_cmp_b = 0.519531 sec, T_cmp_a = 0.519530 sec, T_comm_b = 0.311189 sec, T_comm_a = 0.311502 sec.
rank 176 Tb = 0.830739 sec, Ta = 0.831039 sec, comp_time = 1.039067 sec, comm_time = 0.622649 sec, neigh_comm_time = 0.622535 sec, ptp_comm_time = 0.000020 sec, coll_comm_time = 0.000020 sec, T_cmp_b = 0.519534 sec, T_cmp_a = 0.519533 sec, T_comm_b = 0.311174 sec, T_comm_a = 0.311475 sec.
rank 119 Tb = 0.830713 sec, Ta = 0.831048 sec, comp_time = 1.039063 sec, comm_time = 0.622635 sec, neigh_comm_time = 0.622521 sec, ptp_comm_time = 0.000020 sec, coll_comm_time = 0.000020 sec, T_cmp_b = 0.519531 sec, T_cmp_a = 0.519531 sec, T_comm_b = 0.311150 sec, T_comm_a = 0.311486 sec.
rank 226 Tb = 0.830718 sec, Ta = 0.831039 sec, comp_time = 1.039059 sec, comm_time = 0.622636 sec, neigh_comm_time = 0.622522 sec, ptp_comm_time = 0.000020 sec, coll_comm_time = 0.000020 sec, T_cmp_b = 0.519530 sec, T_cmp_a = 0.519529 sec, T_comm_b = 0.311157 sec, T_comm_a = 0.311479 sec.
rank 23 Tb = 0.830716 sec, Ta = 0.831043 sec, comp_time = 1.038886 sec, comm_time = 0.622810 sec, neigh_comm_time = 0.622697 sec, ptp_comm_time = 0.000020 sec, coll_comm_time = 0.000020 sec, T_cmp_b = 0.519444 sec, T_cmp_a = 0.519443 sec, T_comm_b = 0.311241 sec, T_comm_a = 0.311569 sec.
rank 128 Tb = 0.830748 sec, Ta = 0.831065 sec, comp_time = 1.038886 sec, comm_time = 0.622864 sec, neigh_comm_time = 0.622750 sec, ptp_comm_time = 0.000020 sec, coll_comm_time = 0.000020 sec, T_cmp_b = 0.519443 sec, T_cmp_a = 0.519442 sec, T_comm_b = 0.311273 sec, T_comm_a = 0.311592 sec.
rank 216 Tb = 0.830718 sec, Ta = 0.831024 sec, comp_time = 1.038887 sec, comm_time = 0.622792 sec, neigh_comm_time = 0.622678 sec, ptp_comm_time = 0.000020 sec, coll_comm_time = 0.000020 sec, T_cmp_b = 0.519444 sec, T_cmp_a = 0.519443 sec, T_comm_b = 0.311243 sec, T_comm_a = 0.311550 sec.
rank 46 Tb = 0.830702 sec, Ta = 0.831040 sec, comp_time = 1.039060 sec, comm_time = 0.622620 sec, neigh_comm_time = 0.622506 sec, ptp_comm_time = 0.000020 sec, coll_comm_time = 0.000020 sec, T_cmp_b = 0.519530 sec, T_cmp_a = 0.519530 sec, T_comm_b = 0.311141 sec, T_comm_a = 0.311480 sec.
rank 71 Tb = 0.830742 sec, Ta = 0.831060 sec, comp_time = 1.038889 sec, comm_time = 0.622850 sec, neigh_comm_time = 0.622736 sec, ptp_comm_time = 0.000020 sec, coll_comm_time = 0.000020 sec, T_cmp_b = 0.519445 sec, T_cmp_a = 0.519444 sec, T_comm_b = 0.311266 sec, T_comm_a = 0.311585 sec.
rank 29 Tb = 0.830719 sec, Ta = 0.831041 sec, comp_time = 1.039058 sec, comm_time = 0.622640 sec, neigh_comm_time = 0.622526 sec, ptp_comm_time = 0.000020 sec, coll_comm_time = 0.000020 sec, T_cmp_b = 0.519529 sec, T_cmp_a = 0.519529 sec, T_comm_b = 0.311159 sec, T_comm_a = 0.311481 sec.
rank 230 Tb = 0.830716 sec, Ta = 0.831052 sec, comp_time = 1.039060 sec, comm_time = 0.622646 sec, neigh_comm_time = 0.622532 sec, ptp_comm_time = 0.000020 sec, coll_comm_time = 0.000020 sec, T_cmp_b = 0.519530 sec, T_cmp_a = 0.519530 sec, T_comm_b = 0.311154 sec, T_comm_a = 0.311492 sec.
rank 112 Tb = 0.830746 sec, Ta = 0.831053 sec, comp_time = 1.039063 sec, comm_time = 0.622673 sec, neigh_comm_time = 0.622559 sec, ptp_comm_time = 0.000020 sec, coll_comm_time = 0.000020 sec, T_cmp_b = 0.519532 sec, T_cmp_a = 0.519531 sec, T_comm_b = 0.311183 sec, T_comm_a = 0.311490 sec.
rank 5 Tb = 0.830738 sec, Ta = 0.831062 sec, comp_time = 1.038878 sec, comm_time = 0.622857 sec, neigh_comm_time = 0.622744 sec, ptp_comm_time = 0.000020 sec, coll_comm_time = 0.000020 sec, T_cmp_b = 0.519439 sec, T_cmp_a = 0.519439 sec, T_comm_b = 0.311266 sec, T_comm_a = 0.311591 sec.
rank 49 Tb = 0.830742 sec, Ta = 0.831038 sec, comp_time = 1.039060 sec, comm_time = 0.622658 sec, neigh_comm_time = 0.622543 sec, ptp_comm_time = 0.000020 sec, coll_comm_time = 0.000020 sec, T_cmp_b = 0.519530 sec, T_cmp_a = 0.519530 sec, T_comm_b = 0.311180 sec, T_comm_a = 0.311478 sec.
rank 223 Tb = 0.830691 sec, Ta = 0.831025 sec, comp_time = 1.038887 sec, comm_time = 0.622766 sec, neigh_comm_time = 0.622652 sec, ptp_comm_time = 0.000020 sec, coll_comm_time = 0.000020 sec, T_cmp_b = 0.519444 sec, T_cmp_a = 0.519443 sec, T_comm_b = 0.311216 sec, T_comm_a = 0.311550 sec.
rank 0 Tb = 0.830713 sec, Ta = 0.831039 sec, comp_time = 1.038715 sec, comm_time = 0.622973 sec, neigh_comm_time = 0.622857 sec, ptp_comm_time = 0.000022 sec, coll_comm_time = 0.000021 sec, T_cmp_b = 0.519357 sec, T_cmp_a = 0.519358 sec, T_comm_b = 0.311325 sec, T_comm_a = 0.311648 sec.
rank 64 Tb = 0.830750 sec, Ta = 0.831076 sec, comp_time = 1.038889 sec, comm_time = 0.622874 sec, neigh_comm_time = 0.622760 sec, ptp_comm_time = 0.000020 sec, coll_comm_time = 0.000020 sec, T_cmp_b = 0.519445 sec, T_cmp_a = 0.519444 sec, T_comm_b = 0.311273 sec, T_comm_a = 0.311601 sec.
rank 27 Tb = 0.830722 sec, Ta = 0.831055 sec, comp_time = 1.039058 sec, comm_time = 0.622655 sec, neigh_comm_time = 0.622541 sec, ptp_comm_time = 0.000020 sec, coll_comm_time = 0.000020 sec, T_cmp_b = 0.519530 sec, T_cmp_a = 0.519529 sec, T_comm_b = 0.311160 sec, T_comm_a = 0.311495 sec.
rank 198 Tb = 0.830731 sec, Ta = 0.831057 sec, comp_time = 1.038884 sec, comm_time = 0.622841 sec, neigh_comm_time = 0.622727 sec, ptp_comm_time = 0.000020 sec, coll_comm_time = 0.000020 sec, T_cmp_b = 0.519442 sec, T_cmp_a = 0.519442 sec, T_comm_b = 0.311257 sec, T_comm_a = 0.311584 sec.
rank 225 Tb = 0.830736 sec, Ta = 0.831051 sec, comp_time = 1.039060 sec, comm_time = 0.622665 sec, neigh_comm_time = 0.622551 sec, ptp_comm_time = 0.000020 sec, coll_comm_time = 0.000020 sec, T_cmp_b = 0.519531 sec, T_cmp_a = 0.519530 sec, T_comm_b = 0.311174 sec, T_comm_a = 0.311491 sec.
rank 54 Tb = 0.830712 sec, Ta = 0.831046 sec, comp_time = 1.039062 sec, comm_time = 0.622632 sec, neigh_comm_time = 0.622518 sec, ptp_comm_time = 0.000020 sec, coll_comm_time = 0.000020 sec, T_cmp_b = 0.519531 sec, T_cmp_a = 0.519531 sec, T_comm_b = 0.311149 sec, T_comm_a = 0.311484 sec.
rank 170 Tb = 0.830730 sec, Ta = 0.831061 sec, comp_time = 1.039238 sec, comm_time = 0.622490 sec, neigh_comm_time = 0.622376 sec, ptp_comm_time = 0.000020 sec, coll_comm_time = 0.000020 sec, T_cmp_b = 0.519618 sec, T_cmp_a = 0.519619 sec, T_comm_b = 0.311080 sec, T_comm_a = 0.311411 sec.
rank 244 Tb = 0.830695 sec, Ta = 0.831024 sec, comp_time = 1.039061 sec, comm_time = 0.622595 sec, neigh_comm_time = 0.622481 sec, ptp_comm_time = 0.000020 sec, coll_comm_time = 0.000020 sec, T_cmp_b = 0.519531 sec, T_cmp_a = 0.519530 sec, T_comm_b = 0.311132 sec, T_comm_a = 0.311463 sec.
rank 37 Tb = 0.830711 sec, Ta = 0.831043 sec, comp_time = 1.039057 sec, comm_time = 0.622634 sec, neigh_comm_time = 0.622520 sec, ptp_comm_time = 0.000020 sec, coll_comm_time = 0.000020 sec, T_cmp_b = 0.519529 sec, T_cmp_a = 0.519529 sec, T_comm_b = 0.311150 sec, T_comm_a = 0.311484 sec.
rank 110 Tb = 0.830737 sec, Ta = 0.831076 sec, comp_time = 1.039237 sec, comm_time = 0.622513 sec, neigh_comm_time = 0.622399 sec, ptp_comm_time = 0.000020 sec, coll_comm_time = 0.000020 sec, T_cmp_b = 0.519619 sec, T_cmp_a = 0.519618 sec, T_comm_b = 0.311086 sec, T_comm_a = 0.311427 sec.
rank 180 Tb = 0.830733 sec, Ta = 0.831065 sec, comp_time = 1.039237 sec, comm_time = 0.622498 sec, neigh_comm_time = 0.622384 sec, ptp_comm_time = 0.000020 sec, coll_comm_time = 0.000020 sec, T_cmp_b = 0.519619 sec, T_cmp_a = 0.519619 sec, T_comm_b = 0.311083 sec, T_comm_a = 0.311415 sec.
rank 116 Tb = 0.830739 sec, Ta = 0.831064 sec, comp_time = 1.039237 sec, comm_time = 0.622504 sec, neigh_comm_time = 0.622390 sec, ptp_comm_time = 0.000020 sec, coll_comm_time = 0.000020 sec, T_cmp_b = 0.519618 sec, T_cmp_a = 0.519619 sec, T_comm_b = 0.311089 sec, T_comm_a = 0.311415 sec.
rank 114 Tb = 0.830764 sec, Ta = 0.831062 sec, comp_time = 1.039237 sec, comm_time = 0.622527 sec, neigh_comm_time = 0.622413 sec, ptp_comm_time = 0.000020 sec, coll_comm_time = 0.000020 sec, T_cmp_b = 0.519618 sec, T_cmp_a = 0.519618 sec, T_comm_b = 0.311114 sec, T_comm_a = 0.311413 sec.
rank 173 Tb = 0.830719 sec, Ta = 0.831061 sec, comp_time = 1.039235 sec, comm_time = 0.622482 sec, neigh_comm_time = 0.622368 sec, ptp_comm_time = 0.000020 sec, coll_comm_time = 0.000020 sec, T_cmp_b = 0.519618 sec, T_cmp_a = 0.519618 sec, T_comm_b = 0.311070 sec, T_comm_a = 0.311412 sec.
rank 16 Tb = 0.830731 sec, Ta = 0.831058 sec, comp_time = 1.038887 sec, comm_time = 0.622839 sec, neigh_comm_time = 0.622725 sec, ptp_comm_time = 0.000020 sec, coll_comm_time = 0.000020 sec, T_cmp_b = 0.519443 sec, T_cmp_a = 0.519444 sec, T_comm_b = 0.311256 sec, T_comm_a = 0.311583 sec.
rank 122 Tb = 0.830722 sec, Ta = 0.831025 sec, comp_time = 1.039060 sec, comm_time = 0.622624 sec, neigh_comm_time = 0.622510 sec, ptp_comm_time = 0.000020 sec, coll_comm_time = 0.000020 sec, T_cmp_b = 0.519530 sec, T_cmp_a = 0.519530 sec, T_comm_b = 0.311160 sec, T_comm_a = 0.311464 sec.
rank 41 Tb = 0.830732 sec, Ta = 0.831047 sec, comp_time = 1.039059 sec, comm_time = 0.622658 sec, neigh_comm_time = 0.622544 sec, ptp_comm_time = 0.000020 sec, coll_comm_time = 0.000020 sec, T_cmp_b = 0.519530 sec, T_cmp_a = 0.519529 sec, T_comm_b = 0.311171 sec, T_comm_a = 0.311487 sec.
rank 105 Tb = 0.830768 sec, Ta = 0.831083 sec, comp_time = 1.039235 sec, comm_time = 0.622554 sec, neigh_comm_time = 0.622440 sec, ptp_comm_time = 0.000020 sec, coll_comm_time = 0.000020 sec, T_cmp_b = 0.519618 sec, T_cmp_a = 0.519617 sec, T_comm_b = 0.311119 sec, T_comm_a = 0.311435 sec.
rank 179 Tb = 0.830744 sec, Ta = 0.831063 sec, comp_time = 1.039238 sec, comm_time = 0.622506 sec, neigh_comm_time = 0.622392 sec, ptp_comm_time = 0.000020 sec, coll_comm_time = 0.000020 sec, T_cmp_b = 0.519619 sec, T_cmp_a = 0.519618 sec, T_comm_b = 0.311093 sec, T_comm_a = 0.311413 sec.
rank 95 Tb = 0.830731 sec, Ta = 0.831074 sec, comp_time = 1.039061 sec, comm_time = 0.622682 sec, neigh_comm_time = 0.622568 sec, ptp_comm_time = 0.000020 sec, coll_comm_time = 0.000020 sec, T_cmp_b = 0.519531 sec, T_cmp_a = 0.519530 sec, T_comm_b = 0.311168 sec, T_comm_a = 0.311513 sec.
rank 227 Tb = 0.830710 sec, Ta = 0.831051 sec, comp_time = 1.039058 sec, comm_time = 0.622640 sec, neigh_comm_time = 0.622526 sec, ptp_comm_time = 0.000020 sec, coll_comm_time = 0.000020 sec, T_cmp_b = 0.519529 sec, T_cmp_a = 0.519529 sec, T_comm_b = 0.311150 sec, T_comm_a = 0.311491 sec.
rank 28 Tb = 0.830721 sec, Ta = 0.831049 sec, comp_time = 1.039059 sec, comm_time = 0.622650 sec, neigh_comm_time = 0.622535 sec, ptp_comm_time = 0.000020 sec, coll_comm_time = 0.000020 sec, T_cmp_b = 0.519530 sec, T_cmp_a = 0.519529 sec, T_comm_b = 0.311160 sec, T_comm_a = 0.311490 sec.
rank 3 Tb = 0.830743 sec, Ta = 0.831072 sec, comp_time = 1.038876 sec, comm_time = 0.622874 sec, neigh_comm_time = 0.622760 sec, ptp_comm_time = 0.000020 sec, coll_comm_time = 0.000020 sec, T_cmp_b = 0.519438 sec, T_cmp_a = 0.519437 sec, T_comm_b = 0.311272 sec, T_comm_a = 0.311602 sec.
rank 124 Tb = 0.830700 sec, Ta = 0.831026 sec, comp_time = 1.039061 sec, comm_time = 0.622602 sec, neigh_comm_time = 0.622488 sec, ptp_comm_time = 0.000020 sec, coll_comm_time = 0.000020 sec, T_cmp_b = 0.519531 sec, T_cmp_a = 0.519530 sec, T_comm_b = 0.311137 sec, T_comm_a = 0.311465 sec.
rank 36 Tb = 0.830705 sec, Ta = 0.831054 sec, comp_time = 1.039058 sec, comm_time = 0.622638 sec, neigh_comm_time = 0.622524 sec, ptp_comm_time = 0.000020 sec, coll_comm_time = 0.000020 sec, T_cmp_b = 0.519529 sec, T_cmp_a = 0.519529 sec, T_comm_b = 0.311144 sec, T_comm_a = 0.311494 sec.
rank 101 Tb = 0.830749 sec, Ta = 0.831080 sec, comp_time = 1.039236 sec, comm_time = 0.622530 sec, neigh_comm_time = 0.622416 sec, ptp_comm_time = 0.000020 sec, coll_comm_time = 0.000020 sec, T_cmp_b = 0.519618 sec, T_cmp_a = 0.519618 sec, T_comm_b = 0.311099 sec, T_comm_a = 0.311431 sec.
rank 178 Tb = 0.830760 sec, Ta = 0.831067 sec, comp_time = 1.039237 sec, comm_time = 0.622526 sec, neigh_comm_time = 0.622412 sec, ptp_comm_time = 0.000020 sec, coll_comm_time = 0.000020 sec, T_cmp_b = 0.519619 sec, T_cmp_a = 0.519619 sec, T_comm_b = 0.311109 sec, T_comm_a = 0.311417 sec.
rank 229 Tb = 0.830711 sec, Ta = 0.831058 sec, comp_time = 1.039058 sec, comm_time = 0.622649 sec, neigh_comm_time = 0.622535 sec, ptp_comm_time = 0.000020 sec, coll_comm_time = 0.000020 sec, T_cmp_b = 0.519529 sec, T_cmp_a = 0.519529 sec, T_comm_b = 0.311150 sec, T_comm_a = 0.311499 sec.
rank 115 Tb = 0.830753 sec, Ta = 0.831063 sec, comp_time = 1.039237 sec, comm_time = 0.622516 sec, neigh_comm_time = 0.622402 sec, ptp_comm_time = 0.000020 sec, coll_comm_time = 0.000020 sec, T_cmp_b = 0.519619 sec, T_cmp_a = 0.519618 sec, T_comm_b = 0.311102 sec, T_comm_a = 0.311414 sec.
rank 135 Tb = 0.830739 sec, Ta = 0.831065 sec, comp_time = 1.038885 sec, comm_time = 0.622856 sec, neigh_comm_time = 0.622742 sec, ptp_comm_time = 0.000020 sec, coll_comm_time = 0.000020 sec, T_cmp_b = 0.519443 sec, T_cmp_a = 0.519442 sec, T_comm_b = 0.311264 sec, T_comm_a = 0.311592 sec.
rank 26 Tb = 0.830733 sec, Ta = 0.831057 sec, comp_time = 1.039059 sec, comm_time = 0.622668 sec, neigh_comm_time = 0.622555 sec, ptp_comm_time = 0.000020 sec, coll_comm_time = 0.000020 sec, T_cmp_b = 0.519530 sec, T_cmp_a = 0.519529 sec, T_comm_b = 0.311172 sec, T_comm_a = 0.311497 sec.
rank 242 Tb = 0.830720 sec, Ta = 0.831024 sec, comp_time = 1.039061 sec, comm_time = 0.622621 sec, neigh_comm_time = 0.622507 sec, ptp_comm_time = 0.000020 sec, coll_comm_time = 0.000020 sec, T_cmp_b = 0.519531 sec, T_cmp_a = 0.519530 sec, T_comm_b = 0.311157 sec, T_comm_a = 0.311463 sec.
rank 35 Tb = 0.830707 sec, Ta = 0.831048 sec, comp_time = 1.039058 sec, comm_time = 0.622634 sec, neigh_comm_time = 0.622521 sec, ptp_comm_time = 0.000020 sec, coll_comm_time = 0.000020 sec, T_cmp_b = 0.519529 sec, T_cmp_a = 0.519529 sec, T_comm_b = 0.311147 sec, T_comm_a = 0.311488 sec.
rank 99 Tb = 0.830744 sec, Ta = 0.831083 sec, comp_time = 1.039236 sec, comm_time = 0.622528 sec, neigh_comm_time = 0.622414 sec, ptp_comm_time = 0.000020 sec, coll_comm_time = 0.000020 sec, T_cmp_b = 0.519618 sec, T_cmp_a = 0.519618 sec, T_comm_b = 0.311094 sec, T_comm_a = 0.311434 sec.
rank 181 Tb = 0.830739 sec, Ta = 0.831070 sec, comp_time = 1.039237 sec, comm_time = 0.622509 sec, neigh_comm_time = 0.622395 sec, ptp_comm_time = 0.000020 sec, coll_comm_time = 0.000020 sec, T_cmp_b = 0.519619 sec, T_cmp_a = 0.519618 sec, T_comm_b = 0.311089 sec, T_comm_a = 0.311421 sec.
rank 117 Tb = 0.830737 sec, Ta = 0.831073 sec, comp_time = 1.039237 sec, comm_time = 0.622511 sec, neigh_comm_time = 0.622396 sec, ptp_comm_time = 0.000020 sec, coll_comm_time = 0.000020 sec, T_cmp_b = 0.519619 sec, T_cmp_a = 0.519619 sec, T_comm_b = 0.311087 sec, T_comm_a = 0.311423 sec.
rank 193 Tb = 0.830740 sec, Ta = 0.831055 sec, comp_time = 1.038885 sec, comm_time = 0.622847 sec, neigh_comm_time = 0.622732 sec, ptp_comm_time = 0.000020 sec, coll_comm_time = 0.000020 sec, T_cmp_b = 0.519443 sec, T_cmp_a = 0.519442 sec, T_comm_b = 0.311265 sec, T_comm_a = 0.311581 sec.
rank 30 Tb = 0.830728 sec, Ta = 0.831071 sec, comp_time = 1.039060 sec, comm_time = 0.622677 sec, neigh_comm_time = 0.622563 sec, ptp_comm_time = 0.000020 sec, coll_comm_time = 0.000020 sec, T_cmp_b = 0.519530 sec, T_cmp_a = 0.519530 sec, T_comm_b = 0.311167 sec, T_comm_a = 0.311510 sec.
rank 171 Tb = 0.830726 sec, Ta = 0.831073 sec, comp_time = 1.039236 sec, comm_time = 0.622501 sec, neigh_comm_time = 0.622386 sec, ptp_comm_time = 0.000020 sec, coll_comm_time = 0.000020 sec, T_cmp_b = 0.519618 sec, T_cmp_a = 0.519618 sec, T_comm_b = 0.311076 sec, T_comm_a = 0.311424 sec.
rank 246 Tb = 0.830710 sec, Ta = 0.831032 sec, comp_time = 1.039062 sec, comm_time = 0.622619 sec, neigh_comm_time = 0.622504 sec, ptp_comm_time = 0.000020 sec, coll_comm_time = 0.000020 sec, T_cmp_b = 0.519531 sec, T_cmp_a = 0.519531 sec, T_comm_b = 0.311148 sec, T_comm_a = 0.311471 sec.
rank 38 Tb = 0.830724 sec, Ta = 0.831052 sec, comp_time = 1.039060 sec, comm_time = 0.622653 sec, neigh_comm_time = 0.622539 sec, ptp_comm_time = 0.000020 sec, coll_comm_time = 0.000020 sec, T_cmp_b = 0.519530 sec, T_cmp_a = 0.519530 sec, T_comm_b = 0.311162 sec, T_comm_a = 0.311491 sec.
rank 102 Tb = 0.830755 sec, Ta = 0.831088 sec, comp_time = 1.039238 sec, comm_time = 0.622543 sec, neigh_comm_time = 0.622429 sec, ptp_comm_time = 0.000020 sec, coll_comm_time = 0.000020 sec, T_cmp_b = 0.519619 sec, T_cmp_a = 0.519619 sec, T_comm_b = 0.311105 sec, T_comm_a = 0.311438 sec.
rank 177 Tb = 0.830776 sec, Ta = 0.831070 sec, comp_time = 1.039239 sec, comm_time = 0.622545 sec, neigh_comm_time = 0.622431 sec, ptp_comm_time = 0.000020 sec, coll_comm_time = 0.000020 sec, T_cmp_b = 0.519620 sec, T_cmp_a = 0.519619 sec, T_comm_b = 0.311125 sec, T_comm_a = 0.311420 sec.
rank 197 Tb = 0.830727 sec, Ta = 0.831059 sec, comp_time = 1.038877 sec, comm_time = 0.622845 sec, neigh_comm_time = 0.622731 sec, ptp_comm_time = 0.000020 sec, coll_comm_time = 0.000020 sec, T_cmp_b = 0.519439 sec, T_cmp_a = 0.519438 sec, T_comm_b = 0.311256 sec, T_comm_a = 0.311588 sec.
rank 113 Tb = 0.830780 sec, Ta = 0.831076 sec, comp_time = 1.039239 sec, comm_time = 0.622554 sec, neigh_comm_time = 0.622440 sec, ptp_comm_time = 0.000020 sec, coll_comm_time = 0.000020 sec, T_cmp_b = 0.519619 sec, T_cmp_a = 0.519619 sec, T_comm_b = 0.311129 sec, T_comm_a = 0.311426 sec.
rank 172 Tb = 0.830727 sec, Ta = 0.831068 sec, comp_time = 1.039236 sec, comm_time = 0.622497 sec, neigh_comm_time = 0.622383 sec, ptp_comm_time = 0.000020 sec, coll_comm_time = 0.000020 sec, T_cmp_b = 0.519618 sec, T_cmp_a = 0.519618 sec, T_comm_b = 0.311077 sec, T_comm_a = 0.311420 sec.
rank 25 Tb = 0.830752 sec, Ta = 0.831072 sec, comp_time = 1.039060 sec, comm_time = 0.622702 sec, neigh_comm_time = 0.622587 sec, ptp_comm_time = 0.000020 sec, coll_comm_time = 0.000020 sec, T_cmp_b = 0.519530 sec, T_cmp_a = 0.519530 sec, T_comm_b = 0.311190 sec, T_comm_a = 0.311511 sec.
rank 241 Tb = 0.830731 sec, Ta = 0.831030 sec, comp_time = 1.039060 sec, comm_time = 0.622639 sec, neigh_comm_time = 0.622524 sec, ptp_comm_time = 0.000020 sec, coll_comm_time = 0.000020 sec, T_cmp_b = 0.519531 sec, T_cmp_a = 0.519529 sec, T_comm_b = 0.311169 sec, T_comm_a = 0.311469 sec.
rank 33 Tb = 0.830749 sec, Ta = 0.831058 sec, comp_time = 1.039059 sec, comm_time = 0.622684 sec, neigh_comm_time = 0.622570 sec, ptp_comm_time = 0.000020 sec, coll_comm_time = 0.000020 sec, T_cmp_b = 0.519530 sec, T_cmp_a = 0.519530 sec, T_comm_b = 0.311187 sec, T_comm_a = 0.311497 sec.
rank 97 Tb = 0.830787 sec, Ta = 0.831096 sec, comp_time = 1.039236 sec, comm_time = 0.622584 sec, neigh_comm_time = 0.622470 sec, ptp_comm_time = 0.000020 sec, coll_comm_time = 0.000020 sec, T_cmp_b = 0.519618 sec, T_cmp_a = 0.519618 sec, T_comm_b = 0.311137 sec, T_comm_a = 0.311447 sec.
rank 159 Tb = 0.830733 sec, Ta = 0.831070 sec, comp_time = 1.039065 sec, comm_time = 0.622675 sec, neigh_comm_time = 0.622561 sec, ptp_comm_time = 0.000020 sec, coll_comm_time = 0.000020 sec, T_cmp_b = 0.519533 sec, T_cmp_a = 0.519532 sec, T_comm_b = 0.311169 sec, T_comm_a = 0.311506 sec.
rank 207 Tb = 0.830726 sec, Ta = 0.831062 sec, comp_time = 1.038889 sec, comm_time = 0.622837 sec, neigh_comm_time = 0.622723 sec, ptp_comm_time = 0.000020 sec, coll_comm_time = 0.000020 sec, T_cmp_b = 0.519444 sec, T_cmp_a = 0.519444 sec, T_comm_b = 0.311250 sec, T_comm_a = 0.311587 sec.
rank 200 Tb = 0.830744 sec, Ta = 0.831059 sec, comp_time = 1.038889 sec, comm_time = 0.622852 sec, neigh_comm_time = 0.622738 sec, ptp_comm_time = 0.000020 sec, coll_comm_time = 0.000020 sec, T_cmp_b = 0.519445 sec, T_cmp_a = 0.519444 sec, T_comm_b = 0.311268 sec, T_comm_a = 0.311584 sec.
rank 22 Tb = 0.830758 sec, Ta = 0.831078 sec, comp_time = 1.039060 sec, comm_time = 0.622713 sec, neigh_comm_time = 0.622599 sec, ptp_comm_time = 0.000020 sec, coll_comm_time = 0.000020 sec, T_cmp_b = 0.519530 sec, T_cmp_a = 0.519530 sec, T_comm_b = 0.311196 sec, T_comm_a = 0.311517 sec.
rank 162 Tb = 0.830762 sec, Ta = 0.831080 sec, comp_time = 1.039236 sec, comm_time = 0.622543 sec, neigh_comm_time = 0.622429 sec, ptp_comm_time = 0.000020 sec, coll_comm_time = 0.000020 sec, T_cmp_b = 0.519618 sec, T_cmp_a = 0.519618 sec, T_comm_b = 0.311112 sec, T_comm_a = 0.311431 sec.
rank 215 Tb = 0.830703 sec, Ta = 0.831038 sec, comp_time = 1.038884 sec, comm_time = 0.622794 sec, neigh_comm_time = 0.622681 sec, ptp_comm_time = 0.000020 sec, coll_comm_time = 0.000020 sec, T_cmp_b = 0.519442 sec, T_cmp_a = 0.519442 sec, T_comm_b = 0.311229 sec, T_comm_a = 0.311566 sec.
rank 6 Tb = 0.830723 sec, Ta = 0.831058 sec, comp_time = 1.038886 sec, comm_time = 0.622833 sec, neigh_comm_time = 0.622719 sec, ptp_comm_time = 0.000020 sec, coll_comm_time = 0.000020 sec, T_cmp_b = 0.519443 sec, T_cmp_a = 0.519442 sec, T_comm_b = 0.311248 sec, T_comm_a = 0.311585 sec.
rank 70 Tb = 0.830772 sec, Ta = 0.831097 sec, comp_time = 1.039062 sec, comm_time = 0.622745 sec, neigh_comm_time = 0.622631 sec, ptp_comm_time = 0.000020 sec, coll_comm_time = 0.000020 sec, T_cmp_b = 0.519531 sec, T_cmp_a = 0.519531 sec, T_comm_b = 0.311209 sec, T_comm_a = 0.311536 sec.
rank 182 Tb = 0.830749 sec, Ta = 0.831072 sec, comp_time = 1.039238 sec, comm_time = 0.622521 sec, neigh_comm_time = 0.622406 sec, ptp_comm_time = 0.000020 sec, coll_comm_time = 0.000020 sec, T_cmp_b = 0.519619 sec, T_cmp_a = 0.519619 sec, T_comm_b = 0.311098 sec, T_comm_a = 0.311423 sec.
rank 118 Tb = 0.830746 sec, Ta = 0.831081 sec, comp_time = 1.039238 sec, comm_time = 0.622526 sec, neigh_comm_time = 0.622412 sec, ptp_comm_time = 0.000020 sec, coll_comm_time = 0.000020 sec, T_cmp_b = 0.519619 sec, T_cmp_a = 0.519619 sec, T_comm_b = 0.311096 sec, T_comm_a = 0.311431 sec.
rank 88 Tb = 0.830752 sec, Ta = 0.831081 sec, comp_time = 1.039061 sec, comm_time = 0.622709 sec, neigh_comm_time = 0.622595 sec, ptp_comm_time = 0.000020 sec, coll_comm_time = 0.000020 sec, T_cmp_b = 0.519531 sec, T_cmp_a = 0.519530 sec, T_comm_b = 0.311189 sec, T_comm_a = 0.311520 sec.
rank 174 Tb = 0.830744 sec, Ta = 0.831072 sec, comp_time = 1.039237 sec, comm_time = 0.622516 sec, neigh_comm_time = 0.622402 sec, ptp_comm_time = 0.000020 sec, coll_comm_time = 0.000020 sec, T_cmp_b = 0.519619 sec, T_cmp_a = 0.519618 sec, T_comm_b = 0.311094 sec, T_comm_a = 0.311423 sec.
rank 18 Tb = 0.830780 sec, Ta = 0.831078 sec, comp_time = 1.039059 sec, comm_time = 0.622736 sec, neigh_comm_time = 0.622622 sec, ptp_comm_time = 0.000020 sec, coll_comm_time = 0.000020 sec, T_cmp_b = 0.519530 sec, T_cmp_a = 0.519529 sec, T_comm_b = 0.311218 sec, T_comm_a = 0.311518 sec.
rank 208 Tb = 0.830733 sec, Ta = 0.831045 sec, comp_time = 1.038884 sec, comm_time = 0.622831 sec, neigh_comm_time = 0.622718 sec, ptp_comm_time = 0.000020 sec, coll_comm_time = 0.000020 sec, T_cmp_b = 0.519442 sec, T_cmp_a = 0.519442 sec, T_comm_b = 0.311259 sec, T_comm_a = 0.311572 sec.
rank 1 Tb = 0.830750 sec, Ta = 0.831069 sec, comp_time = 1.038885 sec, comm_time = 0.622872 sec, neigh_comm_time = 0.622759 sec, ptp_comm_time = 0.000020 sec, coll_comm_time = 0.000020 sec, T_cmp_b = 0.519442 sec, T_cmp_a = 0.519443 sec, T_comm_b = 0.311277 sec, T_comm_a = 0.311596 sec.
rank 65 Tb = 0.830784 sec, Ta = 0.831110 sec, comp_time = 1.039059 sec, comm_time = 0.622773 sec, neigh_comm_time = 0.622659 sec, ptp_comm_time = 0.000020 sec, coll_comm_time = 0.000020 sec, T_cmp_b = 0.519530 sec, T_cmp_a = 0.519529 sec, T_comm_b = 0.311223 sec, T_comm_a = 0.311550 sec.
rank 152 Tb = 0.830758 sec, Ta = 0.831076 sec, comp_time = 1.039065 sec, comm_time = 0.622706 sec, neigh_comm_time = 0.622592 sec, ptp_comm_time = 0.000020 sec, coll_comm_time = 0.000020 sec, T_cmp_b = 0.519533 sec, T_cmp_a = 0.519532 sec, T_comm_b = 0.311194 sec, T_comm_a = 0.311512 sec.
rank 196 Tb = 0.830728 sec, Ta = 0.831065 sec, comp_time = 1.038877 sec, comm_time = 0.622851 sec, neigh_comm_time = 0.622737 sec, ptp_comm_time = 0.000020 sec, coll_comm_time = 0.000020 sec, T_cmp_b = 0.519440 sec, T_cmp_a = 0.519438 sec, T_comm_b = 0.311256 sec, T_comm_a = 0.311595 sec.
rank 194 Tb = 0.830737 sec, Ta = 0.831057 sec, comp_time = 1.038877 sec, comm_time = 0.622852 sec, neigh_comm_time = 0.622738 sec, ptp_comm_time = 0.000020 sec, coll_comm_time = 0.000020 sec, T_cmp_b = 0.519439 sec, T_cmp_a = 0.519439 sec, T_comm_b = 0.311266 sec, T_comm_a = 0.311586 sec.
rank 21 Tb = 0.830758 sec, Ta = 0.831090 sec, comp_time = 1.039059 sec, comm_time = 0.622727 sec, neigh_comm_time = 0.622613 sec, ptp_comm_time = 0.000020 sec, coll_comm_time = 0.000020 sec, T_cmp_b = 0.519530 sec, T_cmp_a = 0.519529 sec, T_comm_b = 0.311197 sec, T_comm_a = 0.311530 sec.
rank 161 Tb = 0.830778 sec, Ta = 0.831092 sec, comp_time = 1.039236 sec, comm_time = 0.622572 sec, neigh_comm_time = 0.622458 sec, ptp_comm_time = 0.000020 sec, coll_comm_time = 0.000020 sec, T_cmp_b = 0.519618 sec, T_cmp_a = 0.519618 sec, T_comm_b = 0.311128 sec, T_comm_a = 0.311444 sec.
rank 221 Tb = 0.830718 sec, Ta = 0.831042 sec, comp_time = 1.039058 sec, comm_time = 0.622640 sec, neigh_comm_time = 0.622526 sec, ptp_comm_time = 0.000020 sec, coll_comm_time = 0.000020 sec, T_cmp_b = 0.519530 sec, T_cmp_a = 0.519529 sec, T_comm_b = 0.311157 sec, T_comm_a = 0.311482 sec.
rank 15 Tb = 0.830741 sec, Ta = 0.831062 sec, comp_time = 1.038884 sec, comm_time = 0.622857 sec, neigh_comm_time = 0.622742 sec, ptp_comm_time = 0.000020 sec, coll_comm_time = 0.000020 sec, T_cmp_b = 0.519443 sec, T_cmp_a = 0.519442 sec, T_comm_b = 0.311267 sec, T_comm_a = 0.311589 sec.
rank 79 Tb = 0.830775 sec, Ta = 0.831099 sec, comp_time = 1.039063 sec, comm_time = 0.622749 sec, neigh_comm_time = 0.622634 sec, ptp_comm_time = 0.000020 sec, coll_comm_time = 0.000020 sec, T_cmp_b = 0.519532 sec, T_cmp_a = 0.519531 sec, T_comm_b = 0.311212 sec, T_comm_a = 0.311537 sec.
rank 157 Tb = 0.830763 sec, Ta = 0.831087 sec, comp_time = 1.039236 sec, comm_time = 0.622552 sec, neigh_comm_time = 0.622438 sec, ptp_comm_time = 0.000020 sec, coll_comm_time = 0.000020 sec, T_cmp_b = 0.519618 sec, T_cmp_a = 0.519618 sec, T_comm_b = 0.311113 sec, T_comm_a = 0.311439 sec.
rank 87 Tb = 0.830760 sec, Ta = 0.831082 sec, comp_time = 1.039065 sec, comm_time = 0.622714 sec, neigh_comm_time = 0.622600 sec, ptp_comm_time = 0.000020 sec, coll_comm_time = 0.000020 sec, T_cmp_b = 0.519533 sec, T_cmp_a = 0.519532 sec, T_comm_b = 0.311196 sec, T_comm_a = 0.311518 sec.
rank 90 Tb = 0.830777 sec, Ta = 0.831092 sec, comp_time = 1.039236 sec, comm_time = 0.622570 sec, neigh_comm_time = 0.622456 sec, ptp_comm_time = 0.000020 sec, coll_comm_time = 0.000020 sec, T_cmp_b = 0.519618 sec, T_cmp_a = 0.519618 sec, T_comm_b = 0.311127 sec, T_comm_a = 0.311443 sec.
rank 166 Tb = 0.830758 sec, Ta = 0.831093 sec, comp_time = 1.039237 sec, comm_time = 0.622551 sec, neigh_comm_time = 0.622437 sec, ptp_comm_time = 0.000020 sec, coll_comm_time = 0.000020 sec, T_cmp_b = 0.519619 sec, T_cmp_a = 0.519618 sec, T_comm_b = 0.311107 sec, T_comm_a = 0.311444 sec.
rank 17 Tb = 0.830778 sec, Ta = 0.831094 sec, comp_time = 1.039060 sec, comm_time = 0.622749 sec, neigh_comm_time = 0.622635 sec, ptp_comm_time = 0.000020 sec, coll_comm_time = 0.000020 sec, T_cmp_b = 0.519531 sec, T_cmp_a = 0.519530 sec, T_comm_b = 0.311216 sec, T_comm_a = 0.311533 sec.
rank 218 Tb = 0.830721 sec, Ta = 0.831043 sec, comp_time = 1.039059 sec, comm_time = 0.622643 sec, neigh_comm_time = 0.622529 sec, ptp_comm_time = 0.000020 sec, coll_comm_time = 0.000020 sec, T_cmp_b = 0.519530 sec, T_cmp_a = 0.519529 sec, T_comm_b = 0.311160 sec, T_comm_a = 0.311483 sec.
rank 4 Tb = 0.830737 sec, Ta = 0.831071 sec, comp_time = 1.038878 sec, comm_time = 0.622866 sec, neigh_comm_time = 0.622751 sec, ptp_comm_time = 0.000020 sec, coll_comm_time = 0.000020 sec, T_cmp_b = 0.519440 sec, T_cmp_a = 0.519438 sec, T_comm_b = 0.311265 sec, T_comm_a = 0.311600 sec.
rank 66 Tb = 0.830791 sec, Ta = 0.831111 sec, comp_time = 1.039060 sec, comm_time = 0.622780 sec, neigh_comm_time = 0.622666 sec, ptp_comm_time = 0.000020 sec, coll_comm_time = 0.000020 sec, T_cmp_b = 0.519530 sec, T_cmp_a = 0.519530 sec, T_comm_b = 0.311229 sec, T_comm_a = 0.311551 sec.
rank 154 Tb = 0.830773 sec, Ta = 0.831088 sec, comp_time = 1.039236 sec, comm_time = 0.622562 sec, neigh_comm_time = 0.622448 sec, ptp_comm_time = 0.000020 sec, coll_comm_time = 0.000020 sec, T_cmp_b = 0.519618 sec, T_cmp_a = 0.519618 sec, T_comm_b = 0.311123 sec, T_comm_a = 0.311439 sec.
rank 228 Tb = 0.830728 sec, Ta = 0.831067 sec, comp_time = 1.039058 sec, comm_time = 0.622674 sec, neigh_comm_time = 0.622560 sec, ptp_comm_time = 0.000020 sec, coll_comm_time = 0.000020 sec, T_cmp_b = 0.519529 sec, T_cmp_a = 0.519529 sec, T_comm_b = 0.311167 sec, T_comm_a = 0.311507 sec.
rank 91 Tb = 0.830761 sec, Ta = 0.831093 sec, comp_time = 1.039237 sec, comm_time = 0.622555 sec, neigh_comm_time = 0.622441 sec, ptp_comm_time = 0.000020 sec, coll_comm_time = 0.000020 sec, T_cmp_b = 0.519618 sec, T_cmp_a = 0.519618 sec, T_comm_b = 0.311111 sec, T_comm_a = 0.311445 sec.
rank 20 Tb = 0.830764 sec, Ta = 0.831097 sec, comp_time = 1.039059 sec, comm_time = 0.622739 sec, neigh_comm_time = 0.622625 sec, ptp_comm_time = 0.000020 sec, coll_comm_time = 0.000020 sec, T_cmp_b = 0.519530 sec, T_cmp_a = 0.519530 sec, T_comm_b = 0.311203 sec, T_comm_a = 0.311536 sec.
rank 163 Tb = 0.830754 sec, Ta = 0.831092 sec, comp_time = 1.039236 sec, comm_time = 0.622548 sec, neigh_comm_time = 0.622434 sec, ptp_comm_time = 0.000020 sec, coll_comm_time = 0.000020 sec, T_cmp_b = 0.519618 sec, T_cmp_a = 0.519618 sec, T_comm_b = 0.311105 sec, T_comm_a = 0.311444 sec.
rank 220 Tb = 0.830735 sec, Ta = 0.831062 sec, comp_time = 1.039059 sec, comm_time = 0.622675 sec, neigh_comm_time = 0.622561 sec, ptp_comm_time = 0.000020 sec, coll_comm_time = 0.000020 sec, T_cmp_b = 0.519530 sec, T_cmp_a = 0.519529 sec, T_comm_b = 0.311174 sec, T_comm_a = 0.311501 sec.
rank 2 Tb = 0.830748 sec, Ta = 0.831069 sec, comp_time = 1.038876 sec, comm_time = 0.622875 sec, neigh_comm_time = 0.622761 sec, ptp_comm_time = 0.000020 sec, coll_comm_time = 0.000020 sec, T_cmp_b = 0.519438 sec, T_cmp_a = 0.519438 sec, T_comm_b = 0.311277 sec, T_comm_a = 0.311599 sec.
rank 69 Tb = 0.830778 sec, Ta = 0.831104 sec, comp_time = 1.039061 sec, comm_time = 0.622759 sec, neigh_comm_time = 0.622645 sec, ptp_comm_time = 0.000020 sec, coll_comm_time = 0.000020 sec, T_cmp_b = 0.519531 sec, T_cmp_a = 0.519530 sec, T_comm_b = 0.311216 sec, T_comm_a = 0.311544 sec.
rank 151 Tb = 0.830755 sec, Ta = 0.831092 sec, comp_time = 1.039062 sec, comm_time = 0.622722 sec, neigh_comm_time = 0.622608 sec, ptp_comm_time = 0.000020 sec, coll_comm_time = 0.000020 sec, T_cmp_b = 0.519531 sec, T_cmp_a = 0.519530 sec, T_comm_b = 0.311192 sec, T_comm_a = 0.311530 sec.
rank 93 Tb = 0.830758 sec, Ta = 0.831087 sec, comp_time = 1.039236 sec, comm_time = 0.622546 sec, neigh_comm_time = 0.622432 sec, ptp_comm_time = 0.000020 sec, coll_comm_time = 0.000020 sec, T_cmp_b = 0.519618 sec, T_cmp_a = 0.519618 sec, T_comm_b = 0.311108 sec, T_comm_a = 0.311438 sec.
rank 195 Tb = 0.830731 sec, Ta = 0.831059 sec, comp_time = 1.038877 sec, comm_time = 0.622848 sec, neigh_comm_time = 0.622734 sec, ptp_comm_time = 0.000020 sec, coll_comm_time = 0.000020 sec, T_cmp_b = 0.519439 sec, T_cmp_a = 0.519438 sec, T_comm_b = 0.311259 sec, T_comm_a = 0.311589 sec.
rank 165 Tb = 0.830753 sec, Ta = 0.831096 sec, comp_time = 1.039236 sec, comm_time = 0.622551 sec, neigh_comm_time = 0.622437 sec, ptp_comm_time = 0.000020 sec, coll_comm_time = 0.000020 sec, T_cmp_b = 0.519618 sec, T_cmp_a = 0.519618 sec, T_comm_b = 0.311103 sec, T_comm_a = 0.311448 sec.
rank 19 Tb = 0.830766 sec, Ta = 0.831097 sec, comp_time = 1.039060 sec, comm_time = 0.622741 sec, neigh_comm_time = 0.622627 sec, ptp_comm_time = 0.000020 sec, coll_comm_time = 0.000020 sec, T_cmp_b = 0.519530 sec, T_cmp_a = 0.519529 sec, T_comm_b = 0.311205 sec, T_comm_a = 0.311536 sec.
rank 219 Tb = 0.830712 sec, Ta = 0.831049 sec, comp_time = 1.039059 sec, comm_time = 0.622640 sec, neigh_comm_time = 0.622526 sec, ptp_comm_time = 0.000020 sec, coll_comm_time = 0.000020 sec, T_cmp_b = 0.519530 sec, T_cmp_a = 0.519529 sec, T_comm_b = 0.311151 sec, T_comm_a = 0.311489 sec.
rank 14 Tb = 0.830767 sec, Ta = 0.831099 sec, comp_time = 1.039063 sec, comm_time = 0.622740 sec, neigh_comm_time = 0.622626 sec, ptp_comm_time = 0.000020 sec, coll_comm_time = 0.000020 sec, T_cmp_b = 0.519532 sec, T_cmp_a = 0.519531 sec, T_comm_b = 0.311204 sec, T_comm_a = 0.311536 sec.
rank 72 Tb = 0.830784 sec, Ta = 0.831114 sec, comp_time = 1.039063 sec, comm_time = 0.622773 sec, neigh_comm_time = 0.622659 sec, ptp_comm_time = 0.000020 sec, coll_comm_time = 0.000020 sec, T_cmp_b = 0.519532 sec, T_cmp_a = 0.519531 sec, T_comm_b = 0.311221 sec, T_comm_a = 0.311552 sec.
rank 144 Tb = 0.830775 sec, Ta = 0.831094 sec, comp_time = 1.039061 sec, comm_time = 0.622745 sec, neigh_comm_time = 0.622631 sec, ptp_comm_time = 0.000020 sec, coll_comm_time = 0.000020 sec, T_cmp_b = 0.519531 sec, T_cmp_a = 0.519530 sec, T_comm_b = 0.311213 sec, T_comm_a = 0.311533 sec.
rank 100 Tb = 0.830744 sec, Ta = 0.831089 sec, comp_time = 1.039236 sec, comm_time = 0.622534 sec, neigh_comm_time = 0.622420 sec, ptp_comm_time = 0.000020 sec, coll_comm_time = 0.000020 sec, T_cmp_b = 0.519618 sec, T_cmp_a = 0.519618 sec, T_comm_b = 0.311094 sec, T_comm_a = 0.311441 sec.
rank 80 Tb = 0.830782 sec, Ta = 0.831097 sec, comp_time = 1.039065 sec, comm_time = 0.622751 sec, neigh_comm_time = 0.622637 sec, ptp_comm_time = 0.000020 sec, coll_comm_time = 0.000020 sec, T_cmp_b = 0.519533 sec, T_cmp_a = 0.519532 sec, T_comm_b = 0.311217 sec, T_comm_a = 0.311534 sec.
rank 148 Tb = 0.830789 sec, Ta = 0.831120 sec, comp_time = 1.039236 sec, comm_time = 0.622611 sec, neigh_comm_time = 0.622496 sec, ptp_comm_time = 0.000020 sec, coll_comm_time = 0.000020 sec, T_cmp_b = 0.519618 sec, T_cmp_a = 0.519618 sec, T_comm_b = 0.311139 sec, T_comm_a = 0.311472 sec.
rank 129 Tb = 0.830795 sec, Ta = 0.831104 sec, comp_time = 1.039057 sec, comm_time = 0.622779 sec, neigh_comm_time = 0.622664 sec, ptp_comm_time = 0.000020 sec, coll_comm_time = 0.000020 sec, T_cmp_b = 0.519529 sec, T_cmp_a = 0.519528 sec, T_comm_b = 0.311234 sec, T_comm_a = 0.311545 sec.
rank 222 Tb = 0.830724 sec, Ta = 0.831061 sec, comp_time = 1.039060 sec, comm_time = 0.622662 sec, neigh_comm_time = 0.622548 sec, ptp_comm_time = 0.000020 sec, coll_comm_time = 0.000020 sec, T_cmp_b = 0.519531 sec, T_cmp_a = 0.519530 sec, T_comm_b = 0.311162 sec, T_comm_a = 0.311500 sec.
rank 8 Tb = 0.830755 sec, Ta = 0.831078 sec, comp_time = 1.038886 sec, comm_time = 0.622884 sec, neigh_comm_time = 0.622769 sec, ptp_comm_time = 0.000020 sec, coll_comm_time = 0.000020 sec, T_cmp_b = 0.519444 sec, T_cmp_a = 0.519443 sec, T_comm_b = 0.311279 sec, T_comm_a = 0.311604 sec.
rank 68 Tb = 0.830779 sec, Ta = 0.831112 sec, comp_time = 1.039061 sec, comm_time = 0.622768 sec, neigh_comm_time = 0.622654 sec, ptp_comm_time = 0.000020 sec, coll_comm_time = 0.000020 sec, T_cmp_b = 0.519530 sec, T_cmp_a = 0.519530 sec, T_comm_b = 0.311217 sec, T_comm_a = 0.311551 sec.
rank 155 Tb = 0.830757 sec, Ta = 0.831093 sec, comp_time = 1.039237 sec, comm_time = 0.622551 sec, neigh_comm_time = 0.622437 sec, ptp_comm_time = 0.000020 sec, coll_comm_time = 0.000020 sec, T_cmp_b = 0.519618 sec, T_cmp_a = 0.519618 sec, T_comm_b = 0.311107 sec, T_comm_a = 0.311444 sec.
rank 92 Tb = 0.830759 sec, Ta = 0.831094 sec, comp_time = 1.039236 sec, comm_time = 0.622554 sec, neigh_comm_time = 0.622440 sec, ptp_comm_time = 0.000020 sec, coll_comm_time = 0.000020 sec, T_cmp_b = 0.519618 sec, T_cmp_a = 0.519618 sec, T_comm_b = 0.311109 sec, T_comm_a = 0.311445 sec.
rank 98 Tb = 0.830765 sec, Ta = 0.831065 sec, comp_time = 1.039236 sec, comm_time = 0.622531 sec, neigh_comm_time = 0.622417 sec, ptp_comm_time = 0.000020 sec, coll_comm_time = 0.000020 sec, T_cmp_b = 0.519618 sec, T_cmp_a = 0.519618 sec, T_comm_b = 0.311115 sec, T_comm_a = 0.311416 sec.
rank 134 Tb = 0.830775 sec, Ta = 0.831101 sec, comp_time = 1.039062 sec, comm_time = 0.622752 sec, neigh_comm_time = 0.622638 sec, ptp_comm_time = 0.000020 sec, coll_comm_time = 0.000020 sec, T_cmp_b = 0.519531 sec, T_cmp_a = 0.519531 sec, T_comm_b = 0.311212 sec, T_comm_a = 0.311540 sec.
rank 146 Tb = 0.830813 sec, Ta = 0.831129 sec, comp_time = 1.039236 sec, comm_time = 0.622643 sec, neigh_comm_time = 0.622528 sec, ptp_comm_time = 0.000020 sec, coll_comm_time = 0.000020 sec, T_cmp_b = 0.519618 sec, T_cmp_a = 0.519618 sec, T_comm_b = 0.311163 sec, T_comm_a = 0.311480 sec.
rank 217 Tb = 0.830752 sec, Ta = 0.831064 sec, comp_time = 1.039060 sec, comm_time = 0.622693 sec, neigh_comm_time = 0.622579 sec, ptp_comm_time = 0.000020 sec, coll_comm_time = 0.000020 sec, T_cmp_b = 0.519530 sec, T_cmp_a = 0.519530 sec, T_comm_b = 0.311190 sec, T_comm_a = 0.311504 sec.
rank 13 Tb = 0.830778 sec, Ta = 0.831106 sec, comp_time = 1.039060 sec, comm_time = 0.622760 sec, neigh_comm_time = 0.622646 sec, ptp_comm_time = 0.000020 sec, coll_comm_time = 0.000020 sec, T_cmp_b = 0.519530 sec, T_cmp_a = 0.519530 sec, T_comm_b = 0.311216 sec, T_comm_a = 0.311544 sec.
rank 67 Tb = 0.830787 sec, Ta = 0.831115 sec, comp_time = 1.039060 sec, comm_time = 0.622779 sec, neigh_comm_time = 0.622665 sec, ptp_comm_time = 0.000020 sec, coll_comm_time = 0.000020 sec, T_cmp_b = 0.519530 sec, T_cmp_a = 0.519530 sec, T_comm_b = 0.311224 sec, T_comm_a = 0.311555 sec.
rank 156 Tb = 0.830775 sec, Ta = 0.831103 sec, comp_time = 1.039237 sec, comm_time = 0.622578 sec, neigh_comm_time = 0.622464 sec, ptp_comm_time = 0.000020 sec, coll_comm_time = 0.000020 sec, T_cmp_b = 0.519619 sec, T_cmp_a = 0.519618 sec, T_comm_b = 0.311125 sec, T_comm_a = 0.311454 sec.
rank 206 Tb = 0.830764 sec, Ta = 0.831093 sec, comp_time = 1.039062 sec, comm_time = 0.622733 sec, neigh_comm_time = 0.622619 sec, ptp_comm_time = 0.000020 sec, coll_comm_time = 0.000020 sec, T_cmp_b = 0.519532 sec, T_cmp_a = 0.519530 sec, T_comm_b = 0.311201 sec, T_comm_a = 0.311532 sec.
rank 89 Tb = 0.830789 sec, Ta = 0.831107 sec, comp_time = 1.039236 sec, comm_time = 0.622597 sec, neigh_comm_time = 0.622483 sec, ptp_comm_time = 0.000020 sec, coll_comm_time = 0.000020 sec, T_cmp_b = 0.519618 sec, T_cmp_a = 0.519617 sec, T_comm_b = 0.311139 sec, T_comm_a = 0.311459 sec.
rank 143 Tb = 0.830770 sec, Ta = 0.831102 sec, comp_time = 1.039067 sec, comm_time = 0.622743 sec, neigh_comm_time = 0.622628 sec, ptp_comm_time = 0.000020 sec, coll_comm_time = 0.000020 sec, T_cmp_b = 0.519534 sec, T_cmp_a = 0.519533 sec, T_comm_b = 0.311205 sec, T_comm_a = 0.311538 sec.
rank 136 Tb = 0.830794 sec, Ta = 0.831108 sec, comp_time = 1.039067 sec, comm_time = 0.622771 sec, neigh_comm_time = 0.622657 sec, ptp_comm_time = 0.000020 sec, coll_comm_time = 0.000020 sec, T_cmp_b = 0.519534 sec, T_cmp_a = 0.519533 sec, T_comm_b = 0.311228 sec, T_comm_a = 0.311544 sec.
rank 212 Tb = 0.830748 sec, Ta = 0.831076 sec, comp_time = 1.039059 sec, comm_time = 0.622703 sec, neigh_comm_time = 0.622589 sec, ptp_comm_time = 0.000020 sec, coll_comm_time = 0.000020 sec, T_cmp_b = 0.519530 sec, T_cmp_a = 0.519529 sec, T_comm_b = 0.311186 sec, T_comm_a = 0.311516 sec.
rank 9 Tb = 0.830787 sec, Ta = 0.831108 sec, comp_time = 1.039061 sec, comm_time = 0.622771 sec, neigh_comm_time = 0.622657 sec, ptp_comm_time = 0.000020 sec, coll_comm_time = 0.000020 sec, T_cmp_b = 0.519531 sec, T_cmp_a = 0.519530 sec, T_comm_b = 0.311225 sec, T_comm_a = 0.311547 sec.
rank 78 Tb = 0.830808 sec, Ta = 0.831134 sec, comp_time = 1.039240 sec, comm_time = 0.622639 sec, neigh_comm_time = 0.622525 sec, ptp_comm_time = 0.000020 sec, coll_comm_time = 0.000020 sec, T_cmp_b = 0.519620 sec, T_cmp_a = 0.519620 sec, T_comm_b = 0.311156 sec, T_comm_a = 0.311483 sec.
rank 153 Tb = 0.830795 sec, Ta = 0.831106 sec, comp_time = 1.039236 sec, comm_time = 0.622602 sec, neigh_comm_time = 0.622488 sec, ptp_comm_time = 0.000020 sec, coll_comm_time = 0.000020 sec, T_cmp_b = 0.519618 sec, T_cmp_a = 0.519618 sec, T_comm_b = 0.311145 sec, T_comm_a = 0.311457 sec.
rank 94 Tb = 0.830768 sec, Ta = 0.831105 sec, comp_time = 1.039237 sec, comm_time = 0.622573 sec, neigh_comm_time = 0.622459 sec, ptp_comm_time = 0.000020 sec, coll_comm_time = 0.000020 sec, T_cmp_b = 0.519619 sec, T_cmp_a = 0.519618 sec, T_comm_b = 0.311117 sec, T_comm_a = 0.311456 sec.
rank 201 Tb = 0.830783 sec, Ta = 0.831096 sec, comp_time = 1.039061 sec, comm_time = 0.622756 sec, neigh_comm_time = 0.622642 sec, ptp_comm_time = 0.000020 sec, coll_comm_time = 0.000020 sec, T_cmp_b = 0.519531 sec, T_cmp_a = 0.519530 sec, T_comm_b = 0.311220 sec, T_comm_a = 0.311536 sec.
rank 164 Tb = 0.830769 sec, Ta = 0.831111 sec, comp_time = 1.039236 sec, comm_time = 0.622581 sec, neigh_comm_time = 0.622467 sec, ptp_comm_time = 0.000020 sec, coll_comm_time = 0.000020 sec, T_cmp_b = 0.519618 sec, T_cmp_a = 0.519618 sec, T_comm_b = 0.311119 sec, T_comm_a = 0.311462 sec.
rank 130 Tb = 0.830787 sec, Ta = 0.831106 sec, comp_time = 1.039061 sec, comm_time = 0.622770 sec, neigh_comm_time = 0.622656 sec, ptp_comm_time = 0.000020 sec, coll_comm_time = 0.000020 sec, T_cmp_b = 0.519531 sec, T_cmp_a = 0.519530 sec, T_comm_b = 0.311225 sec, T_comm_a = 0.311544 sec.
rank 209 Tb = 0.830767 sec, Ta = 0.831083 sec, comp_time = 1.039060 sec, comm_time = 0.622727 sec, neigh_comm_time = 0.622613 sec, ptp_comm_time = 0.000020 sec, coll_comm_time = 0.000020 sec, T_cmp_b = 0.519530 sec, T_cmp_a = 0.519530 sec, T_comm_b = 0.311205 sec, T_comm_a = 0.311522 sec.
rank 12 Tb = 0.830778 sec, Ta = 0.831110 sec, comp_time = 1.039061 sec, comm_time = 0.622765 sec, neigh_comm_time = 0.622650 sec, ptp_comm_time = 0.000020 sec, coll_comm_time = 0.000020 sec, T_cmp_b = 0.519531 sec, T_cmp_a = 0.519530 sec, T_comm_b = 0.311216 sec, T_comm_a = 0.311549 sec.
rank 73 Tb = 0.830824 sec, Ta = 0.831143 sec, comp_time = 1.039239 sec, comm_time = 0.622666 sec, neigh_comm_time = 0.622552 sec, ptp_comm_time = 0.000020 sec, coll_comm_time = 0.000020 sec, T_cmp_b = 0.519620 sec, T_cmp_a = 0.519619 sec, T_comm_b = 0.311173 sec, T_comm_a = 0.311493 sec.
rank 158 Tb = 0.830766 sec, Ta = 0.831104 sec, comp_time = 1.039237 sec, comm_time = 0.622569 sec, neigh_comm_time = 0.622455 sec, ptp_comm_time = 0.000020 sec, coll_comm_time = 0.000020 sec, T_cmp_b = 0.519619 sec, T_cmp_a = 0.519618 sec, T_comm_b = 0.311116 sec, T_comm_a = 0.311454 sec.
rank 205 Tb = 0.830772 sec, Ta = 0.831105 sec, comp_time = 1.039060 sec, comm_time = 0.622754 sec, neigh_comm_time = 0.622640 sec, ptp_comm_time = 0.000020 sec, coll_comm_time = 0.000020 sec, T_cmp_b = 0.519530 sec, T_cmp_a = 0.519530 sec, T_comm_b = 0.311209 sec, T_comm_a = 0.311544 sec.
rank 82 Tb = 0.830819 sec, Ta = 0.831118 sec, comp_time = 1.039237 sec, comm_time = 0.622638 sec, neigh_comm_time = 0.622524 sec, ptp_comm_time = 0.000020 sec, coll_comm_time = 0.000020 sec, T_cmp_b = 0.519619 sec, T_cmp_a = 0.519618 sec, T_comm_b = 0.311169 sec, T_comm_a = 0.311469 sec.
rank 133 Tb = 0.830782 sec, Ta = 0.831110 sec, comp_time = 1.039060 sec, comm_time = 0.622769 sec, neigh_comm_time = 0.622654 sec, ptp_comm_time = 0.000020 sec, coll_comm_time = 0.000020 sec, T_cmp_b = 0.519530 sec, T_cmp_a = 0.519530 sec, T_comm_b = 0.311220 sec, T_comm_a = 0.311549 sec.
rank 131 Tb = 0.830778 sec, Ta = 0.831108 sec, comp_time = 1.039060 sec, comm_time = 0.622764 sec, neigh_comm_time = 0.622650 sec, ptp_comm_time = 0.000020 sec, coll_comm_time = 0.000020 sec, T_cmp_b = 0.519531 sec, T_cmp_a = 0.519530 sec, T_comm_b = 0.311216 sec, T_comm_a = 0.311547 sec.
rank 213 Tb = 0.830753 sec, Ta = 0.831082 sec, comp_time = 1.039058 sec, comm_time = 0.622714 sec, neigh_comm_time = 0.622600 sec, ptp_comm_time = 0.000020 sec, coll_comm_time = 0.000020 sec, T_cmp_b = 0.519529 sec, T_cmp_a = 0.519529 sec, T_comm_b = 0.311192 sec, T_comm_a = 0.311522 sec.
rank 10 Tb = 0.830790 sec, Ta = 0.831109 sec, comp_time = 1.039061 sec, comm_time = 0.622775 sec, neigh_comm_time = 0.622661 sec, ptp_comm_time = 0.000020 sec, coll_comm_time = 0.000020 sec, T_cmp_b = 0.519531 sec, T_cmp_a = 0.519530 sec, T_comm_b = 0.311228 sec, T_comm_a = 0.311548 sec.
rank 77 Tb = 0.830815 sec, Ta = 0.831142 sec, comp_time = 1.039238 sec, comm_time = 0.622657 sec, neigh_comm_time = 0.622542 sec, ptp_comm_time = 0.000020 sec, coll_comm_time = 0.000020 sec, T_cmp_b = 0.519619 sec, T_cmp_a = 0.519619 sec, T_comm_b = 0.311165 sec, T_comm_a = 0.311492 sec.
rank 145 Tb = 0.830814 sec, Ta = 0.831124 sec, comp_time = 1.039236 sec, comm_time = 0.622639 sec, neigh_comm_time = 0.622525 sec, ptp_comm_time = 0.000020 sec, coll_comm_time = 0.000020 sec, T_cmp_b = 0.519618 sec, T_cmp_a = 0.519618 sec, T_comm_b = 0.311164 sec, T_comm_a = 0.311475 sec.
rank 86 Tb = 0.830794 sec, Ta = 0.831115 sec, comp_time = 1.039237 sec, comm_time = 0.622609 sec, neigh_comm_time = 0.622495 sec, ptp_comm_time = 0.000020 sec, coll_comm_time = 0.000020 sec, T_cmp_b = 0.519619 sec, T_cmp_a = 0.519618 sec, T_comm_b = 0.311143 sec, T_comm_a = 0.311466 sec.
rank 202 Tb = 0.830781 sec, Ta = 0.831099 sec, comp_time = 1.039061 sec, comm_time = 0.622757 sec, neigh_comm_time = 0.622643 sec, ptp_comm_time = 0.000020 sec, coll_comm_time = 0.000020 sec, T_cmp_b = 0.519530 sec, T_cmp_a = 0.519530 sec, T_comm_b = 0.311219 sec, T_comm_a = 0.311538 sec.
rank 132 Tb = 0.830776 sec, Ta = 0.831115 sec, comp_time = 1.039060 sec, comm_time = 0.622769 sec, neigh_comm_time = 0.622655 sec, ptp_comm_time = 0.000020 sec, coll_comm_time = 0.000020 sec, T_cmp_b = 0.519530 sec, T_cmp_a = 0.519530 sec, T_comm_b = 0.311215 sec, T_comm_a = 0.311554 sec.
rank 137 Tb = 0.830833 sec, Ta = 0.831139 sec, comp_time = 1.039239 sec, comm_time = 0.622670 sec, neigh_comm_time = 0.622556 sec, ptp_comm_time = 0.000020 sec, coll_comm_time = 0.000020 sec, T_cmp_b = 0.519620 sec, T_cmp_a = 0.519619 sec, T_comm_b = 0.311181 sec, T_comm_a = 0.311489 sec.
rank 210 Tb = 0.830768 sec, Ta = 0.831087 sec, comp_time = 1.039059 sec, comm_time = 0.622733 sec, neigh_comm_time = 0.622619 sec, ptp_comm_time = 0.000020 sec, coll_comm_time = 0.000020 sec, T_cmp_b = 0.519530 sec, T_cmp_a = 0.519529 sec, T_comm_b = 0.311206 sec, T_comm_a = 0.311527 sec.
rank 11 Tb = 0.830784 sec, Ta = 0.831113 sec, comp_time = 1.039061 sec, comm_time = 0.622774 sec, neigh_comm_time = 0.622660 sec, ptp_comm_time = 0.000020 sec, coll_comm_time = 0.000020 sec, T_cmp_b = 0.519531 sec, T_cmp_a = 0.519530 sec, T_comm_b = 0.311222 sec, T_comm_a = 0.311552 sec.
rank 74 Tb = 0.830832 sec, Ta = 0.831145 sec, comp_time = 1.039238 sec, comm_time = 0.622676 sec, neigh_comm_time = 0.622562 sec, ptp_comm_time = 0.000020 sec, coll_comm_time = 0.000020 sec, T_cmp_b = 0.519619 sec, T_cmp_a = 0.519619 sec, T_comm_b = 0.311181 sec, T_comm_a = 0.311495 sec.
rank 150 Tb = 0.830787 sec, Ta = 0.831123 sec, comp_time = 1.039237 sec, comm_time = 0.622610 sec, neigh_comm_time = 0.622496 sec, ptp_comm_time = 0.000020 sec, coll_comm_time = 0.000020 sec, T_cmp_b = 0.519619 sec, T_cmp_a = 0.519618 sec, T_comm_b = 0.311136 sec, T_comm_a = 0.311474 sec.
rank 204 Tb = 0.830771 sec, Ta = 0.831107 sec, comp_time = 1.039061 sec, comm_time = 0.622755 sec, neigh_comm_time = 0.622641 sec, ptp_comm_time = 0.000020 sec, coll_comm_time = 0.000020 sec, T_cmp_b = 0.519531 sec, T_cmp_a = 0.519530 sec, T_comm_b = 0.311209 sec, T_comm_a = 0.311546 sec.
rank 81 Tb = 0.830815 sec, Ta = 0.831129 sec, comp_time = 1.039236 sec, comm_time = 0.622645 sec, neigh_comm_time = 0.622531 sec, ptp_comm_time = 0.000020 sec, coll_comm_time = 0.000020 sec, T_cmp_b = 0.519618 sec, T_cmp_a = 0.519618 sec, T_comm_b = 0.311165 sec, T_comm_a = 0.311481 sec.
rank 142 Tb = 0.830805 sec, Ta = 0.831138 sec, comp_time = 1.039239 sec, comm_time = 0.622641 sec, neigh_comm_time = 0.622527 sec, ptp_comm_time = 0.000020 sec, coll_comm_time = 0.000020 sec, T_cmp_b = 0.519620 sec, T_cmp_a = 0.519619 sec, T_comm_b = 0.311153 sec, T_comm_a = 0.311488 sec.
rank 139 Tb = 0.830816 sec, Ta = 0.831144 sec, comp_time = 1.039238 sec, comm_time = 0.622659 sec, neigh_comm_time = 0.622545 sec, ptp_comm_time = 0.000020 sec, coll_comm_time = 0.000020 sec, T_cmp_b = 0.519619 sec, T_cmp_a = 0.519619 sec, T_comm_b = 0.311165 sec, T_comm_a = 0.311494 sec.
rank 214 Tb = 0.830746 sec, Ta = 0.831082 sec, comp_time = 1.039060 sec, comm_time = 0.622705 sec, neigh_comm_time = 0.622591 sec, ptp_comm_time = 0.000020 sec, coll_comm_time = 0.000020 sec, T_cmp_b = 0.519531 sec, T_cmp_a = 0.519529 sec, T_comm_b = 0.311184 sec, T_comm_a = 0.311522 sec.
rank 138 Tb = 0.830824 sec, Ta = 0.831143 sec, comp_time = 1.039238 sec, comm_time = 0.622666 sec, neigh_comm_time = 0.622552 sec, ptp_comm_time = 0.000020 sec, coll_comm_time = 0.000020 sec, T_cmp_b = 0.519619 sec, T_cmp_a = 0.519619 sec, T_comm_b = 0.311173 sec, T_comm_a = 0.311493 sec.
rank 76 Tb = 0.830818 sec, Ta = 0.831146 sec, comp_time = 1.039238 sec, comm_time = 0.622663 sec, neigh_comm_time = 0.622549 sec, ptp_comm_time = 0.000020 sec, coll_comm_time = 0.000020 sec, T_cmp_b = 0.519619 sec, T_cmp_a = 0.519619 sec, T_comm_b = 0.311166 sec, T_comm_a = 0.311497 sec.
rank 147 Tb = 0.830799 sec, Ta = 0.831129 sec, comp_time = 1.039237 sec, comm_time = 0.622629 sec, neigh_comm_time = 0.622515 sec, ptp_comm_time = 0.000020 sec, coll_comm_time = 0.000020 sec, T_cmp_b = 0.519619 sec, T_cmp_a = 0.519618 sec, T_comm_b = 0.311149 sec, T_comm_a = 0.311480 sec.
rank 85 Tb = 0.830798 sec, Ta = 0.831124 sec, comp_time = 1.039236 sec, comm_time = 0.622624 sec, neigh_comm_time = 0.622510 sec, ptp_comm_time = 0.000020 sec, coll_comm_time = 0.000020 sec, T_cmp_b = 0.519619 sec, T_cmp_a = 0.519618 sec, T_comm_b = 0.311148 sec, T_comm_a = 0.311475 sec.
rank 203 Tb = 0.830773 sec, Ta = 0.831101 sec, comp_time = 1.039060 sec, comm_time = 0.622751 sec, neigh_comm_time = 0.622637 sec, ptp_comm_time = 0.000020 sec, coll_comm_time = 0.000020 sec, T_cmp_b = 0.519530 sec, T_cmp_a = 0.519530 sec, T_comm_b = 0.311211 sec, T_comm_a = 0.311540 sec.
rank 141 Tb = 0.830813 sec, Ta = 0.831146 sec, comp_time = 1.039238 sec, comm_time = 0.622658 sec, neigh_comm_time = 0.622544 sec, ptp_comm_time = 0.000020 sec, coll_comm_time = 0.000020 sec, T_cmp_b = 0.519619 sec, T_cmp_a = 0.519619 sec, T_comm_b = 0.311162 sec, T_comm_a = 0.311496 sec.
rank 211 Tb = 0.830757 sec, Ta = 0.831088 sec, comp_time = 1.039059 sec, comm_time = 0.622724 sec, neigh_comm_time = 0.622610 sec, ptp_comm_time = 0.000020 sec, coll_comm_time = 0.000020 sec, T_cmp_b = 0.519530 sec, T_cmp_a = 0.519529 sec, T_comm_b = 0.311196 sec, T_comm_a = 0.311528 sec.
rank 140 Tb = 0.830812 sec, Ta = 0.831150 sec, comp_time = 1.039238 sec, comm_time = 0.622661 sec, neigh_comm_time = 0.622546 sec, ptp_comm_time = 0.000020 sec, coll_comm_time = 0.000020 sec, T_cmp_b = 0.519619 sec, T_cmp_a = 0.519619 sec, T_comm_b = 0.311161 sec, T_comm_a = 0.311500 sec.
rank 75 Tb = 0.830826 sec, Ta = 0.831149 sec, comp_time = 1.039238 sec, comm_time = 0.622674 sec, neigh_comm_time = 0.622560 sec, ptp_comm_time = 0.000020 sec, coll_comm_time = 0.000020 sec, T_cmp_b = 0.519619 sec, T_cmp_a = 0.519619 sec, T_comm_b = 0.311175 sec, T_comm_a = 0.311499 sec.
rank 149 Tb = 0.830794 sec, Ta = 0.831124 sec, comp_time = 1.039236 sec, comm_time = 0.622619 sec, neigh_comm_time = 0.622505 sec, ptp_comm_time = 0.000020 sec, coll_comm_time = 0.000020 sec, T_cmp_b = 0.519618 sec, T_cmp_a = 0.519618 sec, T_comm_b = 0.311144 sec, T_comm_a = 0.311475 sec.
rank 84 Tb = 0.830799 sec, Ta = 0.831131 sec, comp_time = 1.039237 sec, comm_time = 0.622630 sec, neigh_comm_time = 0.622516 sec, ptp_comm_time = 0.000020 sec, coll_comm_time = 0.000020 sec, T_cmp_b = 0.519619 sec, T_cmp_a = 0.519618 sec, T_comm_b = 0.311148 sec, T_comm_a = 0.311482 sec.
rank 83 Tb = 0.830803 sec, Ta = 0.831132 sec, comp_time = 1.039237 sec, comm_time = 0.622635 sec, neigh_comm_time = 0.622521 sec, ptp_comm_time = 0.000020 sec, coll_comm_time = 0.000020 sec, T_cmp_b = 0.519619 sec, T_cmp_a = 0.519618 sec, T_comm_b = 0.311153 sec, T_comm_a = 0.311482 sec.
