rank 169 Tb = 0.165368 sec, Ta = 0.000001 sec, comp_time = 0.103924 sec, comm_time = 0.061434 sec, neigh_comm_time = 0.000002 sec, ptp_comm_time = 0.000002 sec, coll_comm_time = 0.061428 sec, T_cmp_b = 0.103924 sec, T_cmp_a = 0.000000 sec, T_comm_b = 0.061434 sec, T_comm_a = 0.000000 sec.
rank 29 Tb = 0.165366 sec, Ta = 0.172329 sec, comp_time = 0.207812 sec, comm_time = 0.129862 sec, neigh_comm_time = 0.000003 sec, ptp_comm_time = 0.000003 sec, coll_comm_time = 0.129850 sec, T_cmp_b = 0.103906 sec, T_cmp_a = 0.103906 sec, T_comm_b = 0.061449 sec, T_comm_a = 0.068413 sec.
rank 106 Tb = 0.165374 sec, Ta = 0.172324 sec, comp_time = 0.207848 sec, comm_time = 0.129830 sec, neigh_comm_time = 0.000003 sec, ptp_comm_time = 0.000003 sec, coll_comm_time = 0.129819 sec, T_cmp_b = 0.103925 sec, T_cmp_a = 0.103924 sec, T_comm_b = 0.061439 sec, T_comm_a = 0.068391 sec.
rank 22 Tb = 0.165366 sec, Ta = 0.172327 sec, comp_time = 0.207813 sec, comm_time = 0.129861 sec, neigh_comm_time = 0.000003 sec, ptp_comm_time = 0.000003 sec, coll_comm_time = 0.129849 sec, T_cmp_b = 0.103907 sec, T_cmp_a = 0.103906 sec, T_comm_b = 0.061449 sec, T_comm_a = 0.068412 sec.
rank 256 Tb = 0.000002 sec, Ta = 0.172335 sec, comp_time = 0.103924 sec, comm_time = 0.068401 sec, neigh_comm_time = 0.000002 sec, ptp_comm_time = 0.000002 sec, coll_comm_time = 0.068395 sec, T_cmp_b = 0.000000 sec, T_cmp_a = 0.103924 sec, T_comm_b = 0.000000 sec, T_comm_a = 0.068401 sec.
rank 213 Tb = 0.165372 sec, Ta = 0.172326 sec, comp_time = 0.207813 sec, comm_time = 0.129865 sec, neigh_comm_time = 0.000003 sec, ptp_comm_time = 0.000003 sec, coll_comm_time = 0.129854 sec, T_cmp_b = 0.103906 sec, T_cmp_a = 0.103906 sec, T_comm_b = 0.061455 sec, T_comm_a = 0.068410 sec.
rank 86 Tb = 0.165372 sec, Ta = 0.172325 sec, comp_time = 0.207847 sec, comm_time = 0.129830 sec, neigh_comm_time = 0.000003 sec, ptp_comm_time = 0.000003 sec, coll_comm_time = 0.129819 sec, T_cmp_b = 0.103924 sec, T_cmp_a = 0.103923 sec, T_comm_b = 0.061438 sec, T_comm_a = 0.068392 sec.
rank 234 Tb = 0.165373 sec, Ta = 0.172323 sec, comp_time = 0.207813 sec, comm_time = 0.129863 sec, neigh_comm_time = 0.000003 sec, ptp_comm_time = 0.000003 sec, coll_comm_time = 0.129851 sec, T_cmp_b = 0.103907 sec, T_cmp_a = 0.103906 sec, T_comm_b = 0.061455 sec, T_comm_a = 0.068407 sec.
rank 47 Tb = 0.165369 sec, Ta = 0.172335 sec, comp_time = 0.207778 sec, comm_time = 0.129906 sec, neigh_comm_time = 0.000003 sec, ptp_comm_time = 0.000003 sec, coll_comm_time = 0.129895 sec, T_cmp_b = 0.103889 sec, T_cmp_a = 0.103889 sec, T_comm_b = 0.061470 sec, T_comm_a = 0.068436 sec.
rank 170 Tb = 0.165374 sec, Ta = 0.172327 sec, comp_time = 0.207847 sec, comm_time = 0.129833 sec, neigh_comm_time = 0.000003 sec, ptp_comm_time = 0.000003 sec, coll_comm_time = 0.129821 sec, T_cmp_b = 0.103924 sec, T_cmp_a = 0.103924 sec, T_comm_b = 0.061440 sec, T_comm_a = 0.068393 sec.
rank 27 Tb = 0.165369 sec, Ta = 0.172325 sec, comp_time = 0.207813 sec, comm_time = 0.129861 sec, neigh_comm_time = 0.000003 sec, ptp_comm_time = 0.000003 sec, coll_comm_time = 0.129850 sec, T_cmp_b = 0.103907 sec, T_cmp_a = 0.103906 sec, T_comm_b = 0.061452 sec, T_comm_a = 0.068409 sec.
rank 110 Tb = 0.165370 sec, Ta = 0.172330 sec, comp_time = 0.207847 sec, comm_time = 0.129833 sec, neigh_comm_time = 0.000003 sec, ptp_comm_time = 0.000003 sec, coll_comm_time = 0.129821 sec, T_cmp_b = 0.103924 sec, T_cmp_a = 0.103924 sec, T_comm_b = 0.061436 sec, T_comm_a = 0.068397 sec.
rank 173 Tb = 0.165369 sec, Ta = 0.172334 sec, comp_time = 0.207847 sec, comm_time = 0.129835 sec, neigh_comm_time = 0.000003 sec, ptp_comm_time = 0.000003 sec, coll_comm_time = 0.129824 sec, T_cmp_b = 0.103924 sec, T_cmp_a = 0.103923 sec, T_comm_b = 0.061435 sec, T_comm_a = 0.068400 sec.
rank 218 Tb = 0.165368 sec, Ta = 0.172317 sec, comp_time = 0.207813 sec, comm_time = 0.129852 sec, neigh_comm_time = 0.000003 sec, ptp_comm_time = 0.000003 sec, coll_comm_time = 0.129840 sec, T_cmp_b = 0.103907 sec, T_cmp_a = 0.103906 sec, T_comm_b = 0.061451 sec, T_comm_a = 0.068401 sec.
rank 238 Tb = 0.165369 sec, Ta = 0.172328 sec, comp_time = 0.207813 sec, comm_time = 0.129863 sec, neigh_comm_time = 0.000003 sec, ptp_comm_time = 0.000003 sec, coll_comm_time = 0.129852 sec, T_cmp_b = 0.103907 sec, T_cmp_a = 0.103906 sec, T_comm_b = 0.061452 sec, T_comm_a = 0.068412 sec.
rank 82 Tb = 0.165372 sec, Ta = 0.172324 sec, comp_time = 0.207848 sec, comm_time = 0.129828 sec, neigh_comm_time = 0.000003 sec, ptp_comm_time = 0.000003 sec, coll_comm_time = 0.129817 sec, T_cmp_b = 0.103925 sec, T_cmp_a = 0.103924 sec, T_comm_b = 0.061437 sec, T_comm_a = 0.068391 sec.
rank 42 Tb = 0.165366 sec, Ta = 0.172329 sec, comp_time = 0.207813 sec, comm_time = 0.129862 sec, neigh_comm_time = 0.000003 sec, ptp_comm_time = 0.000003 sec, coll_comm_time = 0.129851 sec, T_cmp_b = 0.103907 sec, T_cmp_a = 0.103906 sec, T_comm_b = 0.061449 sec, T_comm_a = 0.068413 sec.
rank 26 Tb = 0.165368 sec, Ta = 0.172324 sec, comp_time = 0.207813 sec, comm_time = 0.129858 sec, neigh_comm_time = 0.000003 sec, ptp_comm_time = 0.000003 sec, coll_comm_time = 0.129846 sec, T_cmp_b = 0.103907 sec, T_cmp_a = 0.103906 sec, T_comm_b = 0.061450 sec, T_comm_a = 0.068407 sec.
rank 150 Tb = 0.165370 sec, Ta = 0.172330 sec, comp_time = 0.207848 sec, comm_time = 0.129830 sec, neigh_comm_time = 0.000003 sec, ptp_comm_time = 0.000003 sec, coll_comm_time = 0.129819 sec, T_cmp_b = 0.103924 sec, T_cmp_a = 0.103924 sec, T_comm_b = 0.061435 sec, T_comm_a = 0.068396 sec.
rank 175 Tb = 0.165368 sec, Ta = 0.172334 sec, comp_time = 0.207812 sec, comm_time = 0.129870 sec, neigh_comm_time = 0.000003 sec, ptp_comm_time = 0.000003 sec, coll_comm_time = 0.129859 sec, T_cmp_b = 0.103907 sec, T_cmp_a = 0.103906 sec, T_comm_b = 0.061451 sec, T_comm_a = 0.068419 sec.
rank 102 Tb = 0.165368 sec, Ta = 0.172330 sec, comp_time = 0.207848 sec, comm_time = 0.129829 sec, neigh_comm_time = 0.000003 sec, ptp_comm_time = 0.000003 sec, coll_comm_time = 0.129817 sec, T_cmp_b = 0.103924 sec, T_cmp_a = 0.103924 sec, T_comm_b = 0.061433 sec, T_comm_a = 0.068396 sec.
rank 215 Tb = 0.165369 sec, Ta = 0.172323 sec, comp_time = 0.207778 sec, comm_time = 0.129894 sec, neigh_comm_time = 0.000003 sec, ptp_comm_time = 0.000003 sec, coll_comm_time = 0.129883 sec, T_cmp_b = 0.103889 sec, T_cmp_a = 0.103888 sec, T_comm_b = 0.061470 sec, T_comm_a = 0.068424 sec.
rank 85 Tb = 0.165372 sec, Ta = 0.172330 sec, comp_time = 0.207847 sec, comm_time = 0.129835 sec, neigh_comm_time = 0.000003 sec, ptp_comm_time = 0.000003 sec, coll_comm_time = 0.129823 sec, T_cmp_b = 0.103924 sec, T_cmp_a = 0.103923 sec, T_comm_b = 0.061438 sec, T_comm_a = 0.068397 sec.
rank 83 Tb = 0.165371 sec, Ta = 0.172326 sec, comp_time = 0.207847 sec, comm_time = 0.129829 sec, neigh_comm_time = 0.000003 sec, ptp_comm_time = 0.000003 sec, coll_comm_time = 0.129817 sec, T_cmp_b = 0.103924 sec, T_cmp_a = 0.103923 sec, T_comm_b = 0.061436 sec, T_comm_a = 0.068392 sec.
rank 39 Tb = 0.165365 sec, Ta = 0.172335 sec, comp_time = 0.207777 sec, comm_time = 0.129902 sec, neigh_comm_time = 0.000003 sec, ptp_comm_time = 0.000003 sec, coll_comm_time = 0.129891 sec, T_cmp_b = 0.103889 sec, T_cmp_a = 0.103889 sec, T_comm_b = 0.061466 sec, T_comm_a = 0.068436 sec.
rank 50 Tb = 0.165370 sec, Ta = 0.172325 sec, comp_time = 0.207813 sec, comm_time = 0.129861 sec, neigh_comm_time = 0.000003 sec, ptp_comm_time = 0.000003 sec, coll_comm_time = 0.129849 sec, T_cmp_b = 0.103907 sec, T_cmp_a = 0.103906 sec, T_comm_b = 0.061453 sec, T_comm_a = 0.068408 sec.
rank 154 Tb = 0.165367 sec, Ta = 0.172326 sec, comp_time = 0.207848 sec, comm_time = 0.129826 sec, neigh_comm_time = 0.000003 sec, ptp_comm_time = 0.000003 sec, coll_comm_time = 0.129814 sec, T_cmp_b = 0.103924 sec, T_cmp_a = 0.103924 sec, T_comm_b = 0.061433 sec, T_comm_a = 0.068393 sec.
rank 54 Tb = 0.165370 sec, Ta = 0.172326 sec, comp_time = 0.207813 sec, comm_time = 0.129862 sec, neigh_comm_time = 0.000003 sec, ptp_comm_time = 0.000003 sec, coll_comm_time = 0.129851 sec, T_cmp_b = 0.103907 sec, T_cmp_a = 0.103906 sec, T_comm_b = 0.061453 sec, T_comm_a = 0.068410 sec.
rank 107 Tb = 0.165370 sec, Ta = 0.172327 sec, comp_time = 0.207848 sec, comm_time = 0.129828 sec, neigh_comm_time = 0.000003 sec, ptp_comm_time = 0.000003 sec, coll_comm_time = 0.129817 sec, T_cmp_b = 0.103924 sec, T_cmp_a = 0.103924 sec, T_comm_b = 0.061436 sec, T_comm_a = 0.068393 sec.
rank 219 Tb = 0.165366 sec, Ta = 0.172319 sec, comp_time = 0.207812 sec, comm_time = 0.129852 sec, neigh_comm_time = 0.000003 sec, ptp_comm_time = 0.000003 sec, coll_comm_time = 0.129841 sec, T_cmp_b = 0.103906 sec, T_cmp_a = 0.103906 sec, T_comm_b = 0.061448 sec, T_comm_a = 0.068404 sec.
rank 239 Tb = 0.165366 sec, Ta = 0.172330 sec, comp_time = 0.207778 sec, comm_time = 0.129898 sec, neigh_comm_time = 0.000003 sec, ptp_comm_time = 0.000003 sec, coll_comm_time = 0.129886 sec, T_cmp_b = 0.103889 sec, T_cmp_a = 0.103889 sec, T_comm_b = 0.061467 sec, T_comm_a = 0.068431 sec.
rank 233 Tb = 0.165367 sec, Ta = 0.172332 sec, comp_time = 0.207812 sec, comm_time = 0.129866 sec, neigh_comm_time = 0.000003 sec, ptp_comm_time = 0.000003 sec, coll_comm_time = 0.129854 sec, T_cmp_b = 0.103906 sec, T_cmp_a = 0.103906 sec, T_comm_b = 0.061450 sec, T_comm_a = 0.068416 sec.
rank 43 Tb = 0.165367 sec, Ta = 0.172330 sec, comp_time = 0.207812 sec, comm_time = 0.129864 sec, neigh_comm_time = 0.000003 sec, ptp_comm_time = 0.000003 sec, coll_comm_time = 0.129852 sec, T_cmp_b = 0.103906 sec, T_cmp_a = 0.103906 sec, T_comm_b = 0.061450 sec, T_comm_a = 0.068414 sec.
rank 171 Tb = 0.165367 sec, Ta = 0.172329 sec, comp_time = 0.207848 sec, comm_time = 0.129828 sec, neigh_comm_time = 0.000003 sec, ptp_comm_time = 0.000003 sec, coll_comm_time = 0.129817 sec, T_cmp_b = 0.103924 sec, T_cmp_a = 0.103924 sec, T_comm_b = 0.061433 sec, T_comm_a = 0.068396 sec.
rank 155 Tb = 0.165369 sec, Ta = 0.172328 sec, comp_time = 0.207848 sec, comm_time = 0.129828 sec, neigh_comm_time = 0.000003 sec, ptp_comm_time = 0.000003 sec, coll_comm_time = 0.129817 sec, T_cmp_b = 0.103924 sec, T_cmp_a = 0.103924 sec, T_comm_b = 0.061434 sec, T_comm_a = 0.068394 sec.
rank 174 Tb = 0.165370 sec, Ta = 0.172332 sec, comp_time = 0.207848 sec, comm_time = 0.129833 sec, neigh_comm_time = 0.000003 sec, ptp_comm_time = 0.000003 sec, coll_comm_time = 0.129822 sec, T_cmp_b = 0.103924 sec, T_cmp_a = 0.103924 sec, T_comm_b = 0.061435 sec, T_comm_a = 0.068398 sec.
rank 111 Tb = 0.165371 sec, Ta = 0.172332 sec, comp_time = 0.207813 sec, comm_time = 0.129869 sec, neigh_comm_time = 0.000003 sec, ptp_comm_time = 0.000003 sec, coll_comm_time = 0.129857 sec, T_cmp_b = 0.103907 sec, T_cmp_a = 0.103906 sec, T_comm_b = 0.061453 sec, T_comm_a = 0.068416 sec.
rank 222 Tb = 0.165369 sec, Ta = 0.172323 sec, comp_time = 0.207813 sec, comm_time = 0.129859 sec, neigh_comm_time = 0.000003 sec, ptp_comm_time = 0.000003 sec, coll_comm_time = 0.129848 sec, T_cmp_b = 0.103907 sec, T_cmp_a = 0.103906 sec, T_comm_b = 0.061452 sec, T_comm_a = 0.068407 sec.
rank 87 Tb = 0.165370 sec, Ta = 0.172328 sec, comp_time = 0.207813 sec, comm_time = 0.129864 sec, neigh_comm_time = 0.000003 sec, ptp_comm_time = 0.000003 sec, coll_comm_time = 0.129852 sec, T_cmp_b = 0.103907 sec, T_cmp_a = 0.103906 sec, T_comm_b = 0.061452 sec, T_comm_a = 0.068411 sec.
rank 90 Tb = 0.165362 sec, Ta = 0.172322 sec, comp_time = 0.207847 sec, comm_time = 0.129816 sec, neigh_comm_time = 0.000003 sec, ptp_comm_time = 0.000003 sec, coll_comm_time = 0.129805 sec, T_cmp_b = 0.103924 sec, T_cmp_a = 0.103923 sec, T_comm_b = 0.061427 sec, T_comm_a = 0.068389 sec.
rank 37 Tb = 0.165366 sec, Ta = 0.172337 sec, comp_time = 0.207812 sec, comm_time = 0.129870 sec, neigh_comm_time = 0.000003 sec, ptp_comm_time = 0.000003 sec, coll_comm_time = 0.129858 sec, T_cmp_b = 0.103906 sec, T_cmp_a = 0.103906 sec, T_comm_b = 0.061449 sec, T_comm_a = 0.068421 sec.
rank 58 Tb = 0.165369 sec, Ta = 0.172322 sec, comp_time = 0.207778 sec, comm_time = 0.129893 sec, neigh_comm_time = 0.000003 sec, ptp_comm_time = 0.000003 sec, coll_comm_time = 0.129881 sec, T_cmp_b = 0.103889 sec, T_cmp_a = 0.103889 sec, T_comm_b = 0.061469 sec, T_comm_a = 0.068424 sec.
rank 149 Tb = 0.165370 sec, Ta = 0.172334 sec, comp_time = 0.207847 sec, comm_time = 0.129837 sec, neigh_comm_time = 0.000003 sec, ptp_comm_time = 0.000003 sec, coll_comm_time = 0.129825 sec, T_cmp_b = 0.103924 sec, T_cmp_a = 0.103923 sec, T_comm_b = 0.061436 sec, T_comm_a = 0.068401 sec.
rank 20 Tb = 0.165369 sec, Ta = 0.172331 sec, comp_time = 0.207813 sec, comm_time = 0.129866 sec, neigh_comm_time = 0.000003 sec, ptp_comm_time = 0.000003 sec, coll_comm_time = 0.129854 sec, T_cmp_b = 0.103907 sec, T_cmp_a = 0.103906 sec, T_comm_b = 0.061451 sec, T_comm_a = 0.068414 sec.
rank 235 Tb = 0.165368 sec, Ta = 0.172325 sec, comp_time = 0.207813 sec, comm_time = 0.129861 sec, neigh_comm_time = 0.000003 sec, ptp_comm_time = 0.000003 sec, coll_comm_time = 0.129849 sec, T_cmp_b = 0.103907 sec, T_cmp_a = 0.103906 sec, T_comm_b = 0.061451 sec, T_comm_a = 0.068410 sec.
rank 210 Tb = 0.165372 sec, Ta = 0.172320 sec, comp_time = 0.207813 sec, comm_time = 0.129858 sec, neigh_comm_time = 0.000003 sec, ptp_comm_time = 0.000003 sec, coll_comm_time = 0.129847 sec, T_cmp_b = 0.103907 sec, T_cmp_a = 0.103906 sec, T_comm_b = 0.061454 sec, T_comm_a = 0.068404 sec.
rank 229 Tb = 0.165367 sec, Ta = 0.172334 sec, comp_time = 0.207812 sec, comm_time = 0.129869 sec, neigh_comm_time = 0.000003 sec, ptp_comm_time = 0.000003 sec, coll_comm_time = 0.129857 sec, T_cmp_b = 0.103906 sec, T_cmp_a = 0.103906 sec, T_comm_b = 0.061450 sec, T_comm_a = 0.068418 sec.
rank 98 Tb = 0.165371 sec, Ta = 0.172330 sec, comp_time = 0.207848 sec, comm_time = 0.129832 sec, neigh_comm_time = 0.000003 sec, ptp_comm_time = 0.000003 sec, coll_comm_time = 0.129820 sec, T_cmp_b = 0.103925 sec, T_cmp_a = 0.103924 sec, T_comm_b = 0.061436 sec, T_comm_a = 0.068396 sec.
rank 34 Tb = 0.165373 sec, Ta = 0.172333 sec, comp_time = 0.207813 sec, comm_time = 0.129872 sec, neigh_comm_time = 0.000003 sec, ptp_comm_time = 0.000003 sec, coll_comm_time = 0.129860 sec, T_cmp_b = 0.103907 sec, T_cmp_a = 0.103906 sec, T_comm_b = 0.061455 sec, T_comm_a = 0.068416 sec.
rank 162 Tb = 0.165369 sec, Ta = 0.172331 sec, comp_time = 0.207848 sec, comm_time = 0.129832 sec, neigh_comm_time = 0.000003 sec, ptp_comm_time = 0.000003 sec, coll_comm_time = 0.129821 sec, T_cmp_b = 0.103925 sec, T_cmp_a = 0.103924 sec, T_comm_b = 0.061434 sec, T_comm_a = 0.068398 sec.
rank 158 Tb = 0.165368 sec, Ta = 0.172332 sec, comp_time = 0.207848 sec, comm_time = 0.129832 sec, neigh_comm_time = 0.000003 sec, ptp_comm_time = 0.000003 sec, coll_comm_time = 0.129821 sec, T_cmp_b = 0.103924 sec, T_cmp_a = 0.103924 sec, T_comm_b = 0.061434 sec, T_comm_a = 0.068399 sec.
rank 172 Tb = 0.165368 sec, Ta = 0.172335 sec, comp_time = 0.207848 sec, comm_time = 0.129835 sec, neigh_comm_time = 0.000003 sec, ptp_comm_time = 0.000003 sec, coll_comm_time = 0.129823 sec, T_cmp_b = 0.103924 sec, T_cmp_a = 0.103923 sec, T_comm_b = 0.061433 sec, T_comm_a = 0.068401 sec.
rank 237 Tb = 0.165369 sec, Ta = 0.172332 sec, comp_time = 0.207812 sec, comm_time = 0.129868 sec, neigh_comm_time = 0.000003 sec, ptp_comm_time = 0.000003 sec, coll_comm_time = 0.129856 sec, T_cmp_b = 0.103906 sec, T_cmp_a = 0.103906 sec, T_comm_b = 0.061452 sec, T_comm_a = 0.068416 sec.
rank 223 Tb = 0.165369 sec, Ta = 0.172325 sec, comp_time = 0.207778 sec, comm_time = 0.129895 sec, neigh_comm_time = 0.000003 sec, ptp_comm_time = 0.000003 sec, coll_comm_time = 0.129884 sec, T_cmp_b = 0.103889 sec, T_cmp_a = 0.103888 sec, T_comm_b = 0.061469 sec, T_comm_a = 0.068426 sec.
rank 94 Tb = 0.165370 sec, Ta = 0.172328 sec, comp_time = 0.207848 sec, comm_time = 0.129830 sec, neigh_comm_time = 0.000003 sec, ptp_comm_time = 0.000003 sec, coll_comm_time = 0.129818 sec, T_cmp_b = 0.103924 sec, T_cmp_a = 0.103924 sec, T_comm_b = 0.061436 sec, T_comm_a = 0.068394 sec.
rank 91 Tb = 0.165364 sec, Ta = 0.172324 sec, comp_time = 0.207848 sec, comm_time = 0.129820 sec, neigh_comm_time = 0.000003 sec, ptp_comm_time = 0.000003 sec, coll_comm_time = 0.129809 sec, T_cmp_b = 0.103924 sec, T_cmp_a = 0.103924 sec, T_comm_b = 0.061430 sec, T_comm_a = 0.068391 sec.
rank 38 Tb = 0.165367 sec, Ta = 0.172334 sec, comp_time = 0.207813 sec, comm_time = 0.129868 sec, neigh_comm_time = 0.000003 sec, ptp_comm_time = 0.000003 sec, coll_comm_time = 0.129856 sec, T_cmp_b = 0.103907 sec, T_cmp_a = 0.103906 sec, T_comm_b = 0.061450 sec, T_comm_a = 0.068418 sec.
rank 59 Tb = 0.165368 sec, Ta = 0.172323 sec, comp_time = 0.207778 sec, comm_time = 0.129892 sec, neigh_comm_time = 0.000003 sec, ptp_comm_time = 0.000003 sec, coll_comm_time = 0.129881 sec, T_cmp_b = 0.103889 sec, T_cmp_a = 0.103889 sec, T_comm_b = 0.061468 sec, T_comm_a = 0.068424 sec.
rank 147 Tb = 0.165371 sec, Ta = 0.172331 sec, comp_time = 0.207847 sec, comm_time = 0.129835 sec, neigh_comm_time = 0.000003 sec, ptp_comm_time = 0.000003 sec, coll_comm_time = 0.129823 sec, T_cmp_b = 0.103924 sec, T_cmp_a = 0.103923 sec, T_comm_b = 0.061437 sec, T_comm_a = 0.068398 sec.
rank 21 Tb = 0.165371 sec, Ta = 0.172331 sec, comp_time = 0.207812 sec, comm_time = 0.129868 sec, neigh_comm_time = 0.000003 sec, ptp_comm_time = 0.000003 sec, coll_comm_time = 0.129856 sec, T_cmp_b = 0.103907 sec, T_cmp_a = 0.103906 sec, T_comm_b = 0.061453 sec, T_comm_a = 0.068415 sec.
rank 105 Tb = 0.165370 sec, Ta = 0.172333 sec, comp_time = 0.207847 sec, comm_time = 0.129835 sec, neigh_comm_time = 0.000003 sec, ptp_comm_time = 0.000003 sec, coll_comm_time = 0.129823 sec, T_cmp_b = 0.103924 sec, T_cmp_a = 0.103923 sec, T_comm_b = 0.061435 sec, T_comm_a = 0.068399 sec.
rank 216 Tb = 0.165369 sec, Ta = 0.172327 sec, comp_time = 0.207777 sec, comm_time = 0.129898 sec, neigh_comm_time = 0.000003 sec, ptp_comm_time = 0.000003 sec, coll_comm_time = 0.129886 sec, T_cmp_b = 0.103889 sec, T_cmp_a = 0.103888 sec, T_comm_b = 0.061469 sec, T_comm_a = 0.068428 sec.
rank 236 Tb = 0.165368 sec, Ta = 0.172332 sec, comp_time = 0.207813 sec, comm_time = 0.129866 sec, neigh_comm_time = 0.000003 sec, ptp_comm_time = 0.000003 sec, coll_comm_time = 0.129855 sec, T_cmp_b = 0.103907 sec, T_cmp_a = 0.103906 sec, T_comm_b = 0.061451 sec, T_comm_a = 0.068416 sec.
rank 227 Tb = 0.165372 sec, Ta = 0.172330 sec, comp_time = 0.207813 sec, comm_time = 0.129868 sec, neigh_comm_time = 0.000003 sec, ptp_comm_time = 0.000003 sec, coll_comm_time = 0.129857 sec, T_cmp_b = 0.103907 sec, T_cmp_a = 0.103906 sec, T_comm_b = 0.061455 sec, T_comm_a = 0.068413 sec.
rank 41 Tb = 0.165375 sec, Ta = 0.172336 sec, comp_time = 0.207812 sec, comm_time = 0.129879 sec, neigh_comm_time = 0.000003 sec, ptp_comm_time = 0.000003 sec, coll_comm_time = 0.129867 sec, T_cmp_b = 0.103906 sec, T_cmp_a = 0.103906 sec, T_comm_b = 0.061459 sec, T_comm_a = 0.068420 sec.
rank 168 Tb = 0.165366 sec, Ta = 0.172335 sec, comp_time = 0.207813 sec, comm_time = 0.129868 sec, neigh_comm_time = 0.000003 sec, ptp_comm_time = 0.000003 sec, coll_comm_time = 0.129857 sec, T_cmp_b = 0.103907 sec, T_cmp_a = 0.103906 sec, T_comm_b = 0.061449 sec, T_comm_a = 0.068419 sec.
rank 145 Tb = 0.165371 sec, Ta = 0.172336 sec, comp_time = 0.207847 sec, comm_time = 0.129839 sec, neigh_comm_time = 0.000003 sec, ptp_comm_time = 0.000003 sec, coll_comm_time = 0.129828 sec, T_cmp_b = 0.103924 sec, T_cmp_a = 0.103924 sec, T_comm_b = 0.061437 sec, T_comm_a = 0.068402 sec.
rank 167 Tb = 0.165365 sec, Ta = 0.172334 sec, comp_time = 0.207813 sec, comm_time = 0.129866 sec, neigh_comm_time = 0.000003 sec, ptp_comm_time = 0.000003 sec, coll_comm_time = 0.129855 sec, T_cmp_b = 0.103906 sec, T_cmp_a = 0.103906 sec, T_comm_b = 0.061448 sec, T_comm_a = 0.068418 sec.
rank 108 Tb = 0.165370 sec, Ta = 0.172334 sec, comp_time = 0.207848 sec, comm_time = 0.129836 sec, neigh_comm_time = 0.000003 sec, ptp_comm_time = 0.000003 sec, coll_comm_time = 0.129824 sec, T_cmp_b = 0.103924 sec, T_cmp_a = 0.103924 sec, T_comm_b = 0.061436 sec, T_comm_a = 0.068400 sec.
rank 212 Tb = 0.165370 sec, Ta = 0.172327 sec, comp_time = 0.207812 sec, comm_time = 0.129864 sec, neigh_comm_time = 0.000003 sec, ptp_comm_time = 0.000003 sec, coll_comm_time = 0.129853 sec, T_cmp_b = 0.103906 sec, T_cmp_a = 0.103906 sec, T_comm_b = 0.061453 sec, T_comm_a = 0.068411 sec.
rank 84 Tb = 0.165370 sec, Ta = 0.172331 sec, comp_time = 0.207847 sec, comm_time = 0.129833 sec, neigh_comm_time = 0.000003 sec, ptp_comm_time = 0.000003 sec, coll_comm_time = 0.129822 sec, T_cmp_b = 0.103924 sec, T_cmp_a = 0.103923 sec, T_comm_b = 0.061436 sec, T_comm_a = 0.068397 sec.
rank 81 Tb = 0.165373 sec, Ta = 0.172332 sec, comp_time = 0.207848 sec, comm_time = 0.129836 sec, neigh_comm_time = 0.000003 sec, ptp_comm_time = 0.000003 sec, coll_comm_time = 0.129825 sec, T_cmp_b = 0.103924 sec, T_cmp_a = 0.103924 sec, T_comm_b = 0.061438 sec, T_comm_a = 0.068398 sec.
rank 45 Tb = 0.165372 sec, Ta = 0.172336 sec, comp_time = 0.207812 sec, comm_time = 0.129875 sec, neigh_comm_time = 0.000003 sec, ptp_comm_time = 0.000003 sec, coll_comm_time = 0.129864 sec, T_cmp_b = 0.103906 sec, T_cmp_a = 0.103906 sec, T_comm_b = 0.061456 sec, T_comm_a = 0.068420 sec.
rank 18 Tb = 0.165371 sec, Ta = 0.172326 sec, comp_time = 0.207813 sec, comm_time = 0.129864 sec, neigh_comm_time = 0.000003 sec, ptp_comm_time = 0.000003 sec, coll_comm_time = 0.129852 sec, T_cmp_b = 0.103907 sec, T_cmp_a = 0.103906 sec, T_comm_b = 0.061454 sec, T_comm_a = 0.068410 sec.
rank 159 Tb = 0.165367 sec, Ta = 0.172334 sec, comp_time = 0.207813 sec, comm_time = 0.129867 sec, neigh_comm_time = 0.000003 sec, ptp_comm_time = 0.000003 sec, coll_comm_time = 0.129856 sec, T_cmp_b = 0.103907 sec, T_cmp_a = 0.103906 sec, T_comm_b = 0.061450 sec, T_comm_a = 0.068417 sec.
rank 53 Tb = 0.165372 sec, Ta = 0.172329 sec, comp_time = 0.207812 sec, comm_time = 0.129868 sec, neigh_comm_time = 0.000003 sec, ptp_comm_time = 0.000003 sec, coll_comm_time = 0.129857 sec, T_cmp_b = 0.103906 sec, T_cmp_a = 0.103906 sec, T_comm_b = 0.061455 sec, T_comm_a = 0.068413 sec.
rank 104 Tb = 0.165369 sec, Ta = 0.172333 sec, comp_time = 0.207813 sec, comm_time = 0.129868 sec, neigh_comm_time = 0.000003 sec, ptp_comm_time = 0.000003 sec, coll_comm_time = 0.129856 sec, T_cmp_b = 0.103907 sec, T_cmp_a = 0.103906 sec, T_comm_b = 0.061451 sec, T_comm_a = 0.068417 sec.
rank 211 Tb = 0.165369 sec, Ta = 0.172322 sec, comp_time = 0.207812 sec, comm_time = 0.129859 sec, neigh_comm_time = 0.000003 sec, ptp_comm_time = 0.000003 sec, coll_comm_time = 0.129848 sec, T_cmp_b = 0.103906 sec, T_cmp_a = 0.103906 sec, T_comm_b = 0.061453 sec, T_comm_a = 0.068406 sec.
rank 228 Tb = 0.165371 sec, Ta = 0.172335 sec, comp_time = 0.207812 sec, comm_time = 0.129873 sec, neigh_comm_time = 0.000003 sec, ptp_comm_time = 0.000003 sec, coll_comm_time = 0.129861 sec, T_cmp_b = 0.103906 sec, T_cmp_a = 0.103906 sec, T_comm_b = 0.061454 sec, T_comm_a = 0.068419 sec.
rank 232 Tb = 0.165366 sec, Ta = 0.172333 sec, comp_time = 0.207778 sec, comm_time = 0.129899 sec, neigh_comm_time = 0.000003 sec, ptp_comm_time = 0.000003 sec, coll_comm_time = 0.129888 sec, T_cmp_b = 0.103889 sec, T_cmp_a = 0.103889 sec, T_comm_b = 0.061466 sec, T_comm_a = 0.068433 sec.
rank 35 Tb = 0.165369 sec, Ta = 0.172334 sec, comp_time = 0.207812 sec, comm_time = 0.129871 sec, neigh_comm_time = 0.000003 sec, ptp_comm_time = 0.000003 sec, coll_comm_time = 0.129859 sec, T_cmp_b = 0.103906 sec, T_cmp_a = 0.103906 sec, T_comm_b = 0.061453 sec, T_comm_a = 0.068418 sec.
rank 163 Tb = 0.165371 sec, Ta = 0.172334 sec, comp_time = 0.207847 sec, comm_time = 0.129836 sec, neigh_comm_time = 0.000003 sec, ptp_comm_time = 0.000003 sec, coll_comm_time = 0.129824 sec, T_cmp_b = 0.103924 sec, T_cmp_a = 0.103923 sec, T_comm_b = 0.061436 sec, T_comm_a = 0.068400 sec.
rank 156 Tb = 0.165369 sec, Ta = 0.172333 sec, comp_time = 0.207847 sec, comm_time = 0.129833 sec, neigh_comm_time = 0.000003 sec, ptp_comm_time = 0.000003 sec, coll_comm_time = 0.129822 sec, T_cmp_b = 0.103924 sec, T_cmp_a = 0.103924 sec, T_comm_b = 0.061434 sec, T_comm_a = 0.068399 sec.
rank 166 Tb = 0.165366 sec, Ta = 0.172333 sec, comp_time = 0.207848 sec, comm_time = 0.129830 sec, neigh_comm_time = 0.000003 sec, ptp_comm_time = 0.000003 sec, coll_comm_time = 0.129819 sec, T_cmp_b = 0.103925 sec, T_cmp_a = 0.103923 sec, T_comm_b = 0.061431 sec, T_comm_a = 0.068400 sec.
rank 103 Tb = 0.165368 sec, Ta = 0.172331 sec, comp_time = 0.207812 sec, comm_time = 0.129866 sec, neigh_comm_time = 0.000003 sec, ptp_comm_time = 0.000003 sec, coll_comm_time = 0.129855 sec, T_cmp_b = 0.103906 sec, T_cmp_a = 0.103906 sec, T_comm_b = 0.061451 sec, T_comm_a = 0.068416 sec.
rank 221 Tb = 0.165369 sec, Ta = 0.172325 sec, comp_time = 0.207813 sec, comm_time = 0.129860 sec, neigh_comm_time = 0.000003 sec, ptp_comm_time = 0.000003 sec, coll_comm_time = 0.129849 sec, T_cmp_b = 0.103907 sec, T_cmp_a = 0.103906 sec, T_comm_b = 0.061452 sec, T_comm_a = 0.068408 sec.
rank 95 Tb = 0.165367 sec, Ta = 0.172330 sec, comp_time = 0.207813 sec, comm_time = 0.129863 sec, neigh_comm_time = 0.000003 sec, ptp_comm_time = 0.000003 sec, coll_comm_time = 0.129852 sec, T_cmp_b = 0.103907 sec, T_cmp_a = 0.103906 sec, T_comm_b = 0.061450 sec, T_comm_a = 0.068413 sec.
rank 80 Tb = 0.165371 sec, Ta = 0.172333 sec, comp_time = 0.207812 sec, comm_time = 0.129871 sec, neigh_comm_time = 0.000003 sec, ptp_comm_time = 0.000003 sec, coll_comm_time = 0.129860 sec, T_cmp_b = 0.103906 sec, T_cmp_a = 0.103906 sec, T_comm_b = 0.061454 sec, T_comm_a = 0.068417 sec.
rank 46 Tb = 0.165371 sec, Ta = 0.172335 sec, comp_time = 0.207812 sec, comm_time = 0.129873 sec, neigh_comm_time = 0.000003 sec, ptp_comm_time = 0.000003 sec, coll_comm_time = 0.129862 sec, T_cmp_b = 0.103906 sec, T_cmp_a = 0.103906 sec, T_comm_b = 0.061454 sec, T_comm_a = 0.068419 sec.
rank 19 Tb = 0.165372 sec, Ta = 0.172327 sec, comp_time = 0.207812 sec, comm_time = 0.129866 sec, neigh_comm_time = 0.000003 sec, ptp_comm_time = 0.000003 sec, coll_comm_time = 0.129854 sec, T_cmp_b = 0.103906 sec, T_cmp_a = 0.103906 sec, T_comm_b = 0.061455 sec, T_comm_a = 0.068411 sec.
rank 186 Tb = 0.165371 sec, Ta = 0.172327 sec, comp_time = 0.207813 sec, comm_time = 0.129865 sec, neigh_comm_time = 0.000003 sec, ptp_comm_time = 0.000003 sec, coll_comm_time = 0.129854 sec, T_cmp_b = 0.103907 sec, T_cmp_a = 0.103906 sec, T_comm_b = 0.061454 sec, T_comm_a = 0.068411 sec.
rank 62 Tb = 0.165370 sec, Ta = 0.172327 sec, comp_time = 0.207778 sec, comm_time = 0.129898 sec, neigh_comm_time = 0.000003 sec, ptp_comm_time = 0.000003 sec, coll_comm_time = 0.129887 sec, T_cmp_b = 0.103889 sec, T_cmp_a = 0.103889 sec, T_comm_b = 0.061470 sec, T_comm_a = 0.068428 sec.
rank 99 Tb = 0.165372 sec, Ta = 0.172332 sec, comp_time = 0.207848 sec, comm_time = 0.129836 sec, neigh_comm_time = 0.000003 sec, ptp_comm_time = 0.000003 sec, coll_comm_time = 0.129824 sec, T_cmp_b = 0.103924 sec, T_cmp_a = 0.103924 sec, T_comm_b = 0.061438 sec, T_comm_a = 0.068398 sec.
rank 217 Tb = 0.165367 sec, Ta = 0.172326 sec, comp_time = 0.207812 sec, comm_time = 0.129860 sec, neigh_comm_time = 0.000003 sec, ptp_comm_time = 0.000003 sec, coll_comm_time = 0.129849 sec, T_cmp_b = 0.103906 sec, T_cmp_a = 0.103906 sec, T_comm_b = 0.061450 sec, T_comm_a = 0.068410 sec.
rank 231 Tb = 0.165370 sec, Ta = 0.172330 sec, comp_time = 0.207778 sec, comm_time = 0.129901 sec, neigh_comm_time = 0.000003 sec, ptp_comm_time = 0.000003 sec, coll_comm_time = 0.129890 sec, T_cmp_b = 0.103889 sec, T_cmp_a = 0.103889 sec, T_comm_b = 0.061470 sec, T_comm_a = 0.068431 sec.
rank 226 Tb = 0.165369 sec, Ta = 0.172328 sec, comp_time = 0.207813 sec, comm_time = 0.129863 sec, neigh_comm_time = 0.000003 sec, ptp_comm_time = 0.000003 sec, coll_comm_time = 0.129852 sec, T_cmp_b = 0.103907 sec, T_cmp_a = 0.103906 sec, T_comm_b = 0.061451 sec, T_comm_a = 0.068412 sec.
rank 40 Tb = 0.165367 sec, Ta = 0.172336 sec, comp_time = 0.207777 sec, comm_time = 0.129905 sec, neigh_comm_time = 0.000003 sec, ptp_comm_time = 0.000003 sec, coll_comm_time = 0.129893 sec, T_cmp_b = 0.103889 sec, T_cmp_a = 0.103889 sec, T_comm_b = 0.061468 sec, T_comm_a = 0.068437 sec.
rank 3 Tb = 0.165366 sec, Ta = 0.172338 sec, comp_time = 0.207778 sec, comm_time = 0.129905 sec, neigh_comm_time = 0.000003 sec, ptp_comm_time = 0.000003 sec, coll_comm_time = 0.129894 sec, T_cmp_b = 0.103889 sec, T_cmp_a = 0.103889 sec, T_comm_b = 0.061466 sec, T_comm_a = 0.068439 sec.
rank 157 Tb = 0.165367 sec, Ta = 0.172333 sec, comp_time = 0.207848 sec, comm_time = 0.129832 sec, neigh_comm_time = 0.000003 sec, ptp_comm_time = 0.000003 sec, coll_comm_time = 0.129820 sec, T_cmp_b = 0.103924 sec, T_cmp_a = 0.103924 sec, T_comm_b = 0.061433 sec, T_comm_a = 0.068399 sec.
rank 165 Tb = 0.165367 sec, Ta = 0.172338 sec, comp_time = 0.207847 sec, comm_time = 0.129837 sec, neigh_comm_time = 0.000003 sec, ptp_comm_time = 0.000003 sec, coll_comm_time = 0.129826 sec, T_cmp_b = 0.103924 sec, T_cmp_a = 0.103923 sec, T_comm_b = 0.061433 sec, T_comm_a = 0.068404 sec.
rank 109 Tb = 0.165371 sec, Ta = 0.172333 sec, comp_time = 0.207848 sec, comm_time = 0.129836 sec, neigh_comm_time = 0.000003 sec, ptp_comm_time = 0.000003 sec, coll_comm_time = 0.129825 sec, T_cmp_b = 0.103924 sec, T_cmp_a = 0.103924 sec, T_comm_b = 0.061437 sec, T_comm_a = 0.068399 sec.
rank 220 Tb = 0.165365 sec, Ta = 0.172326 sec, comp_time = 0.207812 sec, comm_time = 0.129858 sec, neigh_comm_time = 0.000003 sec, ptp_comm_time = 0.000003 sec, coll_comm_time = 0.129846 sec, T_cmp_b = 0.103906 sec, T_cmp_a = 0.103906 sec, T_comm_b = 0.061448 sec, T_comm_a = 0.068410 sec.
rank 92 Tb = 0.165371 sec, Ta = 0.172330 sec, comp_time = 0.207848 sec, comm_time = 0.129832 sec, neigh_comm_time = 0.000003 sec, ptp_comm_time = 0.000003 sec, coll_comm_time = 0.129821 sec, T_cmp_b = 0.103924 sec, T_cmp_a = 0.103924 sec, T_comm_b = 0.061436 sec, T_comm_a = 0.068396 sec.
rank 88 Tb = 0.165370 sec, Ta = 0.172331 sec, comp_time = 0.207813 sec, comm_time = 0.129867 sec, neigh_comm_time = 0.000003 sec, ptp_comm_time = 0.000003 sec, coll_comm_time = 0.129856 sec, T_cmp_b = 0.103907 sec, T_cmp_a = 0.103906 sec, T_comm_b = 0.061453 sec, T_comm_a = 0.068415 sec.
rank 36 Tb = 0.165365 sec, Ta = 0.172338 sec, comp_time = 0.207812 sec, comm_time = 0.129869 sec, neigh_comm_time = 0.000003 sec, ptp_comm_time = 0.000003 sec, coll_comm_time = 0.129858 sec, T_cmp_b = 0.103906 sec, T_cmp_a = 0.103906 sec, T_comm_b = 0.061448 sec, T_comm_a = 0.068422 sec.
rank 51 Tb = 0.165371 sec, Ta = 0.172325 sec, comp_time = 0.207812 sec, comm_time = 0.129864 sec, neigh_comm_time = 0.000003 sec, ptp_comm_time = 0.000003 sec, coll_comm_time = 0.129852 sec, T_cmp_b = 0.103906 sec, T_cmp_a = 0.103906 sec, T_comm_b = 0.061454 sec, T_comm_a = 0.068410 sec.
rank 152 Tb = 0.165368 sec, Ta = 0.172335 sec, comp_time = 0.207812 sec, comm_time = 0.129869 sec, neigh_comm_time = 0.000003 sec, ptp_comm_time = 0.000003 sec, coll_comm_time = 0.129858 sec, T_cmp_b = 0.103906 sec, T_cmp_a = 0.103906 sec, T_comm_b = 0.061451 sec, T_comm_a = 0.068419 sec.
rank 63 Tb = 0.165369 sec, Ta = 0.172331 sec, comp_time = 0.207742 sec, comm_time = 0.129936 sec, neigh_comm_time = 0.000003 sec, ptp_comm_time = 0.000003 sec, coll_comm_time = 0.129925 sec, T_cmp_b = 0.103871 sec, T_cmp_a = 0.103871 sec, T_comm_b = 0.061487 sec, T_comm_a = 0.068449 sec.
rank 97 Tb = 0.165371 sec, Ta = 0.172339 sec, comp_time = 0.207847 sec, comm_time = 0.129842 sec, neigh_comm_time = 0.000003 sec, ptp_comm_time = 0.000003 sec, coll_comm_time = 0.129830 sec, T_cmp_b = 0.103924 sec, T_cmp_a = 0.103923 sec, T_comm_b = 0.061437 sec, T_comm_a = 0.068405 sec.
rank 209 Tb = 0.165371 sec, Ta = 0.172329 sec, comp_time = 0.207812 sec, comm_time = 0.129867 sec, neigh_comm_time = 0.000003 sec, ptp_comm_time = 0.000003 sec, coll_comm_time = 0.129855 sec, T_cmp_b = 0.103906 sec, T_cmp_a = 0.103906 sec, T_comm_b = 0.061454 sec, T_comm_a = 0.068413 sec.
rank 230 Tb = 0.165367 sec, Ta = 0.172329 sec, comp_time = 0.207813 sec, comm_time = 0.129863 sec, neigh_comm_time = 0.000003 sec, ptp_comm_time = 0.000003 sec, coll_comm_time = 0.129851 sec, T_cmp_b = 0.103907 sec, T_cmp_a = 0.103906 sec, T_comm_b = 0.061450 sec, T_comm_a = 0.068413 sec.
rank 224 Tb = 0.165368 sec, Ta = 0.172338 sec, comp_time = 0.207778 sec, comm_time = 0.129908 sec, neigh_comm_time = 0.000003 sec, ptp_comm_time = 0.000003 sec, coll_comm_time = 0.129896 sec, T_cmp_b = 0.103889 sec, T_cmp_a = 0.103889 sec, T_comm_b = 0.061469 sec, T_comm_a = 0.068439 sec.
rank 10 Tb = 0.165366 sec, Ta = 0.172334 sec, comp_time = 0.207813 sec, comm_time = 0.129867 sec, neigh_comm_time = 0.000003 sec, ptp_comm_time = 0.000003 sec, coll_comm_time = 0.129855 sec, T_cmp_b = 0.103907 sec, T_cmp_a = 0.103906 sec, T_comm_b = 0.061449 sec, T_comm_a = 0.068418 sec.
rank 160 Tb = 0.165366 sec, Ta = 0.172341 sec, comp_time = 0.207812 sec, comm_time = 0.129874 sec, neigh_comm_time = 0.000003 sec, ptp_comm_time = 0.000003 sec, coll_comm_time = 0.129862 sec, T_cmp_b = 0.103906 sec, T_cmp_a = 0.103906 sec, T_comm_b = 0.061449 sec, T_comm_a = 0.068425 sec.
rank 151 Tb = 0.165367 sec, Ta = 0.172332 sec, comp_time = 0.207812 sec, comm_time = 0.129867 sec, neigh_comm_time = 0.000003 sec, ptp_comm_time = 0.000003 sec, coll_comm_time = 0.129855 sec, T_cmp_b = 0.103906 sec, T_cmp_a = 0.103906 sec, T_comm_b = 0.061451 sec, T_comm_a = 0.068416 sec.
rank 164 Tb = 0.165371 sec, Ta = 0.172338 sec, comp_time = 0.207848 sec, comm_time = 0.129841 sec, neigh_comm_time = 0.000003 sec, ptp_comm_time = 0.000003 sec, coll_comm_time = 0.129829 sec, T_cmp_b = 0.103924 sec, T_cmp_a = 0.103924 sec, T_comm_b = 0.061436 sec, T_comm_a = 0.068405 sec.
rank 101 Tb = 0.165368 sec, Ta = 0.172335 sec, comp_time = 0.207847 sec, comm_time = 0.129835 sec, neigh_comm_time = 0.000003 sec, ptp_comm_time = 0.000003 sec, coll_comm_time = 0.129824 sec, T_cmp_b = 0.103924 sec, T_cmp_a = 0.103924 sec, T_comm_b = 0.061434 sec, T_comm_a = 0.068402 sec.
rank 250 Tb = 0.165367 sec, Ta = 0.172321 sec, comp_time = 0.207778 sec, comm_time = 0.129890 sec, neigh_comm_time = 0.000003 sec, ptp_comm_time = 0.000003 sec, coll_comm_time = 0.129878 sec, T_cmp_b = 0.103889 sec, T_cmp_a = 0.103889 sec, T_comm_b = 0.061467 sec, T_comm_a = 0.068422 sec.
rank 93 Tb = 0.165371 sec, Ta = 0.172329 sec, comp_time = 0.207847 sec, comm_time = 0.129832 sec, neigh_comm_time = 0.000003 sec, ptp_comm_time = 0.000003 sec, coll_comm_time = 0.129821 sec, T_cmp_b = 0.103924 sec, T_cmp_a = 0.103923 sec, T_comm_b = 0.061437 sec, T_comm_a = 0.068395 sec.
rank 89 Tb = 0.165372 sec, Ta = 0.172330 sec, comp_time = 0.207847 sec, comm_time = 0.129833 sec, neigh_comm_time = 0.000003 sec, ptp_comm_time = 0.000003 sec, coll_comm_time = 0.129821 sec, T_cmp_b = 0.103924 sec, T_cmp_a = 0.103923 sec, T_comm_b = 0.061437 sec, T_comm_a = 0.068396 sec.
rank 44 Tb = 0.165371 sec, Ta = 0.172337 sec, comp_time = 0.207813 sec, comm_time = 0.129873 sec, neigh_comm_time = 0.000003 sec, ptp_comm_time = 0.000003 sec, coll_comm_time = 0.129862 sec, T_cmp_b = 0.103907 sec, T_cmp_a = 0.103907 sec, T_comm_b = 0.061454 sec, T_comm_a = 0.068420 sec.
rank 17 Tb = 0.165370 sec, Ta = 0.172332 sec, comp_time = 0.207812 sec, comm_time = 0.129870 sec, neigh_comm_time = 0.000003 sec, ptp_comm_time = 0.000003 sec, coll_comm_time = 0.129858 sec, T_cmp_b = 0.103906 sec, T_cmp_a = 0.103906 sec, T_comm_b = 0.061454 sec, T_comm_a = 0.068416 sec.
rank 153 Tb = 0.165367 sec, Ta = 0.172334 sec, comp_time = 0.207847 sec, comm_time = 0.129833 sec, neigh_comm_time = 0.000003 sec, ptp_comm_time = 0.000003 sec, coll_comm_time = 0.129822 sec, T_cmp_b = 0.103924 sec, T_cmp_a = 0.103923 sec, T_comm_b = 0.061433 sec, T_comm_a = 0.068400 sec.
rank 31 Tb = 0.165364 sec, Ta = 0.172330 sec, comp_time = 0.207777 sec, comm_time = 0.129896 sec, neigh_comm_time = 0.000003 sec, ptp_comm_time = 0.000003 sec, coll_comm_time = 0.129885 sec, T_cmp_b = 0.103889 sec, T_cmp_a = 0.103889 sec, T_comm_b = 0.061464 sec, T_comm_a = 0.068432 sec.
rank 96 Tb = 0.165368 sec, Ta = 0.172340 sec, comp_time = 0.207813 sec, comm_time = 0.129874 sec, neigh_comm_time = 0.000003 sec, ptp_comm_time = 0.000003 sec, coll_comm_time = 0.129862 sec, T_cmp_b = 0.103907 sec, T_cmp_a = 0.103906 sec, T_comm_b = 0.061451 sec, T_comm_a = 0.068423 sec.
rank 214 Tb = 0.165373 sec, Ta = 0.172321 sec, comp_time = 0.207813 sec, comm_time = 0.129859 sec, neigh_comm_time = 0.000003 sec, ptp_comm_time = 0.000003 sec, coll_comm_time = 0.129848 sec, T_cmp_b = 0.103907 sec, T_cmp_a = 0.103906 sec, T_comm_b = 0.061455 sec, T_comm_a = 0.068405 sec.
rank 100 Tb = 0.165371 sec, Ta = 0.172336 sec, comp_time = 0.207848 sec, comm_time = 0.129838 sec, neigh_comm_time = 0.000003 sec, ptp_comm_time = 0.000003 sec, coll_comm_time = 0.129826 sec, T_cmp_b = 0.103924 sec, T_cmp_a = 0.103924 sec, T_comm_b = 0.061436 sec, T_comm_a = 0.068402 sec.
rank 225 Tb = 0.165369 sec, Ta = 0.172337 sec, comp_time = 0.207812 sec, comm_time = 0.129872 sec, neigh_comm_time = 0.000003 sec, ptp_comm_time = 0.000003 sec, coll_comm_time = 0.129861 sec, T_cmp_b = 0.103906 sec, T_cmp_a = 0.103906 sec, T_comm_b = 0.061452 sec, T_comm_a = 0.068421 sec.
rank 32 Tb = 0.165368 sec, Ta = 0.172341 sec, comp_time = 0.207778 sec, comm_time = 0.129910 sec, neigh_comm_time = 0.000003 sec, ptp_comm_time = 0.000003 sec, coll_comm_time = 0.129899 sec, T_cmp_b = 0.103889 sec, T_cmp_a = 0.103888 sec, T_comm_b = 0.061468 sec, T_comm_a = 0.068443 sec.
rank 161 Tb = 0.165369 sec, Ta = 0.172340 sec, comp_time = 0.207847 sec, comm_time = 0.129841 sec, neigh_comm_time = 0.000003 sec, ptp_comm_time = 0.000003 sec, coll_comm_time = 0.129830 sec, T_cmp_b = 0.103924 sec, T_cmp_a = 0.103923 sec, T_comm_b = 0.061435 sec, T_comm_a = 0.068406 sec.
rank 187 Tb = 0.165365 sec, Ta = 0.172329 sec, comp_time = 0.207813 sec, comm_time = 0.129861 sec, neigh_comm_time = 0.000003 sec, ptp_comm_time = 0.000003 sec, coll_comm_time = 0.129850 sec, T_cmp_b = 0.103907 sec, T_cmp_a = 0.103906 sec, T_comm_b = 0.061448 sec, T_comm_a = 0.068413 sec.
rank 5 Tb = 0.165367 sec, Ta = 0.172342 sec, comp_time = 0.207777 sec, comm_time = 0.129911 sec, neigh_comm_time = 0.000003 sec, ptp_comm_time = 0.000003 sec, coll_comm_time = 0.129900 sec, T_cmp_b = 0.103889 sec, T_cmp_a = 0.103888 sec, T_comm_b = 0.061468 sec, T_comm_a = 0.068443 sec.
rank 78 Tb = 0.165371 sec, Ta = 0.172340 sec, comp_time = 0.207847 sec, comm_time = 0.129842 sec, neigh_comm_time = 0.000003 sec, ptp_comm_time = 0.000003 sec, coll_comm_time = 0.129830 sec, T_cmp_b = 0.103924 sec, T_cmp_a = 0.103924 sec, T_comm_b = 0.061436 sec, T_comm_a = 0.068406 sec.
rank 208 Tb = 0.165370 sec, Ta = 0.172330 sec, comp_time = 0.207778 sec, comm_time = 0.129901 sec, neigh_comm_time = 0.000003 sec, ptp_comm_time = 0.000003 sec, coll_comm_time = 0.129890 sec, T_cmp_b = 0.103889 sec, T_cmp_a = 0.103889 sec, T_comm_b = 0.061470 sec, T_comm_a = 0.068431 sec.
rank 245 Tb = 0.165368 sec, Ta = 0.172330 sec, comp_time = 0.207812 sec, comm_time = 0.129865 sec, neigh_comm_time = 0.000003 sec, ptp_comm_time = 0.000003 sec, coll_comm_time = 0.129854 sec, T_cmp_b = 0.103906 sec, T_cmp_a = 0.103906 sec, T_comm_b = 0.061452 sec, T_comm_a = 0.068414 sec.
rank 243 Tb = 0.165366 sec, Ta = 0.172325 sec, comp_time = 0.207812 sec, comm_time = 0.129857 sec, neigh_comm_time = 0.000003 sec, ptp_comm_time = 0.000003 sec, coll_comm_time = 0.129845 sec, T_cmp_b = 0.103906 sec, T_cmp_a = 0.103906 sec, T_comm_b = 0.061449 sec, T_comm_a = 0.068408 sec.
rank 6 Tb = 0.165368 sec, Ta = 0.172339 sec, comp_time = 0.207778 sec, comm_time = 0.129909 sec, neigh_comm_time = 0.000003 sec, ptp_comm_time = 0.000003 sec, coll_comm_time = 0.129897 sec, T_cmp_b = 0.103890 sec, T_cmp_a = 0.103888 sec, T_comm_b = 0.061468 sec, T_comm_a = 0.068441 sec.
rank 139 Tb = 0.165368 sec, Ta = 0.172338 sec, comp_time = 0.207847 sec, comm_time = 0.129838 sec, neigh_comm_time = 0.000003 sec, ptp_comm_time = 0.000003 sec, coll_comm_time = 0.129826 sec, T_cmp_b = 0.103924 sec, T_cmp_a = 0.103923 sec, T_comm_b = 0.061433 sec, T_comm_a = 0.068404 sec.
rank 190 Tb = 0.165369 sec, Ta = 0.172333 sec, comp_time = 0.207813 sec, comm_time = 0.129868 sec, neigh_comm_time = 0.000003 sec, ptp_comm_time = 0.000003 sec, coll_comm_time = 0.129856 sec, T_cmp_b = 0.103906 sec, T_cmp_a = 0.103906 sec, T_comm_b = 0.061452 sec, T_comm_a = 0.068416 sec.
rank 55 Tb = 0.165371 sec, Ta = 0.172327 sec, comp_time = 0.207777 sec, comm_time = 0.129900 sec, neigh_comm_time = 0.000003 sec, ptp_comm_time = 0.000003 sec, coll_comm_time = 0.129888 sec, T_cmp_b = 0.103889 sec, T_cmp_a = 0.103888 sec, T_comm_b = 0.061471 sec, T_comm_a = 0.068428 sec.
rank 74 Tb = 0.165369 sec, Ta = 0.172334 sec, comp_time = 0.207848 sec, comm_time = 0.129835 sec, neigh_comm_time = 0.000003 sec, ptp_comm_time = 0.000003 sec, coll_comm_time = 0.129823 sec, T_cmp_b = 0.103924 sec, T_cmp_a = 0.103924 sec, T_comm_b = 0.061434 sec, T_comm_a = 0.068400 sec.
rank 254 Tb = 0.165368 sec, Ta = 0.172327 sec, comp_time = 0.207778 sec, comm_time = 0.129895 sec, neigh_comm_time = 0.000003 sec, ptp_comm_time = 0.000003 sec, coll_comm_time = 0.129884 sec, T_cmp_b = 0.103889 sec, T_cmp_a = 0.103889 sec, T_comm_b = 0.061467 sec, T_comm_a = 0.068428 sec.
rank 199 Tb = 0.165365 sec, Ta = 0.172337 sec, comp_time = 0.207743 sec, comm_time = 0.129939 sec, neigh_comm_time = 0.000003 sec, ptp_comm_time = 0.000003 sec, coll_comm_time = 0.129927 sec, T_cmp_b = 0.103872 sec, T_cmp_a = 0.103871 sec, T_comm_b = 0.061483 sec, T_comm_a = 0.068456 sec.
rank 114 Tb = 0.165370 sec, Ta = 0.172328 sec, comp_time = 0.207849 sec, comm_time = 0.129828 sec, neigh_comm_time = 0.000003 sec, ptp_comm_time = 0.000003 sec, coll_comm_time = 0.129817 sec, T_cmp_b = 0.103925 sec, T_cmp_a = 0.103924 sec, T_comm_b = 0.061435 sec, T_comm_a = 0.068394 sec.
rank 33 Tb = 0.165369 sec, Ta = 0.172340 sec, comp_time = 0.207812 sec, comm_time = 0.129876 sec, neigh_comm_time = 0.000003 sec, ptp_comm_time = 0.000003 sec, coll_comm_time = 0.129865 sec, T_cmp_b = 0.103907 sec, T_cmp_a = 0.103906 sec, T_comm_b = 0.061452 sec, T_comm_a = 0.068424 sec.
rank 16 Tb = 0.165369 sec, Ta = 0.172333 sec, comp_time = 0.207778 sec, comm_time = 0.129904 sec, neigh_comm_time = 0.000003 sec, ptp_comm_time = 0.000003 sec, coll_comm_time = 0.129893 sec, T_cmp_b = 0.103889 sec, T_cmp_a = 0.103888 sec, T_comm_b = 0.061469 sec, T_comm_a = 0.068435 sec.
rank 144 Tb = 0.165370 sec, Ta = 0.172338 sec, comp_time = 0.207813 sec, comm_time = 0.129874 sec, neigh_comm_time = 0.000003 sec, ptp_comm_time = 0.000003 sec, coll_comm_time = 0.129863 sec, T_cmp_b = 0.103907 sec, T_cmp_a = 0.103906 sec, T_comm_b = 0.061453 sec, T_comm_a = 0.068421 sec.
rank 135 Tb = 0.165369 sec, Ta = 0.172343 sec, comp_time = 0.207778 sec, comm_time = 0.129913 sec, neigh_comm_time = 0.000003 sec, ptp_comm_time = 0.000003 sec, coll_comm_time = 0.129902 sec, T_cmp_b = 0.103889 sec, T_cmp_a = 0.103889 sec, T_comm_b = 0.061470 sec, T_comm_a = 0.068444 sec.
rank 71 Tb = 0.165364 sec, Ta = 0.172342 sec, comp_time = 0.207777 sec, comm_time = 0.129908 sec, neigh_comm_time = 0.000003 sec, ptp_comm_time = 0.000003 sec, coll_comm_time = 0.129896 sec, T_cmp_b = 0.103889 sec, T_cmp_a = 0.103888 sec, T_comm_b = 0.061465 sec, T_comm_a = 0.068443 sec.
rank 246 Tb = 0.165368 sec, Ta = 0.172324 sec, comp_time = 0.207813 sec, comm_time = 0.129859 sec, neigh_comm_time = 0.000003 sec, ptp_comm_time = 0.000003 sec, coll_comm_time = 0.129848 sec, T_cmp_b = 0.103907 sec, T_cmp_a = 0.103906 sec, T_comm_b = 0.061451 sec, T_comm_a = 0.068408 sec.
rank 118 Tb = 0.165370 sec, Ta = 0.172330 sec, comp_time = 0.207848 sec, comm_time = 0.129831 sec, neigh_comm_time = 0.000003 sec, ptp_comm_time = 0.000003 sec, coll_comm_time = 0.129820 sec, T_cmp_b = 0.103924 sec, T_cmp_a = 0.103923 sec, T_comm_b = 0.061435 sec, T_comm_a = 0.068397 sec.
rank 202 Tb = 0.165374 sec, Ta = 0.172330 sec, comp_time = 0.207813 sec, comm_time = 0.129871 sec, neigh_comm_time = 0.000003 sec, ptp_comm_time = 0.000003 sec, coll_comm_time = 0.129860 sec, T_cmp_b = 0.103907 sec, T_cmp_a = 0.103906 sec, T_comm_b = 0.061457 sec, T_comm_a = 0.068414 sec.
rank 4 Tb = 0.165365 sec, Ta = 0.172343 sec, comp_time = 0.207778 sec, comm_time = 0.129910 sec, neigh_comm_time = 0.000003 sec, ptp_comm_time = 0.000003 sec, coll_comm_time = 0.129898 sec, T_cmp_b = 0.103889 sec, T_cmp_a = 0.103888 sec, T_comm_b = 0.061465 sec, T_comm_a = 0.068444 sec.
rank 137 Tb = 0.165369 sec, Ta = 0.172344 sec, comp_time = 0.207848 sec, comm_time = 0.129844 sec, neigh_comm_time = 0.000003 sec, ptp_comm_time = 0.000003 sec, coll_comm_time = 0.129833 sec, T_cmp_b = 0.103924 sec, T_cmp_a = 0.103923 sec, T_comm_b = 0.061434 sec, T_comm_a = 0.068410 sec.
rank 182 Tb = 0.165371 sec, Ta = 0.172331 sec, comp_time = 0.207848 sec, comm_time = 0.129834 sec, neigh_comm_time = 0.000003 sec, ptp_comm_time = 0.000003 sec, coll_comm_time = 0.129823 sec, T_cmp_b = 0.103924 sec, T_cmp_a = 0.103924 sec, T_comm_b = 0.061437 sec, T_comm_a = 0.068398 sec.
rank 30 Tb = 0.165362 sec, Ta = 0.172329 sec, comp_time = 0.207813 sec, comm_time = 0.129857 sec, neigh_comm_time = 0.000003 sec, ptp_comm_time = 0.000003 sec, coll_comm_time = 0.129845 sec, T_cmp_b = 0.103907 sec, T_cmp_a = 0.103906 sec, T_comm_b = 0.061444 sec, T_comm_a = 0.068412 sec.
rank 75 Tb = 0.165370 sec, Ta = 0.172336 sec, comp_time = 0.207847 sec, comm_time = 0.129839 sec, neigh_comm_time = 0.000003 sec, ptp_comm_time = 0.000003 sec, coll_comm_time = 0.129828 sec, T_cmp_b = 0.103924 sec, T_cmp_a = 0.103923 sec, T_comm_b = 0.061436 sec, T_comm_a = 0.068403 sec.
rank 251 Tb = 0.165367 sec, Ta = 0.172323 sec, comp_time = 0.207778 sec, comm_time = 0.129891 sec, neigh_comm_time = 0.000003 sec, ptp_comm_time = 0.000003 sec, coll_comm_time = 0.129880 sec, T_cmp_b = 0.103889 sec, T_cmp_a = 0.103888 sec, T_comm_b = 0.061467 sec, T_comm_a = 0.068425 sec.
rank 207 Tb = 0.165369 sec, Ta = 0.172337 sec, comp_time = 0.207777 sec, comm_time = 0.129908 sec, neigh_comm_time = 0.000003 sec, ptp_comm_time = 0.000003 sec, coll_comm_time = 0.129896 sec, T_cmp_b = 0.103889 sec, T_cmp_a = 0.103888 sec, T_comm_b = 0.061469 sec, T_comm_a = 0.068438 sec.
rank 123 Tb = 0.165367 sec, Ta = 0.172327 sec, comp_time = 0.207813 sec, comm_time = 0.129861 sec, neigh_comm_time = 0.000003 sec, ptp_comm_time = 0.000003 sec, coll_comm_time = 0.129849 sec, T_cmp_b = 0.103907 sec, T_cmp_a = 0.103906 sec, T_comm_b = 0.061450 sec, T_comm_a = 0.068411 sec.
rank 2 Tb = 0.165364 sec, Ta = 0.172338 sec, comp_time = 0.207778 sec, comm_time = 0.129904 sec, neigh_comm_time = 0.000003 sec, ptp_comm_time = 0.000003 sec, coll_comm_time = 0.129892 sec, T_cmp_b = 0.103889 sec, T_cmp_a = 0.103889 sec, T_comm_b = 0.061465 sec, T_comm_a = 0.068439 sec.
rank 49 Tb = 0.165374 sec, Ta = 0.172332 sec, comp_time = 0.207812 sec, comm_time = 0.129873 sec, neigh_comm_time = 0.000003 sec, ptp_comm_time = 0.000003 sec, coll_comm_time = 0.129861 sec, T_cmp_b = 0.103906 sec, T_cmp_a = 0.103906 sec, T_comm_b = 0.061457 sec, T_comm_a = 0.068416 sec.
rank 178 Tb = 0.165368 sec, Ta = 0.172330 sec, comp_time = 0.207848 sec, comm_time = 0.129830 sec, neigh_comm_time = 0.000003 sec, ptp_comm_time = 0.000003 sec, coll_comm_time = 0.129819 sec, T_cmp_b = 0.103924 sec, T_cmp_a = 0.103924 sec, T_comm_b = 0.061434 sec, T_comm_a = 0.068396 sec.
rank 133 Tb = 0.165368 sec, Ta = 0.172345 sec, comp_time = 0.207812 sec, comm_time = 0.129880 sec, neigh_comm_time = 0.000003 sec, ptp_comm_time = 0.000003 sec, coll_comm_time = 0.129868 sec, T_cmp_b = 0.103907 sec, T_cmp_a = 0.103906 sec, T_comm_b = 0.061451 sec, T_comm_a = 0.068429 sec.
rank 70 Tb = 0.165363 sec, Ta = 0.172340 sec, comp_time = 0.207813 sec, comm_time = 0.129869 sec, neigh_comm_time = 0.000003 sec, ptp_comm_time = 0.000003 sec, coll_comm_time = 0.129858 sec, T_cmp_b = 0.103907 sec, T_cmp_a = 0.103906 sec, T_comm_b = 0.061445 sec, T_comm_a = 0.068424 sec.
rank 247 Tb = 0.165371 sec, Ta = 0.172326 sec, comp_time = 0.207777 sec, comm_time = 0.129899 sec, neigh_comm_time = 0.000003 sec, ptp_comm_time = 0.000003 sec, coll_comm_time = 0.129887 sec, T_cmp_b = 0.103889 sec, T_cmp_a = 0.103888 sec, T_comm_b = 0.061471 sec, T_comm_a = 0.068428 sec.
rank 119 Tb = 0.165371 sec, Ta = 0.172331 sec, comp_time = 0.207813 sec, comm_time = 0.129869 sec, neigh_comm_time = 0.000003 sec, ptp_comm_time = 0.000003 sec, coll_comm_time = 0.129857 sec, T_cmp_b = 0.103907 sec, T_cmp_a = 0.103906 sec, T_comm_b = 0.061454 sec, T_comm_a = 0.068415 sec.
rank 203 Tb = 0.165368 sec, Ta = 0.172332 sec, comp_time = 0.207812 sec, comm_time = 0.129867 sec, neigh_comm_time = 0.000003 sec, ptp_comm_time = 0.000003 sec, coll_comm_time = 0.129855 sec, T_cmp_b = 0.103907 sec, T_cmp_a = 0.103906 sec, T_comm_b = 0.061451 sec, T_comm_a = 0.068416 sec.
rank 7 Tb = 0.165366 sec, Ta = 0.172340 sec, comp_time = 0.207743 sec, comm_time = 0.129942 sec, neigh_comm_time = 0.000003 sec, ptp_comm_time = 0.000003 sec, coll_comm_time = 0.129931 sec, T_cmp_b = 0.103872 sec, T_cmp_a = 0.103871 sec, T_comm_b = 0.061484 sec, T_comm_a = 0.068458 sec.
rank 130 Tb = 0.165371 sec, Ta = 0.172340 sec, comp_time = 0.207813 sec, comm_time = 0.129877 sec, neigh_comm_time = 0.000003 sec, ptp_comm_time = 0.000003 sec, coll_comm_time = 0.129865 sec, T_cmp_b = 0.103907 sec, T_cmp_a = 0.103906 sec, T_comm_b = 0.061453 sec, T_comm_a = 0.068424 sec.
rank 189 Tb = 0.165369 sec, Ta = 0.172333 sec, comp_time = 0.207812 sec, comm_time = 0.129869 sec, neigh_comm_time = 0.000003 sec, ptp_comm_time = 0.000003 sec, coll_comm_time = 0.129857 sec, T_cmp_b = 0.103906 sec, T_cmp_a = 0.103906 sec, T_comm_b = 0.061452 sec, T_comm_a = 0.068417 sec.
rank 61 Tb = 0.165371 sec, Ta = 0.172327 sec, comp_time = 0.207777 sec, comm_time = 0.129899 sec, neigh_comm_time = 0.000003 sec, ptp_comm_time = 0.000003 sec, coll_comm_time = 0.129888 sec, T_cmp_b = 0.103889 sec, T_cmp_a = 0.103889 sec, T_comm_b = 0.061471 sec, T_comm_a = 0.068428 sec.
rank 67 Tb = 0.165370 sec, Ta = 0.172339 sec, comp_time = 0.207812 sec, comm_time = 0.129876 sec, neigh_comm_time = 0.000003 sec, ptp_comm_time = 0.000003 sec, coll_comm_time = 0.129864 sec, T_cmp_b = 0.103906 sec, T_cmp_a = 0.103906 sec, T_comm_b = 0.061453 sec, T_comm_a = 0.068423 sec.
rank 242 Tb = 0.165368 sec, Ta = 0.172323 sec, comp_time = 0.207813 sec, comm_time = 0.129857 sec, neigh_comm_time = 0.000003 sec, ptp_comm_time = 0.000003 sec, coll_comm_time = 0.129846 sec, T_cmp_b = 0.103907 sec, T_cmp_a = 0.103906 sec, T_comm_b = 0.061451 sec, T_comm_a = 0.068407 sec.
rank 204 Tb = 0.165369 sec, Ta = 0.172339 sec, comp_time = 0.207812 sec, comm_time = 0.129875 sec, neigh_comm_time = 0.000003 sec, ptp_comm_time = 0.000003 sec, coll_comm_time = 0.129863 sec, T_cmp_b = 0.103906 sec, T_cmp_a = 0.103906 sec, T_comm_b = 0.061452 sec, T_comm_a = 0.068423 sec.
rank 120 Tb = 0.165368 sec, Ta = 0.172334 sec, comp_time = 0.207778 sec, comm_time = 0.129904 sec, neigh_comm_time = 0.000003 sec, ptp_comm_time = 0.000003 sec, coll_comm_time = 0.129892 sec, T_cmp_b = 0.103889 sec, T_cmp_a = 0.103888 sec, T_comm_b = 0.061468 sec, T_comm_a = 0.068436 sec.
rank 15 Tb = 0.165369 sec, Ta = 0.172339 sec, comp_time = 0.207777 sec, comm_time = 0.129911 sec, neigh_comm_time = 0.000003 sec, ptp_comm_time = 0.000003 sec, coll_comm_time = 0.129899 sec, T_cmp_b = 0.103889 sec, T_cmp_a = 0.103888 sec, T_comm_b = 0.061470 sec, T_comm_a = 0.068441 sec.
rank 57 Tb = 0.165373 sec, Ta = 0.172328 sec, comp_time = 0.207777 sec, comm_time = 0.129902 sec, neigh_comm_time = 0.000003 sec, ptp_comm_time = 0.000003 sec, coll_comm_time = 0.129891 sec, T_cmp_b = 0.103889 sec, T_cmp_a = 0.103889 sec, T_comm_b = 0.061473 sec, T_comm_a = 0.068429 sec.
rank 179 Tb = 0.165368 sec, Ta = 0.172332 sec, comp_time = 0.207848 sec, comm_time = 0.129832 sec, neigh_comm_time = 0.000003 sec, ptp_comm_time = 0.000003 sec, coll_comm_time = 0.129821 sec, T_cmp_b = 0.103924 sec, T_cmp_a = 0.103923 sec, T_comm_b = 0.061434 sec, T_comm_a = 0.068399 sec.
rank 134 Tb = 0.165367 sec, Ta = 0.172341 sec, comp_time = 0.207813 sec, comm_time = 0.129874 sec, neigh_comm_time = 0.000003 sec, ptp_comm_time = 0.000003 sec, coll_comm_time = 0.129863 sec, T_cmp_b = 0.103907 sec, T_cmp_a = 0.103906 sec, T_comm_b = 0.061449 sec, T_comm_a = 0.068425 sec.
rank 68 Tb = 0.165370 sec, Ta = 0.172344 sec, comp_time = 0.207812 sec, comm_time = 0.129881 sec, neigh_comm_time = 0.000003 sec, ptp_comm_time = 0.000003 sec, coll_comm_time = 0.129870 sec, T_cmp_b = 0.103906 sec, T_cmp_a = 0.103906 sec, T_comm_b = 0.061453 sec, T_comm_a = 0.068428 sec.
rank 253 Tb = 0.165367 sec, Ta = 0.172327 sec, comp_time = 0.207777 sec, comm_time = 0.129897 sec, neigh_comm_time = 0.000003 sec, ptp_comm_time = 0.000003 sec, coll_comm_time = 0.129885 sec, T_cmp_b = 0.103889 sec, T_cmp_a = 0.103889 sec, T_comm_b = 0.061468 sec, T_comm_a = 0.068429 sec.
rank 126 Tb = 0.165369 sec, Ta = 0.172332 sec, comp_time = 0.207813 sec, comm_time = 0.129868 sec, neigh_comm_time = 0.000003 sec, ptp_comm_time = 0.000003 sec, coll_comm_time = 0.129856 sec, T_cmp_b = 0.103907 sec, T_cmp_a = 0.103906 sec, T_comm_b = 0.061452 sec, T_comm_a = 0.068416 sec.
rank 195 Tb = 0.165369 sec, Ta = 0.172335 sec, comp_time = 0.207777 sec, comm_time = 0.129906 sec, neigh_comm_time = 0.000003 sec, ptp_comm_time = 0.000003 sec, coll_comm_time = 0.129895 sec, T_cmp_b = 0.103889 sec, T_cmp_a = 0.103888 sec, T_comm_b = 0.061469 sec, T_comm_a = 0.068437 sec.
rank 11 Tb = 0.165368 sec, Ta = 0.172335 sec, comp_time = 0.207812 sec, comm_time = 0.129870 sec, neigh_comm_time = 0.000003 sec, ptp_comm_time = 0.000003 sec, coll_comm_time = 0.129859 sec, T_cmp_b = 0.103906 sec, T_cmp_a = 0.103906 sec, T_comm_b = 0.061451 sec, T_comm_a = 0.068419 sec.
rank 136 Tb = 0.165369 sec, Ta = 0.172345 sec, comp_time = 0.207812 sec, comm_time = 0.129881 sec, neigh_comm_time = 0.000003 sec, ptp_comm_time = 0.000003 sec, coll_comm_time = 0.129869 sec, T_cmp_b = 0.103906 sec, T_cmp_a = 0.103906 sec, T_comm_b = 0.061452 sec, T_comm_a = 0.068429 sec.
rank 191 Tb = 0.165369 sec, Ta = 0.172336 sec, comp_time = 0.207778 sec, comm_time = 0.129907 sec, neigh_comm_time = 0.000003 sec, ptp_comm_time = 0.000003 sec, coll_comm_time = 0.129896 sec, T_cmp_b = 0.103889 sec, T_cmp_a = 0.103888 sec, T_comm_b = 0.061470 sec, T_comm_a = 0.068437 sec.
rank 60 Tb = 0.165369 sec, Ta = 0.172328 sec, comp_time = 0.207778 sec, comm_time = 0.129899 sec, neigh_comm_time = 0.000003 sec, ptp_comm_time = 0.000003 sec, coll_comm_time = 0.129887 sec, T_cmp_b = 0.103889 sec, T_cmp_a = 0.103889 sec, T_comm_b = 0.061470 sec, T_comm_a = 0.068429 sec.
rank 66 Tb = 0.165369 sec, Ta = 0.172338 sec, comp_time = 0.207813 sec, comm_time = 0.129873 sec, neigh_comm_time = 0.000003 sec, ptp_comm_time = 0.000003 sec, coll_comm_time = 0.129862 sec, T_cmp_b = 0.103907 sec, T_cmp_a = 0.103906 sec, T_comm_b = 0.061452 sec, T_comm_a = 0.068422 sec.
rank 249 Tb = 0.165367 sec, Ta = 0.172328 sec, comp_time = 0.207777 sec, comm_time = 0.129897 sec, neigh_comm_time = 0.000003 sec, ptp_comm_time = 0.000003 sec, coll_comm_time = 0.129885 sec, T_cmp_b = 0.103889 sec, T_cmp_a = 0.103888 sec, T_comm_b = 0.061467 sec, T_comm_a = 0.068429 sec.
rank 205 Tb = 0.165370 sec, Ta = 0.172338 sec, comp_time = 0.207813 sec, comm_time = 0.129874 sec, neigh_comm_time = 0.000003 sec, ptp_comm_time = 0.000003 sec, coll_comm_time = 0.129863 sec, T_cmp_b = 0.103906 sec, T_cmp_a = 0.103906 sec, T_comm_b = 0.061453 sec, T_comm_a = 0.068422 sec.
rank 115 Tb = 0.165369 sec, Ta = 0.172330 sec, comp_time = 0.207847 sec, comm_time = 0.129831 sec, neigh_comm_time = 0.000003 sec, ptp_comm_time = 0.000003 sec, coll_comm_time = 0.129820 sec, T_cmp_b = 0.103924 sec, T_cmp_a = 0.103923 sec, T_comm_b = 0.061435 sec, T_comm_a = 0.068397 sec.
rank 13 Tb = 0.165370 sec, Ta = 0.172340 sec, comp_time = 0.207812 sec, comm_time = 0.129877 sec, neigh_comm_time = 0.000003 sec, ptp_comm_time = 0.000003 sec, coll_comm_time = 0.129866 sec, T_cmp_b = 0.103906 sec, T_cmp_a = 0.103906 sec, T_comm_b = 0.061453 sec, T_comm_a = 0.068424 sec.
rank 25 Tb = 0.165367 sec, Ta = 0.172331 sec, comp_time = 0.207812 sec, comm_time = 0.129865 sec, neigh_comm_time = 0.000004 sec, ptp_comm_time = 0.000003 sec, coll_comm_time = 0.129853 sec, T_cmp_b = 0.103906 sec, T_cmp_a = 0.103906 sec, T_comm_b = 0.061450 sec, T_comm_a = 0.068415 sec.
rank 185 Tb = 0.165371 sec, Ta = 0.172335 sec, comp_time = 0.207812 sec, comm_time = 0.129873 sec, neigh_comm_time = 0.000003 sec, ptp_comm_time = 0.000003 sec, coll_comm_time = 0.129862 sec, T_cmp_b = 0.103906 sec, T_cmp_a = 0.103906 sec, T_comm_b = 0.061454 sec, T_comm_a = 0.068419 sec.
rank 132 Tb = 0.165368 sec, Ta = 0.172346 sec, comp_time = 0.207812 sec, comm_time = 0.129881 sec, neigh_comm_time = 0.000003 sec, ptp_comm_time = 0.000003 sec, coll_comm_time = 0.129869 sec, T_cmp_b = 0.103906 sec, T_cmp_a = 0.103906 sec, T_comm_b = 0.061451 sec, T_comm_a = 0.068430 sec.
rank 69 Tb = 0.165369 sec, Ta = 0.172344 sec, comp_time = 0.207812 sec, comm_time = 0.129880 sec, neigh_comm_time = 0.000003 sec, ptp_comm_time = 0.000003 sec, coll_comm_time = 0.129868 sec, T_cmp_b = 0.103907 sec, T_cmp_a = 0.103906 sec, T_comm_b = 0.061452 sec, T_comm_a = 0.068428 sec.
rank 252 Tb = 0.165367 sec, Ta = 0.172328 sec, comp_time = 0.207778 sec, comm_time = 0.129896 sec, neigh_comm_time = 0.000003 sec, ptp_comm_time = 0.000003 sec, coll_comm_time = 0.129885 sec, T_cmp_b = 0.103890 sec, T_cmp_a = 0.103889 sec, T_comm_b = 0.061467 sec, T_comm_a = 0.068429 sec.
rank 127 Tb = 0.165366 sec, Ta = 0.172336 sec, comp_time = 0.207778 sec, comm_time = 0.129904 sec, neigh_comm_time = 0.000003 sec, ptp_comm_time = 0.000003 sec, coll_comm_time = 0.129892 sec, T_cmp_b = 0.103889 sec, T_cmp_a = 0.103889 sec, T_comm_b = 0.061466 sec, T_comm_a = 0.068437 sec.
rank 194 Tb = 0.165368 sec, Ta = 0.172334 sec, comp_time = 0.207778 sec, comm_time = 0.129902 sec, neigh_comm_time = 0.000003 sec, ptp_comm_time = 0.000003 sec, coll_comm_time = 0.129891 sec, T_cmp_b = 0.103890 sec, T_cmp_a = 0.103889 sec, T_comm_b = 0.061468 sec, T_comm_a = 0.068434 sec.
rank 9 Tb = 0.165373 sec, Ta = 0.172341 sec, comp_time = 0.207812 sec, comm_time = 0.129882 sec, neigh_comm_time = 0.000004 sec, ptp_comm_time = 0.000003 sec, coll_comm_time = 0.129870 sec, T_cmp_b = 0.103906 sec, T_cmp_a = 0.103906 sec, T_comm_b = 0.061457 sec, T_comm_a = 0.068425 sec.
rank 131 Tb = 0.165366 sec, Ta = 0.172342 sec, comp_time = 0.207812 sec, comm_time = 0.129875 sec, neigh_comm_time = 0.000003 sec, ptp_comm_time = 0.000003 sec, coll_comm_time = 0.129863 sec, T_cmp_b = 0.103906 sec, T_cmp_a = 0.103906 sec, T_comm_b = 0.061449 sec, T_comm_a = 0.068426 sec.
rank 183 Tb = 0.165370 sec, Ta = 0.172333 sec, comp_time = 0.207812 sec, comm_time = 0.129869 sec, neigh_comm_time = 0.000003 sec, ptp_comm_time = 0.000003 sec, coll_comm_time = 0.129858 sec, T_cmp_b = 0.103906 sec, T_cmp_a = 0.103906 sec, T_comm_b = 0.061453 sec, T_comm_a = 0.068417 sec.
rank 28 Tb = 0.165364 sec, Ta = 0.172330 sec, comp_time = 0.207812 sec, comm_time = 0.129860 sec, neigh_comm_time = 0.000003 sec, ptp_comm_time = 0.000003 sec, coll_comm_time = 0.129849 sec, T_cmp_b = 0.103907 sec, T_cmp_a = 0.103906 sec, T_comm_b = 0.061447 sec, T_comm_a = 0.068414 sec.
rank 73 Tb = 0.165369 sec, Ta = 0.172343 sec, comp_time = 0.207847 sec, comm_time = 0.129844 sec, neigh_comm_time = 0.000003 sec, ptp_comm_time = 0.000003 sec, coll_comm_time = 0.129833 sec, T_cmp_b = 0.103924 sec, T_cmp_a = 0.103923 sec, T_comm_b = 0.061435 sec, T_comm_a = 0.068409 sec.
rank 248 Tb = 0.165367 sec, Ta = 0.172330 sec, comp_time = 0.207742 sec, comm_time = 0.129934 sec, neigh_comm_time = 0.000003 sec, ptp_comm_time = 0.000003 sec, coll_comm_time = 0.129923 sec, T_cmp_b = 0.103871 sec, T_cmp_a = 0.103871 sec, T_comm_b = 0.061485 sec, T_comm_a = 0.068449 sec.
rank 206 Tb = 0.165370 sec, Ta = 0.172335 sec, comp_time = 0.207813 sec, comm_time = 0.129873 sec, neigh_comm_time = 0.000003 sec, ptp_comm_time = 0.000003 sec, coll_comm_time = 0.129861 sec, T_cmp_b = 0.103907 sec, T_cmp_a = 0.103906 sec, T_comm_b = 0.061453 sec, T_comm_a = 0.068419 sec.
rank 121 Tb = 0.165369 sec, Ta = 0.172333 sec, comp_time = 0.207812 sec, comm_time = 0.129868 sec, neigh_comm_time = 0.000003 sec, ptp_comm_time = 0.000003 sec, coll_comm_time = 0.129857 sec, T_cmp_b = 0.103906 sec, T_cmp_a = 0.103906 sec, T_comm_b = 0.061452 sec, T_comm_a = 0.068417 sec.
rank 14 Tb = 0.165367 sec, Ta = 0.172339 sec, comp_time = 0.207813 sec, comm_time = 0.129872 sec, neigh_comm_time = 0.000003 sec, ptp_comm_time = 0.000003 sec, coll_comm_time = 0.129861 sec, T_cmp_b = 0.103906 sec, T_cmp_a = 0.103906 sec, T_comm_b = 0.061450 sec, T_comm_a = 0.068422 sec.
rank 56 Tb = 0.165372 sec, Ta = 0.172329 sec, comp_time = 0.207743 sec, comm_time = 0.129937 sec, neigh_comm_time = 0.000003 sec, ptp_comm_time = 0.000003 sec, coll_comm_time = 0.129926 sec, T_cmp_b = 0.103872 sec, T_cmp_a = 0.103871 sec, T_comm_b = 0.061489 sec, T_comm_a = 0.068448 sec.
rank 184 Tb = 0.165371 sec, Ta = 0.172336 sec, comp_time = 0.207778 sec, comm_time = 0.129908 sec, neigh_comm_time = 0.000003 sec, ptp_comm_time = 0.000003 sec, coll_comm_time = 0.129896 sec, T_cmp_b = 0.103889 sec, T_cmp_a = 0.103889 sec, T_comm_b = 0.061471 sec, T_comm_a = 0.068437 sec.
rank 142 Tb = 0.165371 sec, Ta = 0.172341 sec, comp_time = 0.207849 sec, comm_time = 0.129843 sec, neigh_comm_time = 0.000003 sec, ptp_comm_time = 0.000003 sec, coll_comm_time = 0.129831 sec, T_cmp_b = 0.103925 sec, T_cmp_a = 0.103924 sec, T_comm_b = 0.061436 sec, T_comm_a = 0.068407 sec.
rank 79 Tb = 0.165372 sec, Ta = 0.172341 sec, comp_time = 0.207812 sec, comm_time = 0.129880 sec, neigh_comm_time = 0.000003 sec, ptp_comm_time = 0.000003 sec, coll_comm_time = 0.129869 sec, T_cmp_b = 0.103906 sec, T_cmp_a = 0.103906 sec, T_comm_b = 0.061455 sec, T_comm_a = 0.068425 sec.
rank 255 Tb = 0.165362 sec, Ta = 0.172333 sec, comp_time = 0.207743 sec, comm_time = 0.129933 sec, neigh_comm_time = 0.000003 sec, ptp_comm_time = 0.000003 sec, coll_comm_time = 0.129921 sec, T_cmp_b = 0.103871 sec, T_cmp_a = 0.103871 sec, T_comm_b = 0.061481 sec, T_comm_a = 0.068452 sec.
rank 117 Tb = 0.165370 sec, Ta = 0.172335 sec, comp_time = 0.207847 sec, comm_time = 0.129837 sec, neigh_comm_time = 0.000003 sec, ptp_comm_time = 0.000003 sec, coll_comm_time = 0.129825 sec, T_cmp_b = 0.103924 sec, T_cmp_a = 0.103923 sec, T_comm_b = 0.061435 sec, T_comm_a = 0.068401 sec.
rank 201 Tb = 0.165369 sec, Ta = 0.172339 sec, comp_time = 0.207812 sec, comm_time = 0.129875 sec, neigh_comm_time = 0.000003 sec, ptp_comm_time = 0.000003 sec, coll_comm_time = 0.129864 sec, T_cmp_b = 0.103906 sec, T_cmp_a = 0.103906 sec, T_comm_b = 0.061452 sec, T_comm_a = 0.068423 sec.
rank 0 Tb = 0.165371 sec, Ta = 0.172344 sec, comp_time = 0.207744 sec, comm_time = 0.129950 sec, neigh_comm_time = 0.000004 sec, ptp_comm_time = 0.000003 sec, coll_comm_time = 0.129939 sec, T_cmp_b = 0.103872 sec, T_cmp_a = 0.103872 sec, T_comm_b = 0.061488 sec, T_comm_a = 0.068462 sec.
rank 129 Tb = 0.165370 sec, Ta = 0.172348 sec, comp_time = 0.207812 sec, comm_time = 0.129884 sec, neigh_comm_time = 0.000003 sec, ptp_comm_time = 0.000003 sec, coll_comm_time = 0.129873 sec, T_cmp_b = 0.103906 sec, T_cmp_a = 0.103906 sec, T_comm_b = 0.061453 sec, T_comm_a = 0.068431 sec.
rank 188 Tb = 0.165367 sec, Ta = 0.172334 sec, comp_time = 0.207813 sec, comm_time = 0.129868 sec, neigh_comm_time = 0.000003 sec, ptp_comm_time = 0.000003 sec, coll_comm_time = 0.129856 sec, T_cmp_b = 0.103907 sec, T_cmp_a = 0.103906 sec, T_comm_b = 0.061450 sec, T_comm_a = 0.068418 sec.
rank 52 Tb = 0.165372 sec, Ta = 0.172330 sec, comp_time = 0.207813 sec, comm_time = 0.129868 sec, neigh_comm_time = 0.000003 sec, ptp_comm_time = 0.000003 sec, coll_comm_time = 0.129857 sec, T_cmp_b = 0.103907 sec, T_cmp_a = 0.103906 sec, T_comm_b = 0.061454 sec, T_comm_a = 0.068414 sec.
rank 65 Tb = 0.165371 sec, Ta = 0.172345 sec, comp_time = 0.207813 sec, comm_time = 0.129883 sec, neigh_comm_time = 0.000003 sec, ptp_comm_time = 0.000003 sec, coll_comm_time = 0.129871 sec, T_cmp_b = 0.103907 sec, T_cmp_a = 0.103906 sec, T_comm_b = 0.061454 sec, T_comm_a = 0.068429 sec.
rank 241 Tb = 0.165368 sec, Ta = 0.172332 sec, comp_time = 0.207813 sec, comm_time = 0.129867 sec, neigh_comm_time = 0.000003 sec, ptp_comm_time = 0.000003 sec, coll_comm_time = 0.129856 sec, T_cmp_b = 0.103907 sec, T_cmp_a = 0.103906 sec, T_comm_b = 0.061451 sec, T_comm_a = 0.068416 sec.
rank 196 Tb = 0.165371 sec, Ta = 0.172341 sec, comp_time = 0.207778 sec, comm_time = 0.129914 sec, neigh_comm_time = 0.000003 sec, ptp_comm_time = 0.000003 sec, coll_comm_time = 0.129902 sec, T_cmp_b = 0.103889 sec, T_cmp_a = 0.103888 sec, T_comm_b = 0.061471 sec, T_comm_a = 0.068442 sec.
rank 113 Tb = 0.165370 sec, Ta = 0.172337 sec, comp_time = 0.207847 sec, comm_time = 0.129839 sec, neigh_comm_time = 0.000003 sec, ptp_comm_time = 0.000003 sec, coll_comm_time = 0.129827 sec, T_cmp_b = 0.103924 sec, T_cmp_a = 0.103923 sec, T_comm_b = 0.061436 sec, T_comm_a = 0.068403 sec.
rank 12 Tb = 0.165369 sec, Ta = 0.172342 sec, comp_time = 0.207812 sec, comm_time = 0.129878 sec, neigh_comm_time = 0.000003 sec, ptp_comm_time = 0.000003 sec, coll_comm_time = 0.129866 sec, T_cmp_b = 0.103906 sec, T_cmp_a = 0.103906 sec, T_comm_b = 0.061452 sec, T_comm_a = 0.068425 sec.
rank 24 Tb = 0.165365 sec, Ta = 0.172332 sec, comp_time = 0.207777 sec, comm_time = 0.129899 sec, neigh_comm_time = 0.000003 sec, ptp_comm_time = 0.000003 sec, coll_comm_time = 0.129887 sec, T_cmp_b = 0.103889 sec, T_cmp_a = 0.103888 sec, T_comm_b = 0.061465 sec, T_comm_a = 0.068434 sec.
rank 181 Tb = 0.165371 sec, Ta = 0.172336 sec, comp_time = 0.207848 sec, comm_time = 0.129839 sec, neigh_comm_time = 0.000003 sec, ptp_comm_time = 0.000003 sec, coll_comm_time = 0.129827 sec, T_cmp_b = 0.103924 sec, T_cmp_a = 0.103924 sec, T_comm_b = 0.061436 sec, T_comm_a = 0.068402 sec.
rank 141 Tb = 0.165371 sec, Ta = 0.172344 sec, comp_time = 0.207847 sec, comm_time = 0.129847 sec, neigh_comm_time = 0.000003 sec, ptp_comm_time = 0.000003 sec, coll_comm_time = 0.129835 sec, T_cmp_b = 0.103924 sec, T_cmp_a = 0.103924 sec, T_comm_b = 0.061437 sec, T_comm_a = 0.068410 sec.
rank 76 Tb = 0.165370 sec, Ta = 0.172343 sec, comp_time = 0.207848 sec, comm_time = 0.129843 sec, neigh_comm_time = 0.000003 sec, ptp_comm_time = 0.000003 sec, coll_comm_time = 0.129832 sec, T_cmp_b = 0.103924 sec, T_cmp_a = 0.103924 sec, T_comm_b = 0.061435 sec, T_comm_a = 0.068409 sec.
rank 244 Tb = 0.165368 sec, Ta = 0.172331 sec, comp_time = 0.207813 sec, comm_time = 0.129866 sec, neigh_comm_time = 0.000003 sec, ptp_comm_time = 0.000003 sec, coll_comm_time = 0.129854 sec, T_cmp_b = 0.103907 sec, T_cmp_a = 0.103906 sec, T_comm_b = 0.061451 sec, T_comm_a = 0.068415 sec.
rank 125 Tb = 0.165370 sec, Ta = 0.172332 sec, comp_time = 0.207813 sec, comm_time = 0.129868 sec, neigh_comm_time = 0.000003 sec, ptp_comm_time = 0.000003 sec, coll_comm_time = 0.129857 sec, T_cmp_b = 0.103907 sec, T_cmp_a = 0.103906 sec, T_comm_b = 0.061452 sec, T_comm_a = 0.068416 sec.
rank 200 Tb = 0.165365 sec, Ta = 0.172340 sec, comp_time = 0.207777 sec, comm_time = 0.129906 sec, neigh_comm_time = 0.000003 sec, ptp_comm_time = 0.000003 sec, coll_comm_time = 0.129895 sec, T_cmp_b = 0.103889 sec, T_cmp_a = 0.103888 sec, T_comm_b = 0.061465 sec, T_comm_a = 0.068441 sec.
rank 1 Tb = 0.165371 sec, Ta = 0.172345 sec, comp_time = 0.207777 sec, comm_time = 0.129918 sec, neigh_comm_time = 0.000003 sec, ptp_comm_time = 0.000003 sec, coll_comm_time = 0.129906 sec, T_cmp_b = 0.103889 sec, T_cmp_a = 0.103888 sec, T_comm_b = 0.061472 sec, T_comm_a = 0.068446 sec.
rank 128 Tb = 0.165367 sec, Ta = 0.172347 sec, comp_time = 0.207778 sec, comm_time = 0.129916 sec, neigh_comm_time = 0.000003 sec, ptp_comm_time = 0.000003 sec, coll_comm_time = 0.129904 sec, T_cmp_b = 0.103889 sec, T_cmp_a = 0.103889 sec, T_comm_b = 0.061467 sec, T_comm_a = 0.068449 sec.
rank 176 Tb = 0.165369 sec, Ta = 0.172339 sec, comp_time = 0.207813 sec, comm_time = 0.129874 sec, neigh_comm_time = 0.000003 sec, ptp_comm_time = 0.000003 sec, coll_comm_time = 0.129863 sec, T_cmp_b = 0.103907 sec, T_cmp_a = 0.103906 sec, T_comm_b = 0.061452 sec, T_comm_a = 0.068422 sec.
rank 23 Tb = 0.165368 sec, Ta = 0.172328 sec, comp_time = 0.207778 sec, comm_time = 0.129897 sec, neigh_comm_time = 0.000003 sec, ptp_comm_time = 0.000003 sec, coll_comm_time = 0.129886 sec, T_cmp_b = 0.103889 sec, T_cmp_a = 0.103888 sec, T_comm_b = 0.061468 sec, T_comm_a = 0.068430 sec.
rank 72 Tb = 0.165368 sec, Ta = 0.172343 sec, comp_time = 0.207813 sec, comm_time = 0.129878 sec, neigh_comm_time = 0.000003 sec, ptp_comm_time = 0.000003 sec, coll_comm_time = 0.129866 sec, T_cmp_b = 0.103906 sec, T_cmp_a = 0.103906 sec, T_comm_b = 0.061451 sec, T_comm_a = 0.068427 sec.
rank 240 Tb = 0.165366 sec, Ta = 0.172333 sec, comp_time = 0.207778 sec, comm_time = 0.129901 sec, neigh_comm_time = 0.000003 sec, ptp_comm_time = 0.000003 sec, coll_comm_time = 0.129890 sec, T_cmp_b = 0.103889 sec, T_cmp_a = 0.103889 sec, T_comm_b = 0.061466 sec, T_comm_a = 0.068435 sec.
rank 197 Tb = 0.165369 sec, Ta = 0.172340 sec, comp_time = 0.207777 sec, comm_time = 0.129911 sec, neigh_comm_time = 0.000003 sec, ptp_comm_time = 0.000003 sec, coll_comm_time = 0.129900 sec, T_cmp_b = 0.103889 sec, T_cmp_a = 0.103889 sec, T_comm_b = 0.061470 sec, T_comm_a = 0.068442 sec.
rank 112 Tb = 0.165370 sec, Ta = 0.172338 sec, comp_time = 0.207813 sec, comm_time = 0.129874 sec, neigh_comm_time = 0.000003 sec, ptp_comm_time = 0.000003 sec, coll_comm_time = 0.129862 sec, T_cmp_b = 0.103907 sec, T_cmp_a = 0.103906 sec, T_comm_b = 0.061452 sec, T_comm_a = 0.068421 sec.
rank 140 Tb = 0.165369 sec, Ta = 0.172345 sec, comp_time = 0.207847 sec, comm_time = 0.129845 sec, neigh_comm_time = 0.000003 sec, ptp_comm_time = 0.000003 sec, coll_comm_time = 0.129834 sec, T_cmp_b = 0.103924 sec, T_cmp_a = 0.103923 sec, T_comm_b = 0.061434 sec, T_comm_a = 0.068411 sec.
rank 48 Tb = 0.165372 sec, Ta = 0.172333 sec, comp_time = 0.207777 sec, comm_time = 0.129906 sec, neigh_comm_time = 0.000003 sec, ptp_comm_time = 0.000003 sec, coll_comm_time = 0.129894 sec, T_cmp_b = 0.103889 sec, T_cmp_a = 0.103889 sec, T_comm_b = 0.061472 sec, T_comm_a = 0.068434 sec.
rank 180 Tb = 0.165369 sec, Ta = 0.172337 sec, comp_time = 0.207847 sec, comm_time = 0.129838 sec, neigh_comm_time = 0.000003 sec, ptp_comm_time = 0.000003 sec, coll_comm_time = 0.129826 sec, T_cmp_b = 0.103924 sec, T_cmp_a = 0.103923 sec, T_comm_b = 0.061434 sec, T_comm_a = 0.068403 sec.
rank 143 Tb = 0.165370 sec, Ta = 0.172343 sec, comp_time = 0.207812 sec, comm_time = 0.129879 sec, neigh_comm_time = 0.000003 sec, ptp_comm_time = 0.000003 sec, coll_comm_time = 0.129868 sec, T_cmp_b = 0.103906 sec, T_cmp_a = 0.103906 sec, T_comm_b = 0.061453 sec, T_comm_a = 0.068426 sec.
rank 77 Tb = 0.165373 sec, Ta = 0.172342 sec, comp_time = 0.207847 sec, comm_time = 0.129847 sec, neigh_comm_time = 0.000003 sec, ptp_comm_time = 0.000003 sec, coll_comm_time = 0.129835 sec, T_cmp_b = 0.103924 sec, T_cmp_a = 0.103923 sec, T_comm_b = 0.061439 sec, T_comm_a = 0.068408 sec.
rank 124 Tb = 0.165368 sec, Ta = 0.172332 sec, comp_time = 0.207812 sec, comm_time = 0.129866 sec, neigh_comm_time = 0.000003 sec, ptp_comm_time = 0.000003 sec, coll_comm_time = 0.129855 sec, T_cmp_b = 0.103906 sec, T_cmp_a = 0.103906 sec, T_comm_b = 0.061450 sec, T_comm_a = 0.068416 sec.
rank 116 Tb = 0.165370 sec, Ta = 0.172336 sec, comp_time = 0.207848 sec, comm_time = 0.129836 sec, neigh_comm_time = 0.000003 sec, ptp_comm_time = 0.000003 sec, coll_comm_time = 0.129825 sec, T_cmp_b = 0.103924 sec, T_cmp_a = 0.103924 sec, T_comm_b = 0.061435 sec, T_comm_a = 0.068402 sec.
rank 193 Tb = 0.165371 sec, Ta = 0.172343 sec, comp_time = 0.207777 sec, comm_time = 0.129916 sec, neigh_comm_time = 0.000003 sec, ptp_comm_time = 0.000003 sec, coll_comm_time = 0.129904 sec, T_cmp_b = 0.103889 sec, T_cmp_a = 0.103888 sec, T_comm_b = 0.061472 sec, T_comm_a = 0.068444 sec.
rank 8 Tb = 0.165368 sec, Ta = 0.172342 sec, comp_time = 0.207777 sec, comm_time = 0.129911 sec, neigh_comm_time = 0.000003 sec, ptp_comm_time = 0.000003 sec, coll_comm_time = 0.129900 sec, T_cmp_b = 0.103889 sec, T_cmp_a = 0.103888 sec, T_comm_b = 0.061468 sec, T_comm_a = 0.068443 sec.
rank 146 Tb = 0.165370 sec, Ta = 0.172329 sec, comp_time = 0.207847 sec, comm_time = 0.129831 sec, neigh_comm_time = 0.000003 sec, ptp_comm_time = 0.000003 sec, coll_comm_time = 0.129820 sec, T_cmp_b = 0.103924 sec, T_cmp_a = 0.103923 sec, T_comm_b = 0.061436 sec, T_comm_a = 0.068396 sec.
rank 177 Tb = 0.165372 sec, Ta = 0.172338 sec, comp_time = 0.207847 sec, comm_time = 0.129842 sec, neigh_comm_time = 0.000003 sec, ptp_comm_time = 0.000003 sec, coll_comm_time = 0.129830 sec, T_cmp_b = 0.103924 sec, T_cmp_a = 0.103923 sec, T_comm_b = 0.061437 sec, T_comm_a = 0.068405 sec.
rank 148 Tb = 0.165372 sec, Ta = 0.172335 sec, comp_time = 0.207848 sec, comm_time = 0.129838 sec, neigh_comm_time = 0.000003 sec, ptp_comm_time = 0.000003 sec, coll_comm_time = 0.129827 sec, T_cmp_b = 0.103924 sec, T_cmp_a = 0.103924 sec, T_comm_b = 0.061437 sec, T_comm_a = 0.068401 sec.
rank 64 Tb = 0.165369 sec, Ta = 0.172346 sec, comp_time = 0.207777 sec, comm_time = 0.129918 sec, neigh_comm_time = 0.000003 sec, ptp_comm_time = 0.000003 sec, coll_comm_time = 0.129906 sec, T_cmp_b = 0.103889 sec, T_cmp_a = 0.103888 sec, T_comm_b = 0.061470 sec, T_comm_a = 0.068448 sec.
rank 122 Tb = 0.165370 sec, Ta = 0.172327 sec, comp_time = 0.207813 sec, comm_time = 0.129864 sec, neigh_comm_time = 0.000003 sec, ptp_comm_time = 0.000003 sec, coll_comm_time = 0.129852 sec, T_cmp_b = 0.103907 sec, T_cmp_a = 0.103906 sec, T_comm_b = 0.061453 sec, T_comm_a = 0.068411 sec.
rank 198 Tb = 0.165369 sec, Ta = 0.172335 sec, comp_time = 0.207777 sec, comm_time = 0.129906 sec, neigh_comm_time = 0.000003 sec, ptp_comm_time = 0.000003 sec, coll_comm_time = 0.129895 sec, T_cmp_b = 0.103889 sec, T_cmp_a = 0.103888 sec, T_comm_b = 0.061469 sec, T_comm_a = 0.068437 sec.
rank 192 Tb = 0.165370 sec, Ta = 0.172344 sec, comp_time = 0.207743 sec, comm_time = 0.129951 sec, neigh_comm_time = 0.000003 sec, ptp_comm_time = 0.000003 sec, coll_comm_time = 0.129939 sec, T_cmp_b = 0.103872 sec, T_cmp_a = 0.103871 sec, T_comm_b = 0.061488 sec, T_comm_a = 0.068463 sec.
rank 138 Tb = 0.165374 sec, Ta = 0.172336 sec, comp_time = 0.207848 sec, comm_time = 0.129840 sec, neigh_comm_time = 0.000003 sec, ptp_comm_time = 0.000003 sec, coll_comm_time = 0.129829 sec, T_cmp_b = 0.103925 sec, T_cmp_a = 0.103924 sec, T_comm_b = 0.061438 sec, T_comm_a = 0.068402 sec.
