rank 0 Tb = 0.169743 sec, Ta = 0.000001 sec, comp_time = 0.103871 sec, comm_time = 0.065862 sec, neigh_comm_time = 0.000002 sec, ptp_comm_time = 0.000002 sec, coll_comm_time = 0.065856 sec, T_cmp_b = 0.103871 sec, T_cmp_a = 0.000000 sec, T_comm_b = 0.065862 sec, T_comm_a = 0.000000 sec.
rank 140 Tb = 0.169752 sec, Ta = 0.172095 sec, comp_time = 0.207847 sec, comm_time = 0.133979 sec, neigh_comm_time = 0.000003 sec, ptp_comm_time = 0.000003 sec, coll_comm_time = 0.133967 sec, T_cmp_b = 0.103924 sec, T_cmp_a = 0.103923 sec, T_comm_b = 0.065817 sec, T_comm_a = 0.068161 sec.
rank 256 Tb = 0.000001 sec, Ta = 0.172102 sec, comp_time = 0.103872 sec, comm_time = 0.068220 sec, neigh_comm_time = 0.000002 sec, ptp_comm_time = 0.000002 sec, coll_comm_time = 0.068215 sec, T_cmp_b = 0.000000 sec, T_cmp_a = 0.103872 sec, T_comm_b = 0.000000 sec, T_comm_a = 0.068220 sec.
rank 157 Tb = 0.169753 sec, Ta = 0.172087 sec, comp_time = 0.207847 sec, comm_time = 0.133973 sec, neigh_comm_time = 0.000003 sec, ptp_comm_time = 0.000003 sec, coll_comm_time = 0.133962 sec, T_cmp_b = 0.103923 sec, T_cmp_a = 0.103924 sec, T_comm_b = 0.065820 sec, T_comm_a = 0.068153 sec.
rank 93 Tb = 0.169752 sec, Ta = 0.172089 sec, comp_time = 0.207847 sec, comm_time = 0.133974 sec, neigh_comm_time = 0.000003 sec, ptp_comm_time = 0.000003 sec, coll_comm_time = 0.133963 sec, T_cmp_b = 0.103924 sec, T_cmp_a = 0.103923 sec, T_comm_b = 0.065819 sec, T_comm_a = 0.068155 sec.
rank 89 Tb = 0.169748 sec, Ta = 0.172091 sec, comp_time = 0.207847 sec, comm_time = 0.133971 sec, neigh_comm_time = 0.000003 sec, ptp_comm_time = 0.000003 sec, coll_comm_time = 0.133960 sec, T_cmp_b = 0.103923 sec, T_cmp_a = 0.103923 sec, T_comm_b = 0.065814 sec, T_comm_a = 0.068157 sec.
rank 249 Tb = 0.169750 sec, Ta = 0.172089 sec, comp_time = 0.207777 sec, comm_time = 0.134041 sec, neigh_comm_time = 0.000003 sec, ptp_comm_time = 0.000003 sec, coll_comm_time = 0.134030 sec, T_cmp_b = 0.103888 sec, T_cmp_a = 0.103889 sec, T_comm_b = 0.065852 sec, T_comm_a = 0.068189 sec.
rank 61 Tb = 0.169751 sec, Ta = 0.172088 sec, comp_time = 0.207777 sec, comm_time = 0.134041 sec, neigh_comm_time = 0.000003 sec, ptp_comm_time = 0.000003 sec, coll_comm_time = 0.134030 sec, T_cmp_b = 0.103888 sec, T_cmp_a = 0.103888 sec, T_comm_b = 0.065852 sec, T_comm_a = 0.068189 sec.
rank 97 Tb = 0.169746 sec, Ta = 0.172101 sec, comp_time = 0.207847 sec, comm_time = 0.133980 sec, neigh_comm_time = 0.000003 sec, ptp_comm_time = 0.000003 sec, coll_comm_time = 0.133968 sec, T_cmp_b = 0.103923 sec, T_cmp_a = 0.103923 sec, T_comm_b = 0.065813 sec, T_comm_a = 0.068167 sec.
rank 25 Tb = 0.169748 sec, Ta = 0.172090 sec, comp_time = 0.207811 sec, comm_time = 0.134006 sec, neigh_comm_time = 0.000003 sec, ptp_comm_time = 0.000003 sec, coll_comm_time = 0.133995 sec, T_cmp_b = 0.103906 sec, T_cmp_a = 0.103906 sec, T_comm_b = 0.065832 sec, T_comm_a = 0.068174 sec.
rank 9 Tb = 0.169749 sec, Ta = 0.172096 sec, comp_time = 0.207812 sec, comm_time = 0.134012 sec, neigh_comm_time = 0.000003 sec, ptp_comm_time = 0.000003 sec, coll_comm_time = 0.134001 sec, T_cmp_b = 0.103906 sec, T_cmp_a = 0.103906 sec, T_comm_b = 0.065833 sec, T_comm_a = 0.068180 sec.
rank 185 Tb = 0.169747 sec, Ta = 0.172088 sec, comp_time = 0.207812 sec, comm_time = 0.134003 sec, neigh_comm_time = 0.000003 sec, ptp_comm_time = 0.000003 sec, coll_comm_time = 0.133991 sec, T_cmp_b = 0.103906 sec, T_cmp_a = 0.103906 sec, T_comm_b = 0.065831 sec, T_comm_a = 0.068172 sec.
rank 229 Tb = 0.169749 sec, Ta = 0.172102 sec, comp_time = 0.207812 sec, comm_time = 0.134019 sec, neigh_comm_time = 0.000003 sec, ptp_comm_time = 0.000003 sec, coll_comm_time = 0.134008 sec, T_cmp_b = 0.103906 sec, T_cmp_a = 0.103906 sec, T_comm_b = 0.065833 sec, T_comm_a = 0.068186 sec.
rank 225 Tb = 0.169745 sec, Ta = 0.172099 sec, comp_time = 0.207812 sec, comm_time = 0.134012 sec, neigh_comm_time = 0.000003 sec, ptp_comm_time = 0.000003 sec, coll_comm_time = 0.134001 sec, T_cmp_b = 0.103906 sec, T_cmp_a = 0.103906 sec, T_comm_b = 0.065829 sec, T_comm_a = 0.068183 sec.
rank 253 Tb = 0.169750 sec, Ta = 0.172087 sec, comp_time = 0.207777 sec, comm_time = 0.134039 sec, neigh_comm_time = 0.000003 sec, ptp_comm_time = 0.000003 sec, coll_comm_time = 0.134027 sec, T_cmp_b = 0.103889 sec, T_cmp_a = 0.103889 sec, T_comm_b = 0.065851 sec, T_comm_a = 0.068188 sec.
rank 173 Tb = 0.169751 sec, Ta = 0.172093 sec, comp_time = 0.207847 sec, comm_time = 0.133977 sec, neigh_comm_time = 0.000003 sec, ptp_comm_time = 0.000003 sec, coll_comm_time = 0.133965 sec, T_cmp_b = 0.103924 sec, T_cmp_a = 0.103923 sec, T_comm_b = 0.065817 sec, T_comm_a = 0.068160 sec.
rank 237 Tb = 0.169750 sec, Ta = 0.172100 sec, comp_time = 0.207812 sec, comm_time = 0.134017 sec, neigh_comm_time = 0.000003 sec, ptp_comm_time = 0.000003 sec, coll_comm_time = 0.134006 sec, T_cmp_b = 0.103906 sec, T_cmp_a = 0.103906 sec, T_comm_b = 0.065833 sec, T_comm_a = 0.068184 sec.
rank 169 Tb = 0.169748 sec, Ta = 0.172094 sec, comp_time = 0.207846 sec, comm_time = 0.133975 sec, neigh_comm_time = 0.000003 sec, ptp_comm_time = 0.000003 sec, coll_comm_time = 0.133964 sec, T_cmp_b = 0.103923 sec, T_cmp_a = 0.103923 sec, T_comm_b = 0.065815 sec, T_comm_a = 0.068160 sec.
rank 8 Tb = 0.169745 sec, Ta = 0.172097 sec, comp_time = 0.207777 sec, comm_time = 0.134044 sec, neigh_comm_time = 0.000003 sec, ptp_comm_time = 0.000003 sec, coll_comm_time = 0.134033 sec, T_cmp_b = 0.103888 sec, T_cmp_a = 0.103888 sec, T_comm_b = 0.065846 sec, T_comm_a = 0.068198 sec.
rank 153 Tb = 0.169747 sec, Ta = 0.172089 sec, comp_time = 0.207847 sec, comm_time = 0.133969 sec, neigh_comm_time = 0.000003 sec, ptp_comm_time = 0.000003 sec, coll_comm_time = 0.133958 sec, T_cmp_b = 0.103923 sec, T_cmp_a = 0.103923 sec, T_comm_b = 0.065814 sec, T_comm_a = 0.068155 sec.
rank 238 Tb = 0.169751 sec, Ta = 0.172101 sec, comp_time = 0.207812 sec, comm_time = 0.134019 sec, neigh_comm_time = 0.000003 sec, ptp_comm_time = 0.000003 sec, coll_comm_time = 0.134007 sec, T_cmp_b = 0.103907 sec, T_cmp_a = 0.103906 sec, T_comm_b = 0.065834 sec, T_comm_a = 0.068185 sec.
rank 88 Tb = 0.169744 sec, Ta = 0.172093 sec, comp_time = 0.207813 sec, comm_time = 0.134003 sec, neigh_comm_time = 0.000003 sec, ptp_comm_time = 0.000003 sec, coll_comm_time = 0.133992 sec, T_cmp_b = 0.103906 sec, T_cmp_a = 0.103906 sec, T_comm_b = 0.065827 sec, T_comm_a = 0.068176 sec.
rank 221 Tb = 0.169750 sec, Ta = 0.172087 sec, comp_time = 0.207812 sec, comm_time = 0.134005 sec, neigh_comm_time = 0.000003 sec, ptp_comm_time = 0.000003 sec, coll_comm_time = 0.133993 sec, T_cmp_b = 0.103906 sec, T_cmp_a = 0.103906 sec, T_comm_b = 0.065834 sec, T_comm_a = 0.068171 sec.
rank 141 Tb = 0.169754 sec, Ta = 0.172094 sec, comp_time = 0.207847 sec, comm_time = 0.133981 sec, neigh_comm_time = 0.000003 sec, ptp_comm_time = 0.000003 sec, coll_comm_time = 0.133969 sec, T_cmp_b = 0.103923 sec, T_cmp_a = 0.103923 sec, T_comm_b = 0.065820 sec, T_comm_a = 0.068161 sec.
rank 73 Tb = 0.169747 sec, Ta = 0.172104 sec, comp_time = 0.207846 sec, comm_time = 0.133984 sec, neigh_comm_time = 0.000003 sec, ptp_comm_time = 0.000003 sec, coll_comm_time = 0.133973 sec, T_cmp_b = 0.103923 sec, T_cmp_a = 0.103923 sec, T_comm_b = 0.065813 sec, T_comm_a = 0.068170 sec.
rank 57 Tb = 0.169748 sec, Ta = 0.172089 sec, comp_time = 0.207777 sec, comm_time = 0.134041 sec, neigh_comm_time = 0.000003 sec, ptp_comm_time = 0.000003 sec, coll_comm_time = 0.134029 sec, T_cmp_b = 0.103888 sec, T_cmp_a = 0.103888 sec, T_comm_b = 0.065850 sec, T_comm_a = 0.068191 sec.
rank 45 Tb = 0.169754 sec, Ta = 0.172095 sec, comp_time = 0.207812 sec, comm_time = 0.134017 sec, neigh_comm_time = 0.000003 sec, ptp_comm_time = 0.000003 sec, coll_comm_time = 0.134006 sec, T_cmp_b = 0.103906 sec, T_cmp_a = 0.103906 sec, T_comm_b = 0.065838 sec, T_comm_a = 0.068179 sec.
rank 156 Tb = 0.169747 sec, Ta = 0.172088 sec, comp_time = 0.207847 sec, comm_time = 0.133967 sec, neigh_comm_time = 0.000003 sec, ptp_comm_time = 0.000003 sec, coll_comm_time = 0.133955 sec, T_cmp_b = 0.103924 sec, T_cmp_a = 0.103924 sec, T_comm_b = 0.065813 sec, T_comm_a = 0.068154 sec.
rank 94 Tb = 0.169744 sec, Ta = 0.172090 sec, comp_time = 0.207847 sec, comm_time = 0.133967 sec, neigh_comm_time = 0.000003 sec, ptp_comm_time = 0.000003 sec, coll_comm_time = 0.133956 sec, T_cmp_b = 0.103924 sec, T_cmp_a = 0.103923 sec, T_comm_b = 0.065810 sec, T_comm_a = 0.068157 sec.
rank 224 Tb = 0.169744 sec, Ta = 0.172101 sec, comp_time = 0.207777 sec, comm_time = 0.134046 sec, neigh_comm_time = 0.000003 sec, ptp_comm_time = 0.000003 sec, coll_comm_time = 0.134035 sec, T_cmp_b = 0.103889 sec, T_cmp_a = 0.103888 sec, T_comm_b = 0.065844 sec, T_comm_a = 0.068202 sec.
rank 217 Tb = 0.169747 sec, Ta = 0.172091 sec, comp_time = 0.207811 sec, comm_time = 0.134005 sec, neigh_comm_time = 0.000003 sec, ptp_comm_time = 0.000003 sec, coll_comm_time = 0.133994 sec, T_cmp_b = 0.103906 sec, T_cmp_a = 0.103906 sec, T_comm_b = 0.065831 sec, T_comm_a = 0.068175 sec.
rank 62 Tb = 0.169746 sec, Ta = 0.172089 sec, comp_time = 0.207778 sec, comm_time = 0.134037 sec, neigh_comm_time = 0.000003 sec, ptp_comm_time = 0.000003 sec, coll_comm_time = 0.134026 sec, T_cmp_b = 0.103889 sec, T_cmp_a = 0.103889 sec, T_comm_b = 0.065847 sec, T_comm_a = 0.068190 sec.
rank 77 Tb = 0.169754 sec, Ta = 0.172103 sec, comp_time = 0.207847 sec, comm_time = 0.133990 sec, neigh_comm_time = 0.000003 sec, ptp_comm_time = 0.000003 sec, coll_comm_time = 0.133978 sec, T_cmp_b = 0.103923 sec, T_cmp_a = 0.103923 sec, T_comm_b = 0.065821 sec, T_comm_a = 0.068169 sec.
rank 137 Tb = 0.169745 sec, Ta = 0.172094 sec, comp_time = 0.207846 sec, comm_time = 0.133972 sec, neigh_comm_time = 0.000003 sec, ptp_comm_time = 0.000003 sec, coll_comm_time = 0.133961 sec, T_cmp_b = 0.103923 sec, T_cmp_a = 0.103923 sec, T_comm_b = 0.065812 sec, T_comm_a = 0.068160 sec.
rank 41 Tb = 0.169748 sec, Ta = 0.172096 sec, comp_time = 0.207812 sec, comm_time = 0.134012 sec, neigh_comm_time = 0.000003 sec, ptp_comm_time = 0.000003 sec, coll_comm_time = 0.134000 sec, T_cmp_b = 0.103906 sec, T_cmp_a = 0.103906 sec, T_comm_b = 0.065832 sec, T_comm_a = 0.068180 sec.
rank 152 Tb = 0.169746 sec, Ta = 0.172090 sec, comp_time = 0.207813 sec, comm_time = 0.134003 sec, neigh_comm_time = 0.000003 sec, ptp_comm_time = 0.000003 sec, coll_comm_time = 0.133992 sec, T_cmp_b = 0.103906 sec, T_cmp_a = 0.103906 sec, T_comm_b = 0.065829 sec, T_comm_a = 0.068174 sec.
rank 95 Tb = 0.169744 sec, Ta = 0.172094 sec, comp_time = 0.207812 sec, comm_time = 0.134006 sec, neigh_comm_time = 0.000003 sec, ptp_comm_time = 0.000003 sec, coll_comm_time = 0.133995 sec, T_cmp_b = 0.103906 sec, T_cmp_a = 0.103906 sec, T_comm_b = 0.065829 sec, T_comm_a = 0.068178 sec.
rank 90 Tb = 0.169749 sec, Ta = 0.172090 sec, comp_time = 0.207847 sec, comm_time = 0.133972 sec, neigh_comm_time = 0.000003 sec, ptp_comm_time = 0.000003 sec, coll_comm_time = 0.133961 sec, T_cmp_b = 0.103923 sec, T_cmp_a = 0.103923 sec, T_comm_b = 0.065815 sec, T_comm_a = 0.068157 sec.
rank 216 Tb = 0.169739 sec, Ta = 0.172093 sec, comp_time = 0.207777 sec, comm_time = 0.134035 sec, neigh_comm_time = 0.000003 sec, ptp_comm_time = 0.000003 sec, coll_comm_time = 0.134024 sec, T_cmp_b = 0.103888 sec, T_cmp_a = 0.103888 sec, T_comm_b = 0.065840 sec, T_comm_a = 0.068195 sec.
rank 175 Tb = 0.169748 sec, Ta = 0.172095 sec, comp_time = 0.207812 sec, comm_time = 0.134012 sec, neigh_comm_time = 0.000003 sec, ptp_comm_time = 0.000003 sec, coll_comm_time = 0.134001 sec, T_cmp_b = 0.103906 sec, T_cmp_a = 0.103906 sec, T_comm_b = 0.065833 sec, T_comm_a = 0.068179 sec.
rank 65 Tb = 0.169749 sec, Ta = 0.172104 sec, comp_time = 0.207812 sec, comm_time = 0.134021 sec, neigh_comm_time = 0.000003 sec, ptp_comm_time = 0.000003 sec, coll_comm_time = 0.134010 sec, T_cmp_b = 0.103906 sec, T_cmp_a = 0.103906 sec, T_comm_b = 0.065833 sec, T_comm_a = 0.068188 sec.
rank 24 Tb = 0.169746 sec, Ta = 0.172091 sec, comp_time = 0.207777 sec, comm_time = 0.134040 sec, neigh_comm_time = 0.000003 sec, ptp_comm_time = 0.000003 sec, coll_comm_time = 0.134028 sec, T_cmp_b = 0.103889 sec, T_cmp_a = 0.103889 sec, T_comm_b = 0.065847 sec, T_comm_a = 0.068192 sec.
rank 13 Tb = 0.169755 sec, Ta = 0.172097 sec, comp_time = 0.207812 sec, comm_time = 0.134019 sec, neigh_comm_time = 0.000003 sec, ptp_comm_time = 0.000003 sec, coll_comm_time = 0.134008 sec, T_cmp_b = 0.103906 sec, T_cmp_a = 0.103906 sec, T_comm_b = 0.065839 sec, T_comm_a = 0.068181 sec.
rank 189 Tb = 0.169750 sec, Ta = 0.172086 sec, comp_time = 0.207812 sec, comm_time = 0.134004 sec, neigh_comm_time = 0.000003 sec, ptp_comm_time = 0.000003 sec, coll_comm_time = 0.133993 sec, T_cmp_b = 0.103906 sec, T_cmp_a = 0.103906 sec, T_comm_b = 0.065834 sec, T_comm_a = 0.068170 sec.
rank 236 Tb = 0.169747 sec, Ta = 0.172102 sec, comp_time = 0.207813 sec, comm_time = 0.134015 sec, neigh_comm_time = 0.000003 sec, ptp_comm_time = 0.000003 sec, coll_comm_time = 0.134004 sec, T_cmp_b = 0.103906 sec, T_cmp_a = 0.103906 sec, T_comm_b = 0.065830 sec, T_comm_a = 0.068185 sec.
rank 233 Tb = 0.169748 sec, Ta = 0.172100 sec, comp_time = 0.207812 sec, comm_time = 0.134016 sec, neigh_comm_time = 0.000003 sec, ptp_comm_time = 0.000003 sec, coll_comm_time = 0.134005 sec, T_cmp_b = 0.103906 sec, T_cmp_a = 0.103906 sec, T_comm_b = 0.065832 sec, T_comm_a = 0.068184 sec.
rank 254 Tb = 0.169749 sec, Ta = 0.172089 sec, comp_time = 0.207777 sec, comm_time = 0.134041 sec, neigh_comm_time = 0.000003 sec, ptp_comm_time = 0.000003 sec, coll_comm_time = 0.134030 sec, T_cmp_b = 0.103889 sec, T_cmp_a = 0.103888 sec, T_comm_b = 0.065850 sec, T_comm_a = 0.068191 sec.
rank 63 Tb = 0.169746 sec, Ta = 0.172092 sec, comp_time = 0.207742 sec, comm_time = 0.134076 sec, neigh_comm_time = 0.000003 sec, ptp_comm_time = 0.000003 sec, coll_comm_time = 0.134064 sec, T_cmp_b = 0.103871 sec, T_cmp_a = 0.103871 sec, T_comm_b = 0.065865 sec, T_comm_a = 0.068211 sec.
rank 101 Tb = 0.169748 sec, Ta = 0.172104 sec, comp_time = 0.207847 sec, comm_time = 0.133985 sec, neigh_comm_time = 0.000003 sec, ptp_comm_time = 0.000003 sec, coll_comm_time = 0.133974 sec, T_cmp_b = 0.103923 sec, T_cmp_a = 0.103923 sec, T_comm_b = 0.065814 sec, T_comm_a = 0.068171 sec.
rank 168 Tb = 0.169746 sec, Ta = 0.172094 sec, comp_time = 0.207812 sec, comm_time = 0.134007 sec, neigh_comm_time = 0.000003 sec, ptp_comm_time = 0.000003 sec, coll_comm_time = 0.133996 sec, T_cmp_b = 0.103906 sec, T_cmp_a = 0.103906 sec, T_comm_b = 0.065830 sec, T_comm_a = 0.068178 sec.
rank 40 Tb = 0.169746 sec, Ta = 0.172097 sec, comp_time = 0.207777 sec, comm_time = 0.134046 sec, neigh_comm_time = 0.000003 sec, ptp_comm_time = 0.000003 sec, coll_comm_time = 0.134034 sec, T_cmp_b = 0.103888 sec, T_cmp_a = 0.103889 sec, T_comm_b = 0.065847 sec, T_comm_a = 0.068199 sec.
rank 158 Tb = 0.169745 sec, Ta = 0.172089 sec, comp_time = 0.207848 sec, comm_time = 0.133966 sec, neigh_comm_time = 0.000003 sec, ptp_comm_time = 0.000003 sec, coll_comm_time = 0.133955 sec, T_cmp_b = 0.103924 sec, T_cmp_a = 0.103924 sec, T_comm_b = 0.065811 sec, T_comm_a = 0.068155 sec.
rank 92 Tb = 0.169748 sec, Ta = 0.172090 sec, comp_time = 0.207847 sec, comm_time = 0.133971 sec, neigh_comm_time = 0.000003 sec, ptp_comm_time = 0.000003 sec, coll_comm_time = 0.133959 sec, T_cmp_b = 0.103924 sec, T_cmp_a = 0.103924 sec, T_comm_b = 0.065814 sec, T_comm_a = 0.068156 sec.
rank 91 Tb = 0.169746 sec, Ta = 0.172090 sec, comp_time = 0.207847 sec, comm_time = 0.133969 sec, neigh_comm_time = 0.000003 sec, ptp_comm_time = 0.000003 sec, coll_comm_time = 0.133958 sec, T_cmp_b = 0.103923 sec, T_cmp_a = 0.103923 sec, T_comm_b = 0.065812 sec, T_comm_a = 0.068157 sec.
rank 248 Tb = 0.169743 sec, Ta = 0.172091 sec, comp_time = 0.207742 sec, comm_time = 0.134071 sec, neigh_comm_time = 0.000003 sec, ptp_comm_time = 0.000003 sec, coll_comm_time = 0.134060 sec, T_cmp_b = 0.103871 sec, T_cmp_a = 0.103871 sec, T_comm_b = 0.065862 sec, T_comm_a = 0.068210 sec.
rank 172 Tb = 0.169750 sec, Ta = 0.172095 sec, comp_time = 0.207848 sec, comm_time = 0.133976 sec, neigh_comm_time = 0.000003 sec, ptp_comm_time = 0.000003 sec, coll_comm_time = 0.133964 sec, T_cmp_b = 0.103924 sec, T_cmp_a = 0.103924 sec, T_comm_b = 0.065815 sec, T_comm_a = 0.068161 sec.
rank 96 Tb = 0.169744 sec, Ta = 0.172102 sec, comp_time = 0.207812 sec, comm_time = 0.134014 sec, neigh_comm_time = 0.000003 sec, ptp_comm_time = 0.000003 sec, coll_comm_time = 0.134003 sec, T_cmp_b = 0.103906 sec, T_cmp_a = 0.103906 sec, T_comm_b = 0.065828 sec, T_comm_a = 0.068186 sec.
rank 56 Tb = 0.169746 sec, Ta = 0.172091 sec, comp_time = 0.207742 sec, comm_time = 0.134074 sec, neigh_comm_time = 0.000003 sec, ptp_comm_time = 0.000003 sec, coll_comm_time = 0.134062 sec, T_cmp_b = 0.103871 sec, T_cmp_a = 0.103871 sec, T_comm_b = 0.065865 sec, T_comm_a = 0.068209 sec.
rank 44 Tb = 0.169750 sec, Ta = 0.172096 sec, comp_time = 0.207812 sec, comm_time = 0.134014 sec, neigh_comm_time = 0.000003 sec, ptp_comm_time = 0.000003 sec, coll_comm_time = 0.134002 sec, T_cmp_b = 0.103906 sec, T_cmp_a = 0.103906 sec, T_comm_b = 0.065834 sec, T_comm_a = 0.068180 sec.
rank 184 Tb = 0.169745 sec, Ta = 0.172090 sec, comp_time = 0.207778 sec, comm_time = 0.134037 sec, neigh_comm_time = 0.000003 sec, ptp_comm_time = 0.000003 sec, coll_comm_time = 0.134025 sec, T_cmp_b = 0.103889 sec, T_cmp_a = 0.103889 sec, T_comm_b = 0.065846 sec, T_comm_a = 0.068191 sec.
rank 230 Tb = 0.169747 sec, Ta = 0.172099 sec, comp_time = 0.207812 sec, comm_time = 0.134014 sec, neigh_comm_time = 0.000003 sec, ptp_comm_time = 0.000003 sec, coll_comm_time = 0.134003 sec, T_cmp_b = 0.103906 sec, T_cmp_a = 0.103906 sec, T_comm_b = 0.065831 sec, T_comm_a = 0.068183 sec.
rank 193 Tb = 0.169745 sec, Ta = 0.172103 sec, comp_time = 0.207777 sec, comm_time = 0.134051 sec, neigh_comm_time = 0.000003 sec, ptp_comm_time = 0.000003 sec, coll_comm_time = 0.134039 sec, T_cmp_b = 0.103888 sec, T_cmp_a = 0.103888 sec, T_comm_b = 0.065847 sec, T_comm_a = 0.068204 sec.
rank 220 Tb = 0.169750 sec, Ta = 0.172089 sec, comp_time = 0.207812 sec, comm_time = 0.134006 sec, neigh_comm_time = 0.000003 sec, ptp_comm_time = 0.000003 sec, coll_comm_time = 0.133995 sec, T_cmp_b = 0.103906 sec, T_cmp_a = 0.103906 sec, T_comm_b = 0.065833 sec, T_comm_a = 0.068173 sec.
rank 28 Tb = 0.169748 sec, Ta = 0.172090 sec, comp_time = 0.207813 sec, comm_time = 0.134005 sec, neigh_comm_time = 0.000003 sec, ptp_comm_time = 0.000003 sec, coll_comm_time = 0.133994 sec, T_cmp_b = 0.103906 sec, T_cmp_a = 0.103906 sec, T_comm_b = 0.065832 sec, T_comm_a = 0.068174 sec.
rank 109 Tb = 0.169750 sec, Ta = 0.172103 sec, comp_time = 0.207847 sec, comm_time = 0.133986 sec, neigh_comm_time = 0.000003 sec, ptp_comm_time = 0.000003 sec, coll_comm_time = 0.133974 sec, T_cmp_b = 0.103924 sec, T_cmp_a = 0.103924 sec, T_comm_b = 0.065817 sec, T_comm_a = 0.068169 sec.
rank 136 Tb = 0.169740 sec, Ta = 0.172094 sec, comp_time = 0.207812 sec, comm_time = 0.134002 sec, neigh_comm_time = 0.000003 sec, ptp_comm_time = 0.000003 sec, coll_comm_time = 0.133991 sec, T_cmp_b = 0.103906 sec, T_cmp_a = 0.103906 sec, T_comm_b = 0.065824 sec, T_comm_a = 0.068178 sec.
rank 138 Tb = 0.169747 sec, Ta = 0.172095 sec, comp_time = 0.207847 sec, comm_time = 0.133974 sec, neigh_comm_time = 0.000003 sec, ptp_comm_time = 0.000003 sec, coll_comm_time = 0.133963 sec, T_cmp_b = 0.103924 sec, T_cmp_a = 0.103924 sec, T_comm_b = 0.065813 sec, T_comm_a = 0.068161 sec.
rank 159 Tb = 0.169742 sec, Ta = 0.172091 sec, comp_time = 0.207812 sec, comm_time = 0.134000 sec, neigh_comm_time = 0.000003 sec, ptp_comm_time = 0.000003 sec, coll_comm_time = 0.133989 sec, T_cmp_b = 0.103906 sec, T_cmp_a = 0.103906 sec, T_comm_b = 0.065826 sec, T_comm_a = 0.068174 sec.
rank 117 Tb = 0.169752 sec, Ta = 0.172095 sec, comp_time = 0.207847 sec, comm_time = 0.133980 sec, neigh_comm_time = 0.000003 sec, ptp_comm_time = 0.000003 sec, coll_comm_time = 0.133969 sec, T_cmp_b = 0.103924 sec, T_cmp_a = 0.103923 sec, T_comm_b = 0.065819 sec, T_comm_a = 0.068162 sec.
rank 113 Tb = 0.169747 sec, Ta = 0.172095 sec, comp_time = 0.207847 sec, comm_time = 0.133975 sec, neigh_comm_time = 0.000003 sec, ptp_comm_time = 0.000003 sec, coll_comm_time = 0.133964 sec, T_cmp_b = 0.103923 sec, T_cmp_a = 0.103923 sec, T_comm_b = 0.065813 sec, T_comm_a = 0.068162 sec.
rank 250 Tb = 0.169749 sec, Ta = 0.172088 sec, comp_time = 0.207778 sec, comm_time = 0.134040 sec, neigh_comm_time = 0.000003 sec, ptp_comm_time = 0.000003 sec, coll_comm_time = 0.134028 sec, T_cmp_b = 0.103889 sec, T_cmp_a = 0.103889 sec, T_comm_b = 0.065850 sec, T_comm_a = 0.068189 sec.
rank 30 Tb = 0.169745 sec, Ta = 0.172091 sec, comp_time = 0.207813 sec, comm_time = 0.134003 sec, neigh_comm_time = 0.000003 sec, ptp_comm_time = 0.000003 sec, coll_comm_time = 0.133992 sec, T_cmp_b = 0.103907 sec, T_cmp_a = 0.103906 sec, T_comm_b = 0.065828 sec, T_comm_a = 0.068175 sec.
rank 105 Tb = 0.169747 sec, Ta = 0.172103 sec, comp_time = 0.207847 sec, comm_time = 0.133982 sec, neigh_comm_time = 0.000003 sec, ptp_comm_time = 0.000003 sec, coll_comm_time = 0.133971 sec, T_cmp_b = 0.103923 sec, T_cmp_a = 0.103923 sec, T_comm_b = 0.065813 sec, T_comm_a = 0.068169 sec.
rank 58 Tb = 0.169749 sec, Ta = 0.172088 sec, comp_time = 0.207778 sec, comm_time = 0.134039 sec, neigh_comm_time = 0.000003 sec, ptp_comm_time = 0.000003 sec, coll_comm_time = 0.134028 sec, T_cmp_b = 0.103889 sec, T_cmp_a = 0.103889 sec, T_comm_b = 0.065850 sec, T_comm_a = 0.068190 sec.
rank 46 Tb = 0.169748 sec, Ta = 0.172097 sec, comp_time = 0.207812 sec, comm_time = 0.134012 sec, neigh_comm_time = 0.000003 sec, ptp_comm_time = 0.000003 sec, coll_comm_time = 0.134001 sec, T_cmp_b = 0.103906 sec, T_cmp_a = 0.103906 sec, T_comm_b = 0.065832 sec, T_comm_a = 0.068181 sec.
rank 155 Tb = 0.169744 sec, Ta = 0.172088 sec, comp_time = 0.207846 sec, comm_time = 0.133966 sec, neigh_comm_time = 0.000003 sec, ptp_comm_time = 0.000003 sec, coll_comm_time = 0.133954 sec, T_cmp_b = 0.103923 sec, T_cmp_a = 0.103923 sec, T_comm_b = 0.065811 sec, T_comm_a = 0.068155 sec.
rank 228 Tb = 0.169745 sec, Ta = 0.172103 sec, comp_time = 0.207812 sec, comm_time = 0.134016 sec, neigh_comm_time = 0.000003 sec, ptp_comm_time = 0.000003 sec, coll_comm_time = 0.134004 sec, T_cmp_b = 0.103906 sec, T_cmp_a = 0.103906 sec, T_comm_b = 0.065829 sec, T_comm_a = 0.068187 sec.
rank 226 Tb = 0.169748 sec, Ta = 0.172100 sec, comp_time = 0.207813 sec, comm_time = 0.134015 sec, neigh_comm_time = 0.000003 sec, ptp_comm_time = 0.000003 sec, coll_comm_time = 0.134003 sec, T_cmp_b = 0.103906 sec, T_cmp_a = 0.103906 sec, T_comm_b = 0.065831 sec, T_comm_a = 0.068183 sec.
rank 222 Tb = 0.169745 sec, Ta = 0.172089 sec, comp_time = 0.207813 sec, comm_time = 0.134001 sec, neigh_comm_time = 0.000003 sec, ptp_comm_time = 0.000003 sec, coll_comm_time = 0.133989 sec, T_cmp_b = 0.103907 sec, T_cmp_a = 0.103906 sec, T_comm_b = 0.065828 sec, T_comm_a = 0.068173 sec.
rank 174 Tb = 0.169749 sec, Ta = 0.172095 sec, comp_time = 0.207847 sec, comm_time = 0.133976 sec, neigh_comm_time = 0.000003 sec, ptp_comm_time = 0.000003 sec, coll_comm_time = 0.133964 sec, T_cmp_b = 0.103924 sec, T_cmp_a = 0.103923 sec, T_comm_b = 0.065815 sec, T_comm_a = 0.068161 sec.
rank 76 Tb = 0.169748 sec, Ta = 0.172104 sec, comp_time = 0.207847 sec, comm_time = 0.133984 sec, neigh_comm_time = 0.000003 sec, ptp_comm_time = 0.000003 sec, coll_comm_time = 0.133973 sec, T_cmp_b = 0.103924 sec, T_cmp_a = 0.103924 sec, T_comm_b = 0.065815 sec, T_comm_a = 0.068170 sec.
rank 170 Tb = 0.169749 sec, Ta = 0.172094 sec, comp_time = 0.207848 sec, comm_time = 0.133975 sec, neigh_comm_time = 0.000003 sec, ptp_comm_time = 0.000003 sec, coll_comm_time = 0.133964 sec, T_cmp_b = 0.103924 sec, T_cmp_a = 0.103924 sec, T_comm_b = 0.065815 sec, T_comm_a = 0.068160 sec.
rank 43 Tb = 0.169748 sec, Ta = 0.172095 sec, comp_time = 0.207812 sec, comm_time = 0.134010 sec, neigh_comm_time = 0.000003 sec, ptp_comm_time = 0.000003 sec, coll_comm_time = 0.133998 sec, T_cmp_b = 0.103906 sec, T_cmp_a = 0.103906 sec, T_comm_b = 0.065831 sec, T_comm_a = 0.068179 sec.
rank 29 Tb = 0.169754 sec, Ta = 0.172090 sec, comp_time = 0.207812 sec, comm_time = 0.134011 sec, neigh_comm_time = 0.000003 sec, ptp_comm_time = 0.000003 sec, coll_comm_time = 0.134000 sec, T_cmp_b = 0.103906 sec, T_cmp_a = 0.103906 sec, T_comm_b = 0.065837 sec, T_comm_a = 0.068174 sec.
rank 125 Tb = 0.169749 sec, Ta = 0.172094 sec, comp_time = 0.207812 sec, comm_time = 0.134010 sec, neigh_comm_time = 0.000003 sec, ptp_comm_time = 0.000003 sec, coll_comm_time = 0.133999 sec, T_cmp_b = 0.103906 sec, T_cmp_a = 0.103906 sec, T_comm_b = 0.065832 sec, T_comm_a = 0.068177 sec.
rank 227 Tb = 0.169743 sec, Ta = 0.172100 sec, comp_time = 0.207812 sec, comm_time = 0.134010 sec, neigh_comm_time = 0.000003 sec, ptp_comm_time = 0.000003 sec, coll_comm_time = 0.133999 sec, T_cmp_b = 0.103906 sec, T_cmp_a = 0.103906 sec, T_comm_b = 0.065826 sec, T_comm_a = 0.068184 sec.
rank 218 Tb = 0.169748 sec, Ta = 0.172088 sec, comp_time = 0.207813 sec, comm_time = 0.134004 sec, neigh_comm_time = 0.000003 sec, ptp_comm_time = 0.000003 sec, coll_comm_time = 0.133992 sec, T_cmp_b = 0.103907 sec, T_cmp_a = 0.103906 sec, T_comm_b = 0.065832 sec, T_comm_a = 0.068172 sec.
rank 60 Tb = 0.169751 sec, Ta = 0.172089 sec, comp_time = 0.207778 sec, comm_time = 0.134041 sec, neigh_comm_time = 0.000003 sec, ptp_comm_time = 0.000003 sec, coll_comm_time = 0.134030 sec, T_cmp_b = 0.103889 sec, T_cmp_a = 0.103889 sec, T_comm_b = 0.065852 sec, T_comm_a = 0.068190 sec.
rank 72 Tb = 0.169743 sec, Ta = 0.172105 sec, comp_time = 0.207812 sec, comm_time = 0.134015 sec, neigh_comm_time = 0.000003 sec, ptp_comm_time = 0.000003 sec, coll_comm_time = 0.134003 sec, T_cmp_b = 0.103906 sec, T_cmp_a = 0.103906 sec, T_comm_b = 0.065826 sec, T_comm_a = 0.068189 sec.
rank 26 Tb = 0.169748 sec, Ta = 0.172089 sec, comp_time = 0.207813 sec, comm_time = 0.134004 sec, neigh_comm_time = 0.000003 sec, ptp_comm_time = 0.000003 sec, coll_comm_time = 0.133993 sec, T_cmp_b = 0.103906 sec, T_cmp_a = 0.103906 sec, T_comm_b = 0.065831 sec, T_comm_a = 0.068173 sec.
rank 47 Tb = 0.169748 sec, Ta = 0.172097 sec, comp_time = 0.207777 sec, comm_time = 0.134048 sec, neigh_comm_time = 0.000003 sec, ptp_comm_time = 0.000003 sec, coll_comm_time = 0.134037 sec, T_cmp_b = 0.103888 sec, T_cmp_a = 0.103888 sec, T_comm_b = 0.065850 sec, T_comm_a = 0.068199 sec.
rank 154 Tb = 0.169747 sec, Ta = 0.172088 sec, comp_time = 0.207848 sec, comm_time = 0.133967 sec, neigh_comm_time = 0.000003 sec, ptp_comm_time = 0.000003 sec, coll_comm_time = 0.133956 sec, T_cmp_b = 0.103924 sec, T_cmp_a = 0.103924 sec, T_comm_b = 0.065813 sec, T_comm_a = 0.068154 sec.
rank 239 Tb = 0.169749 sec, Ta = 0.172102 sec, comp_time = 0.207777 sec, comm_time = 0.134054 sec, neigh_comm_time = 0.000003 sec, ptp_comm_time = 0.000003 sec, coll_comm_time = 0.134043 sec, T_cmp_b = 0.103888 sec, T_cmp_a = 0.103889 sec, T_comm_b = 0.065851 sec, T_comm_a = 0.068203 sec.
rank 112 Tb = 0.169746 sec, Ta = 0.172096 sec, comp_time = 0.207812 sec, comm_time = 0.134010 sec, neigh_comm_time = 0.000003 sec, ptp_comm_time = 0.000003 sec, coll_comm_time = 0.133998 sec, T_cmp_b = 0.103906 sec, T_cmp_a = 0.103906 sec, T_comm_b = 0.065830 sec, T_comm_a = 0.068180 sec.
rank 255 Tb = 0.169747 sec, Ta = 0.172094 sec, comp_time = 0.207742 sec, comm_time = 0.134079 sec, neigh_comm_time = 0.000003 sec, ptp_comm_time = 0.000003 sec, coll_comm_time = 0.134068 sec, T_cmp_b = 0.103871 sec, T_cmp_a = 0.103871 sec, T_comm_b = 0.065866 sec, T_comm_a = 0.068213 sec.
rank 143 Tb = 0.169745 sec, Ta = 0.172096 sec, comp_time = 0.207812 sec, comm_time = 0.134009 sec, neigh_comm_time = 0.000003 sec, ptp_comm_time = 0.000003 sec, coll_comm_time = 0.133997 sec, T_cmp_b = 0.103906 sec, T_cmp_a = 0.103906 sec, T_comm_b = 0.065829 sec, T_comm_a = 0.068180 sec.
rank 102 Tb = 0.169746 sec, Ta = 0.172102 sec, comp_time = 0.207848 sec, comm_time = 0.133979 sec, neigh_comm_time = 0.000003 sec, ptp_comm_time = 0.000003 sec, coll_comm_time = 0.133968 sec, T_cmp_b = 0.103924 sec, T_cmp_a = 0.103924 sec, T_comm_b = 0.065812 sec, T_comm_a = 0.068168 sec.
rank 139 Tb = 0.169750 sec, Ta = 0.172095 sec, comp_time = 0.207846 sec, comm_time = 0.133978 sec, neigh_comm_time = 0.000003 sec, ptp_comm_time = 0.000003 sec, coll_comm_time = 0.133967 sec, T_cmp_b = 0.103923 sec, T_cmp_a = 0.103923 sec, T_comm_b = 0.065817 sec, T_comm_a = 0.068161 sec.
rank 10 Tb = 0.169748 sec, Ta = 0.172096 sec, comp_time = 0.207813 sec, comm_time = 0.134011 sec, neigh_comm_time = 0.000003 sec, ptp_comm_time = 0.000003 sec, coll_comm_time = 0.133999 sec, T_cmp_b = 0.103907 sec, T_cmp_a = 0.103907 sec, T_comm_b = 0.065831 sec, T_comm_a = 0.068180 sec.
rank 188 Tb = 0.169749 sec, Ta = 0.172088 sec, comp_time = 0.207813 sec, comm_time = 0.134004 sec, neigh_comm_time = 0.000003 sec, ptp_comm_time = 0.000003 sec, coll_comm_time = 0.133992 sec, T_cmp_b = 0.103906 sec, T_cmp_a = 0.103906 sec, T_comm_b = 0.065832 sec, T_comm_a = 0.068171 sec.
rank 85 Tb = 0.169747 sec, Ta = 0.172097 sec, comp_time = 0.207847 sec, comm_time = 0.133976 sec, neigh_comm_time = 0.000003 sec, ptp_comm_time = 0.000003 sec, coll_comm_time = 0.133965 sec, T_cmp_b = 0.103923 sec, T_cmp_a = 0.103923 sec, T_comm_b = 0.065813 sec, T_comm_a = 0.068163 sec.
rank 121 Tb = 0.169749 sec, Ta = 0.172095 sec, comp_time = 0.207812 sec, comm_time = 0.134011 sec, neigh_comm_time = 0.000003 sec, ptp_comm_time = 0.000003 sec, coll_comm_time = 0.134000 sec, T_cmp_b = 0.103906 sec, T_cmp_a = 0.103906 sec, T_comm_b = 0.065833 sec, T_comm_a = 0.068179 sec.
rank 219 Tb = 0.169749 sec, Ta = 0.172089 sec, comp_time = 0.207812 sec, comm_time = 0.134006 sec, neigh_comm_time = 0.000003 sec, ptp_comm_time = 0.000003 sec, coll_comm_time = 0.133995 sec, T_cmp_b = 0.103906 sec, T_cmp_a = 0.103906 sec, T_comm_b = 0.065833 sec, T_comm_a = 0.068173 sec.
rank 31 Tb = 0.169744 sec, Ta = 0.172093 sec, comp_time = 0.207777 sec, comm_time = 0.134040 sec, neigh_comm_time = 0.000003 sec, ptp_comm_time = 0.000003 sec, coll_comm_time = 0.134029 sec, T_cmp_b = 0.103888 sec, T_cmp_a = 0.103888 sec, T_comm_b = 0.065845 sec, T_comm_a = 0.068195 sec.
rank 64 Tb = 0.169746 sec, Ta = 0.172105 sec, comp_time = 0.207777 sec, comm_time = 0.134054 sec, neigh_comm_time = 0.000003 sec, ptp_comm_time = 0.000003 sec, coll_comm_time = 0.134042 sec, T_cmp_b = 0.103889 sec, T_cmp_a = 0.103888 sec, T_comm_b = 0.065847 sec, T_comm_a = 0.068207 sec.
rank 59 Tb = 0.169749 sec, Ta = 0.172088 sec, comp_time = 0.207777 sec, comm_time = 0.134040 sec, neigh_comm_time = 0.000003 sec, ptp_comm_time = 0.000003 sec, coll_comm_time = 0.134028 sec, T_cmp_b = 0.103889 sec, T_cmp_a = 0.103888 sec, T_comm_b = 0.065850 sec, T_comm_a = 0.068190 sec.
rank 14 Tb = 0.169745 sec, Ta = 0.172098 sec, comp_time = 0.207812 sec, comm_time = 0.134010 sec, neigh_comm_time = 0.000003 sec, ptp_comm_time = 0.000003 sec, coll_comm_time = 0.133999 sec, T_cmp_b = 0.103906 sec, T_cmp_a = 0.103906 sec, T_comm_b = 0.065828 sec, T_comm_a = 0.068182 sec.
rank 186 Tb = 0.169750 sec, Ta = 0.172085 sec, comp_time = 0.207813 sec, comm_time = 0.134002 sec, neigh_comm_time = 0.000003 sec, ptp_comm_time = 0.000003 sec, coll_comm_time = 0.133991 sec, T_cmp_b = 0.103906 sec, T_cmp_a = 0.103906 sec, T_comm_b = 0.065834 sec, T_comm_a = 0.068169 sec.
rank 231 Tb = 0.169742 sec, Ta = 0.172100 sec, comp_time = 0.207777 sec, comm_time = 0.134044 sec, neigh_comm_time = 0.000003 sec, ptp_comm_time = 0.000003 sec, coll_comm_time = 0.134033 sec, T_cmp_b = 0.103888 sec, T_cmp_a = 0.103889 sec, T_comm_b = 0.065843 sec, T_comm_a = 0.068201 sec.
rank 192 Tb = 0.169744 sec, Ta = 0.172104 sec, comp_time = 0.207742 sec, comm_time = 0.134086 sec, neigh_comm_time = 0.000003 sec, ptp_comm_time = 0.000003 sec, coll_comm_time = 0.134075 sec, T_cmp_b = 0.103871 sec, T_cmp_a = 0.103871 sec, T_comm_b = 0.065863 sec, T_comm_a = 0.068223 sec.
rank 252 Tb = 0.169750 sec, Ta = 0.172088 sec, comp_time = 0.207778 sec, comm_time = 0.134040 sec, neigh_comm_time = 0.000003 sec, ptp_comm_time = 0.000003 sec, coll_comm_time = 0.134029 sec, T_cmp_b = 0.103889 sec, T_cmp_a = 0.103889 sec, T_comm_b = 0.065851 sec, T_comm_a = 0.068189 sec.
rank 142 Tb = 0.169747 sec, Ta = 0.172096 sec, comp_time = 0.207848 sec, comm_time = 0.133975 sec, neigh_comm_time = 0.000003 sec, ptp_comm_time = 0.000003 sec, coll_comm_time = 0.133964 sec, T_cmp_b = 0.103924 sec, T_cmp_a = 0.103924 sec, T_comm_b = 0.065813 sec, T_comm_a = 0.068162 sec.
rank 78 Tb = 0.169742 sec, Ta = 0.172105 sec, comp_time = 0.207848 sec, comm_time = 0.133978 sec, neigh_comm_time = 0.000003 sec, ptp_comm_time = 0.000003 sec, coll_comm_time = 0.133967 sec, T_cmp_b = 0.103924 sec, T_cmp_a = 0.103924 sec, T_comm_b = 0.065808 sec, T_comm_a = 0.068171 sec.
rank 171 Tb = 0.169748 sec, Ta = 0.172094 sec, comp_time = 0.207847 sec, comm_time = 0.133976 sec, neigh_comm_time = 0.000003 sec, ptp_comm_time = 0.000003 sec, coll_comm_time = 0.133964 sec, T_cmp_b = 0.103924 sec, T_cmp_a = 0.103924 sec, T_comm_b = 0.065815 sec, T_comm_a = 0.068161 sec.
rank 42 Tb = 0.169749 sec, Ta = 0.172095 sec, comp_time = 0.207813 sec, comm_time = 0.134011 sec, neigh_comm_time = 0.000003 sec, ptp_comm_time = 0.000003 sec, coll_comm_time = 0.134000 sec, T_cmp_b = 0.103907 sec, T_cmp_a = 0.103907 sec, T_comm_b = 0.065833 sec, T_comm_a = 0.068179 sec.
rank 191 Tb = 0.169746 sec, Ta = 0.172092 sec, comp_time = 0.207777 sec, comm_time = 0.134041 sec, neigh_comm_time = 0.000003 sec, ptp_comm_time = 0.000003 sec, coll_comm_time = 0.134030 sec, T_cmp_b = 0.103889 sec, T_cmp_a = 0.103888 sec, T_comm_b = 0.065848 sec, T_comm_a = 0.068193 sec.
rank 116 Tb = 0.169750 sec, Ta = 0.172096 sec, comp_time = 0.207847 sec, comm_time = 0.133979 sec, neigh_comm_time = 0.000003 sec, ptp_comm_time = 0.000003 sec, coll_comm_time = 0.133968 sec, T_cmp_b = 0.103923 sec, T_cmp_a = 0.103923 sec, T_comm_b = 0.065817 sec, T_comm_a = 0.068162 sec.
rank 81 Tb = 0.169747 sec, Ta = 0.172097 sec, comp_time = 0.207847 sec, comm_time = 0.133977 sec, neigh_comm_time = 0.000003 sec, ptp_comm_time = 0.000003 sec, coll_comm_time = 0.133965 sec, T_cmp_b = 0.103924 sec, T_cmp_a = 0.103923 sec, T_comm_b = 0.065813 sec, T_comm_a = 0.068164 sec.
rank 251 Tb = 0.169748 sec, Ta = 0.172088 sec, comp_time = 0.207777 sec, comm_time = 0.134040 sec, neigh_comm_time = 0.000003 sec, ptp_comm_time = 0.000003 sec, coll_comm_time = 0.134028 sec, T_cmp_b = 0.103889 sec, T_cmp_a = 0.103888 sec, T_comm_b = 0.065850 sec, T_comm_a = 0.068190 sec.
rank 133 Tb = 0.169744 sec, Ta = 0.172100 sec, comp_time = 0.207812 sec, comm_time = 0.134012 sec, neigh_comm_time = 0.000003 sec, ptp_comm_time = 0.000003 sec, coll_comm_time = 0.134000 sec, T_cmp_b = 0.103906 sec, T_cmp_a = 0.103906 sec, T_comm_b = 0.065828 sec, T_comm_a = 0.068184 sec.
rank 104 Tb = 0.169744 sec, Ta = 0.172104 sec, comp_time = 0.207812 sec, comm_time = 0.134015 sec, neigh_comm_time = 0.000003 sec, ptp_comm_time = 0.000003 sec, coll_comm_time = 0.134003 sec, T_cmp_b = 0.103906 sec, T_cmp_a = 0.103906 sec, T_comm_b = 0.065827 sec, T_comm_a = 0.068188 sec.
rank 49 Tb = 0.169750 sec, Ta = 0.172096 sec, comp_time = 0.207812 sec, comm_time = 0.134013 sec, neigh_comm_time = 0.000003 sec, ptp_comm_time = 0.000003 sec, coll_comm_time = 0.134002 sec, T_cmp_b = 0.103906 sec, T_cmp_a = 0.103906 sec, T_comm_b = 0.065833 sec, T_comm_a = 0.068180 sec.
rank 12 Tb = 0.169753 sec, Ta = 0.172098 sec, comp_time = 0.207812 sec, comm_time = 0.134017 sec, neigh_comm_time = 0.000003 sec, ptp_comm_time = 0.000003 sec, coll_comm_time = 0.134006 sec, T_cmp_b = 0.103906 sec, T_cmp_a = 0.103907 sec, T_comm_b = 0.065836 sec, T_comm_a = 0.068181 sec.
rank 187 Tb = 0.169749 sec, Ta = 0.172086 sec, comp_time = 0.207812 sec, comm_time = 0.134003 sec, neigh_comm_time = 0.000003 sec, ptp_comm_time = 0.000003 sec, coll_comm_time = 0.133992 sec, T_cmp_b = 0.103906 sec, T_cmp_a = 0.103906 sec, T_comm_b = 0.065833 sec, T_comm_a = 0.068171 sec.
rank 205 Tb = 0.169751 sec, Ta = 0.172103 sec, comp_time = 0.207812 sec, comm_time = 0.134022 sec, neigh_comm_time = 0.000003 sec, ptp_comm_time = 0.000003 sec, coll_comm_time = 0.134010 sec, T_cmp_b = 0.103906 sec, T_cmp_a = 0.103906 sec, T_comm_b = 0.065835 sec, T_comm_a = 0.068187 sec.
rank 232 Tb = 0.169744 sec, Ta = 0.172102 sec, comp_time = 0.207777 sec, comm_time = 0.134047 sec, neigh_comm_time = 0.000003 sec, ptp_comm_time = 0.000003 sec, coll_comm_time = 0.134036 sec, T_cmp_b = 0.103889 sec, T_cmp_a = 0.103889 sec, T_comm_b = 0.065845 sec, T_comm_a = 0.068203 sec.
rank 223 Tb = 0.169745 sec, Ta = 0.172093 sec, comp_time = 0.207777 sec, comm_time = 0.134041 sec, neigh_comm_time = 0.000003 sec, ptp_comm_time = 0.000003 sec, coll_comm_time = 0.134029 sec, T_cmp_b = 0.103888 sec, T_cmp_a = 0.103889 sec, T_comm_b = 0.065846 sec, T_comm_a = 0.068194 sec.
rank 53 Tb = 0.169752 sec, Ta = 0.172095 sec, comp_time = 0.207812 sec, comm_time = 0.134015 sec, neigh_comm_time = 0.000003 sec, ptp_comm_time = 0.000003 sec, coll_comm_time = 0.134003 sec, T_cmp_b = 0.103906 sec, T_cmp_a = 0.103906 sec, T_comm_b = 0.065836 sec, T_comm_a = 0.068179 sec.
rank 108 Tb = 0.169748 sec, Ta = 0.172104 sec, comp_time = 0.207847 sec, comm_time = 0.133985 sec, neigh_comm_time = 0.000003 sec, ptp_comm_time = 0.000003 sec, coll_comm_time = 0.133973 sec, T_cmp_b = 0.103924 sec, T_cmp_a = 0.103924 sec, T_comm_b = 0.065815 sec, T_comm_a = 0.068170 sec.
rank 129 Tb = 0.169748 sec, Ta = 0.172100 sec, comp_time = 0.207812 sec, comm_time = 0.134016 sec, neigh_comm_time = 0.000003 sec, ptp_comm_time = 0.000003 sec, coll_comm_time = 0.134004 sec, T_cmp_b = 0.103906 sec, T_cmp_a = 0.103906 sec, T_comm_b = 0.065832 sec, T_comm_a = 0.068184 sec.
rank 11 Tb = 0.169750 sec, Ta = 0.172097 sec, comp_time = 0.207812 sec, comm_time = 0.134016 sec, neigh_comm_time = 0.000003 sec, ptp_comm_time = 0.000003 sec, coll_comm_time = 0.134004 sec, T_cmp_b = 0.103906 sec, T_cmp_a = 0.103906 sec, T_comm_b = 0.065835 sec, T_comm_a = 0.068181 sec.
rank 190 Tb = 0.169747 sec, Ta = 0.172089 sec, comp_time = 0.207812 sec, comm_time = 0.134003 sec, neigh_comm_time = 0.000003 sec, ptp_comm_time = 0.000003 sec, coll_comm_time = 0.133991 sec, T_cmp_b = 0.103906 sec, T_cmp_a = 0.103906 sec, T_comm_b = 0.065830 sec, T_comm_a = 0.068173 sec.
rank 86 Tb = 0.169746 sec, Ta = 0.172096 sec, comp_time = 0.207847 sec, comm_time = 0.133975 sec, neigh_comm_time = 0.000003 sec, ptp_comm_time = 0.000003 sec, coll_comm_time = 0.133964 sec, T_cmp_b = 0.103924 sec, T_cmp_a = 0.103923 sec, T_comm_b = 0.065812 sec, T_comm_a = 0.068163 sec.
rank 80 Tb = 0.169747 sec, Ta = 0.172098 sec, comp_time = 0.207812 sec, comm_time = 0.134012 sec, neigh_comm_time = 0.000003 sec, ptp_comm_time = 0.000003 sec, coll_comm_time = 0.134001 sec, T_cmp_b = 0.103906 sec, T_cmp_a = 0.103906 sec, T_comm_b = 0.065831 sec, T_comm_a = 0.068182 sec.
rank 209 Tb = 0.169746 sec, Ta = 0.172097 sec, comp_time = 0.207812 sec, comm_time = 0.134010 sec, neigh_comm_time = 0.000003 sec, ptp_comm_time = 0.000003 sec, coll_comm_time = 0.133999 sec, T_cmp_b = 0.103906 sec, T_cmp_a = 0.103906 sec, T_comm_b = 0.065830 sec, T_comm_a = 0.068181 sec.
rank 165 Tb = 0.169750 sec, Ta = 0.172102 sec, comp_time = 0.207847 sec, comm_time = 0.133984 sec, neigh_comm_time = 0.000003 sec, ptp_comm_time = 0.000003 sec, coll_comm_time = 0.133973 sec, T_cmp_b = 0.103923 sec, T_cmp_a = 0.103923 sec, T_comm_b = 0.065816 sec, T_comm_a = 0.068168 sec.
rank 74 Tb = 0.169749 sec, Ta = 0.172102 sec, comp_time = 0.207848 sec, comm_time = 0.133983 sec, neigh_comm_time = 0.000003 sec, ptp_comm_time = 0.000003 sec, coll_comm_time = 0.133972 sec, T_cmp_b = 0.103924 sec, T_cmp_a = 0.103924 sec, T_comm_b = 0.065815 sec, T_comm_a = 0.068168 sec.
rank 17 Tb = 0.169750 sec, Ta = 0.172097 sec, comp_time = 0.207811 sec, comm_time = 0.134015 sec, neigh_comm_time = 0.000003 sec, ptp_comm_time = 0.000003 sec, coll_comm_time = 0.134004 sec, T_cmp_b = 0.103906 sec, T_cmp_a = 0.103906 sec, T_comm_b = 0.065834 sec, T_comm_a = 0.068181 sec.
rank 15 Tb = 0.169746 sec, Ta = 0.172098 sec, comp_time = 0.207777 sec, comm_time = 0.134048 sec, neigh_comm_time = 0.000003 sec, ptp_comm_time = 0.000003 sec, coll_comm_time = 0.134037 sec, T_cmp_b = 0.103888 sec, T_cmp_a = 0.103888 sec, T_comm_b = 0.065848 sec, T_comm_a = 0.068200 sec.
rank 27 Tb = 0.169747 sec, Ta = 0.172090 sec, comp_time = 0.207812 sec, comm_time = 0.134005 sec, neigh_comm_time = 0.000003 sec, ptp_comm_time = 0.000003 sec, coll_comm_time = 0.133994 sec, T_cmp_b = 0.103906 sec, T_cmp_a = 0.103906 sec, T_comm_b = 0.065831 sec, T_comm_a = 0.068174 sec.
rank 100 Tb = 0.169745 sec, Ta = 0.172105 sec, comp_time = 0.207848 sec, comm_time = 0.133982 sec, neigh_comm_time = 0.000003 sec, ptp_comm_time = 0.000003 sec, coll_comm_time = 0.133971 sec, T_cmp_b = 0.103924 sec, T_cmp_a = 0.103924 sec, T_comm_b = 0.065811 sec, T_comm_a = 0.068171 sec.
rank 201 Tb = 0.169746 sec, Ta = 0.172105 sec, comp_time = 0.207811 sec, comm_time = 0.134019 sec, neigh_comm_time = 0.000003 sec, ptp_comm_time = 0.000003 sec, coll_comm_time = 0.134008 sec, T_cmp_b = 0.103906 sec, T_cmp_a = 0.103906 sec, T_comm_b = 0.065830 sec, T_comm_a = 0.068189 sec.
rank 213 Tb = 0.169748 sec, Ta = 0.172096 sec, comp_time = 0.207812 sec, comm_time = 0.134012 sec, neigh_comm_time = 0.000003 sec, ptp_comm_time = 0.000003 sec, coll_comm_time = 0.134001 sec, T_cmp_b = 0.103906 sec, T_cmp_a = 0.103906 sec, T_comm_b = 0.065832 sec, T_comm_a = 0.068180 sec.
rank 148 Tb = 0.169749 sec, Ta = 0.172094 sec, comp_time = 0.207847 sec, comm_time = 0.133976 sec, neigh_comm_time = 0.000003 sec, ptp_comm_time = 0.000003 sec, coll_comm_time = 0.133964 sec, T_cmp_b = 0.103924 sec, T_cmp_a = 0.103924 sec, T_comm_b = 0.065815 sec, T_comm_a = 0.068161 sec.
rank 103 Tb = 0.169743 sec, Ta = 0.172103 sec, comp_time = 0.207812 sec, comm_time = 0.134014 sec, neigh_comm_time = 0.000003 sec, ptp_comm_time = 0.000003 sec, coll_comm_time = 0.134002 sec, T_cmp_b = 0.103906 sec, T_cmp_a = 0.103906 sec, T_comm_b = 0.065827 sec, T_comm_a = 0.068187 sec.
rank 161 Tb = 0.169749 sec, Ta = 0.172099 sec, comp_time = 0.207847 sec, comm_time = 0.133981 sec, neigh_comm_time = 0.000003 sec, ptp_comm_time = 0.000003 sec, coll_comm_time = 0.133970 sec, T_cmp_b = 0.103923 sec, T_cmp_a = 0.103923 sec, T_comm_b = 0.065816 sec, T_comm_a = 0.068166 sec.
rank 7 Tb = 0.169742 sec, Ta = 0.172103 sec, comp_time = 0.207742 sec, comm_time = 0.134083 sec, neigh_comm_time = 0.000003 sec, ptp_comm_time = 0.000003 sec, coll_comm_time = 0.134071 sec, T_cmp_b = 0.103871 sec, T_cmp_a = 0.103871 sec, T_comm_b = 0.065861 sec, T_comm_a = 0.068222 sec.
rank 149 Tb = 0.169750 sec, Ta = 0.172093 sec, comp_time = 0.207847 sec, comm_time = 0.133977 sec, neigh_comm_time = 0.000003 sec, ptp_comm_time = 0.000003 sec, coll_comm_time = 0.133965 sec, T_cmp_b = 0.103923 sec, T_cmp_a = 0.103923 sec, T_comm_b = 0.065817 sec, T_comm_a = 0.068160 sec.
rank 84 Tb = 0.169745 sec, Ta = 0.172098 sec, comp_time = 0.207847 sec, comm_time = 0.133975 sec, neigh_comm_time = 0.000003 sec, ptp_comm_time = 0.000003 sec, coll_comm_time = 0.133964 sec, T_cmp_b = 0.103924 sec, T_cmp_a = 0.103924 sec, T_comm_b = 0.065811 sec, T_comm_a = 0.068164 sec.
rank 120 Tb = 0.169743 sec, Ta = 0.172098 sec, comp_time = 0.207777 sec, comm_time = 0.134043 sec, neigh_comm_time = 0.000003 sec, ptp_comm_time = 0.000003 sec, coll_comm_time = 0.134032 sec, T_cmp_b = 0.103888 sec, T_cmp_a = 0.103889 sec, T_comm_b = 0.065845 sec, T_comm_a = 0.068198 sec.
rank 241 Tb = 0.169749 sec, Ta = 0.172095 sec, comp_time = 0.207812 sec, comm_time = 0.134011 sec, neigh_comm_time = 0.000003 sec, ptp_comm_time = 0.000003 sec, coll_comm_time = 0.134000 sec, T_cmp_b = 0.103906 sec, T_cmp_a = 0.103906 sec, T_comm_b = 0.065833 sec, T_comm_a = 0.068179 sec.
rank 134 Tb = 0.169744 sec, Ta = 0.172101 sec, comp_time = 0.207813 sec, comm_time = 0.134011 sec, neigh_comm_time = 0.000003 sec, ptp_comm_time = 0.000003 sec, coll_comm_time = 0.134000 sec, T_cmp_b = 0.103907 sec, T_cmp_a = 0.103906 sec, T_comm_b = 0.065827 sec, T_comm_a = 0.068184 sec.
rank 99 Tb = 0.169745 sec, Ta = 0.172102 sec, comp_time = 0.207848 sec, comm_time = 0.133980 sec, neigh_comm_time = 0.000003 sec, ptp_comm_time = 0.000003 sec, coll_comm_time = 0.133968 sec, T_cmp_b = 0.103924 sec, T_cmp_a = 0.103924 sec, T_comm_b = 0.065811 sec, T_comm_a = 0.068169 sec.
rank 48 Tb = 0.169749 sec, Ta = 0.172097 sec, comp_time = 0.207777 sec, comm_time = 0.134048 sec, neigh_comm_time = 0.000003 sec, ptp_comm_time = 0.000003 sec, coll_comm_time = 0.134036 sec, T_cmp_b = 0.103888 sec, T_cmp_a = 0.103889 sec, T_comm_b = 0.065850 sec, T_comm_a = 0.068198 sec.
rank 1 Tb = 0.169750 sec, Ta = 0.172101 sec, comp_time = 0.207777 sec, comm_time = 0.134053 sec, neigh_comm_time = 0.000003 sec, ptp_comm_time = 0.000003 sec, coll_comm_time = 0.134042 sec, T_cmp_b = 0.103888 sec, T_cmp_a = 0.103889 sec, T_comm_b = 0.065851 sec, T_comm_a = 0.068202 sec.
rank 145 Tb = 0.169749 sec, Ta = 0.172094 sec, comp_time = 0.207847 sec, comm_time = 0.133976 sec, neigh_comm_time = 0.000003 sec, ptp_comm_time = 0.000003 sec, coll_comm_time = 0.133965 sec, T_cmp_b = 0.103923 sec, T_cmp_a = 0.103923 sec, T_comm_b = 0.065816 sec, T_comm_a = 0.068161 sec.
rank 197 Tb = 0.169747 sec, Ta = 0.172103 sec, comp_time = 0.207777 sec, comm_time = 0.134053 sec, neigh_comm_time = 0.000003 sec, ptp_comm_time = 0.000003 sec, coll_comm_time = 0.134042 sec, T_cmp_b = 0.103888 sec, T_cmp_a = 0.103888 sec, T_comm_b = 0.065849 sec, T_comm_a = 0.068204 sec.
rank 98 Tb = 0.169748 sec, Ta = 0.172102 sec, comp_time = 0.207848 sec, comm_time = 0.133981 sec, neigh_comm_time = 0.000003 sec, ptp_comm_time = 0.000003 sec, coll_comm_time = 0.133970 sec, T_cmp_b = 0.103924 sec, T_cmp_a = 0.103924 sec, T_comm_b = 0.065814 sec, T_comm_a = 0.068168 sec.
rank 212 Tb = 0.169742 sec, Ta = 0.172097 sec, comp_time = 0.207812 sec, comm_time = 0.134007 sec, neigh_comm_time = 0.000003 sec, ptp_comm_time = 0.000003 sec, coll_comm_time = 0.133995 sec, T_cmp_b = 0.103906 sec, T_cmp_a = 0.103906 sec, T_comm_b = 0.065826 sec, T_comm_a = 0.068180 sec.
rank 54 Tb = 0.169747 sec, Ta = 0.172095 sec, comp_time = 0.207812 sec, comm_time = 0.134010 sec, neigh_comm_time = 0.000003 sec, ptp_comm_time = 0.000003 sec, coll_comm_time = 0.133999 sec, T_cmp_b = 0.103906 sec, T_cmp_a = 0.103906 sec, T_comm_b = 0.065831 sec, T_comm_a = 0.068179 sec.
rank 111 Tb = 0.169748 sec, Ta = 0.172104 sec, comp_time = 0.207812 sec, comm_time = 0.134020 sec, neigh_comm_time = 0.000003 sec, ptp_comm_time = 0.000003 sec, coll_comm_time = 0.134008 sec, T_cmp_b = 0.103906 sec, T_cmp_a = 0.103906 sec, T_comm_b = 0.065832 sec, T_comm_a = 0.068188 sec.
rank 128 Tb = 0.169742 sec, Ta = 0.172101 sec, comp_time = 0.207778 sec, comm_time = 0.134045 sec, neigh_comm_time = 0.000003 sec, ptp_comm_time = 0.000003 sec, coll_comm_time = 0.134033 sec, T_cmp_b = 0.103889 sec, T_cmp_a = 0.103889 sec, T_comm_b = 0.065843 sec, T_comm_a = 0.068202 sec.
rank 37 Tb = 0.169748 sec, Ta = 0.172103 sec, comp_time = 0.207812 sec, comm_time = 0.134019 sec, neigh_comm_time = 0.000003 sec, ptp_comm_time = 0.000003 sec, coll_comm_time = 0.134008 sec, T_cmp_b = 0.103906 sec, T_cmp_a = 0.103906 sec, T_comm_b = 0.065832 sec, T_comm_a = 0.068187 sec.
rank 181 Tb = 0.169753 sec, Ta = 0.172094 sec, comp_time = 0.207847 sec, comm_time = 0.133980 sec, neigh_comm_time = 0.000003 sec, ptp_comm_time = 0.000003 sec, coll_comm_time = 0.133969 sec, T_cmp_b = 0.103923 sec, T_cmp_a = 0.103924 sec, T_comm_b = 0.065820 sec, T_comm_a = 0.068161 sec.
rank 245 Tb = 0.169751 sec, Ta = 0.172095 sec, comp_time = 0.207812 sec, comm_time = 0.134014 sec, neigh_comm_time = 0.000003 sec, ptp_comm_time = 0.000003 sec, coll_comm_time = 0.134002 sec, T_cmp_b = 0.103906 sec, T_cmp_a = 0.103906 sec, T_comm_b = 0.065835 sec, T_comm_a = 0.068179 sec.
rank 114 Tb = 0.169749 sec, Ta = 0.172099 sec, comp_time = 0.207848 sec, comm_time = 0.133979 sec, neigh_comm_time = 0.000003 sec, ptp_comm_time = 0.000003 sec, coll_comm_time = 0.133967 sec, T_cmp_b = 0.103924 sec, T_cmp_a = 0.103924 sec, T_comm_b = 0.065815 sec, T_comm_a = 0.068164 sec.
rank 208 Tb = 0.169744 sec, Ta = 0.172098 sec, comp_time = 0.207777 sec, comm_time = 0.134044 sec, neigh_comm_time = 0.000003 sec, ptp_comm_time = 0.000003 sec, coll_comm_time = 0.134033 sec, T_cmp_b = 0.103889 sec, T_cmp_a = 0.103888 sec, T_comm_b = 0.065845 sec, T_comm_a = 0.068199 sec.
rank 166 Tb = 0.169747 sec, Ta = 0.172099 sec, comp_time = 0.207848 sec, comm_time = 0.133978 sec, neigh_comm_time = 0.000003 sec, ptp_comm_time = 0.000003 sec, coll_comm_time = 0.133967 sec, T_cmp_b = 0.103924 sec, T_cmp_a = 0.103924 sec, T_comm_b = 0.065813 sec, T_comm_a = 0.068165 sec.
rank 235 Tb = 0.169745 sec, Ta = 0.172101 sec, comp_time = 0.207812 sec, comm_time = 0.134014 sec, neigh_comm_time = 0.000003 sec, ptp_comm_time = 0.000003 sec, coll_comm_time = 0.134003 sec, T_cmp_b = 0.103906 sec, T_cmp_a = 0.103906 sec, T_comm_b = 0.065829 sec, T_comm_a = 0.068185 sec.
rank 16 Tb = 0.169750 sec, Ta = 0.172098 sec, comp_time = 0.207777 sec, comm_time = 0.134050 sec, neigh_comm_time = 0.000003 sec, ptp_comm_time = 0.000003 sec, coll_comm_time = 0.134038 sec, T_cmp_b = 0.103889 sec, T_cmp_a = 0.103889 sec, T_comm_b = 0.065851 sec, T_comm_a = 0.068199 sec.
rank 33 Tb = 0.169749 sec, Ta = 0.172101 sec, comp_time = 0.207812 sec, comm_time = 0.134018 sec, neigh_comm_time = 0.000003 sec, ptp_comm_time = 0.000003 sec, coll_comm_time = 0.134007 sec, T_cmp_b = 0.103906 sec, T_cmp_a = 0.103906 sec, T_comm_b = 0.065833 sec, T_comm_a = 0.068185 sec.
rank 177 Tb = 0.169750 sec, Ta = 0.172095 sec, comp_time = 0.207847 sec, comm_time = 0.133977 sec, neigh_comm_time = 0.000003 sec, ptp_comm_time = 0.000003 sec, coll_comm_time = 0.133966 sec, T_cmp_b = 0.103923 sec, T_cmp_a = 0.103923 sec, T_comm_b = 0.065816 sec, T_comm_a = 0.068161 sec.
rank 204 Tb = 0.169751 sec, Ta = 0.172104 sec, comp_time = 0.207812 sec, comm_time = 0.134022 sec, neigh_comm_time = 0.000003 sec, ptp_comm_time = 0.000003 sec, coll_comm_time = 0.134011 sec, T_cmp_b = 0.103906 sec, T_cmp_a = 0.103906 sec, T_comm_b = 0.065835 sec, T_comm_a = 0.068188 sec.
rank 194 Tb = 0.169749 sec, Ta = 0.172102 sec, comp_time = 0.207778 sec, comm_time = 0.134052 sec, neigh_comm_time = 0.000003 sec, ptp_comm_time = 0.000003 sec, coll_comm_time = 0.134041 sec, T_cmp_b = 0.103889 sec, T_cmp_a = 0.103889 sec, T_comm_b = 0.065850 sec, T_comm_a = 0.068202 sec.
rank 214 Tb = 0.169746 sec, Ta = 0.172098 sec, comp_time = 0.207813 sec, comm_time = 0.134011 sec, neigh_comm_time = 0.000003 sec, ptp_comm_time = 0.000003 sec, coll_comm_time = 0.134000 sec, T_cmp_b = 0.103907 sec, T_cmp_a = 0.103906 sec, T_comm_b = 0.065829 sec, T_comm_a = 0.068182 sec.
rank 52 Tb = 0.169748 sec, Ta = 0.172096 sec, comp_time = 0.207812 sec, comm_time = 0.134011 sec, neigh_comm_time = 0.000003 sec, ptp_comm_time = 0.000003 sec, coll_comm_time = 0.133999 sec, T_cmp_b = 0.103906 sec, T_cmp_a = 0.103906 sec, T_comm_b = 0.065831 sec, T_comm_a = 0.068180 sec.
rank 70 Tb = 0.169745 sec, Ta = 0.172105 sec, comp_time = 0.207813 sec, comm_time = 0.134017 sec, neigh_comm_time = 0.000003 sec, ptp_comm_time = 0.000003 sec, coll_comm_time = 0.134006 sec, T_cmp_b = 0.103907 sec, T_cmp_a = 0.103906 sec, T_comm_b = 0.065828 sec, T_comm_a = 0.068189 sec.
rank 160 Tb = 0.169741 sec, Ta = 0.172100 sec, comp_time = 0.207812 sec, comm_time = 0.134009 sec, neigh_comm_time = 0.000003 sec, ptp_comm_time = 0.000003 sec, coll_comm_time = 0.133997 sec, T_cmp_b = 0.103906 sec, T_cmp_a = 0.103906 sec, T_comm_b = 0.065825 sec, T_comm_a = 0.068184 sec.
rank 6 Tb = 0.169742 sec, Ta = 0.172103 sec, comp_time = 0.207778 sec, comm_time = 0.134047 sec, neigh_comm_time = 0.000003 sec, ptp_comm_time = 0.000003 sec, coll_comm_time = 0.134036 sec, T_cmp_b = 0.103889 sec, T_cmp_a = 0.103889 sec, T_comm_b = 0.065843 sec, T_comm_a = 0.068205 sec.
rank 150 Tb = 0.169746 sec, Ta = 0.172093 sec, comp_time = 0.207848 sec, comm_time = 0.133971 sec, neigh_comm_time = 0.000003 sec, ptp_comm_time = 0.000003 sec, coll_comm_time = 0.133959 sec, T_cmp_b = 0.103924 sec, T_cmp_a = 0.103924 sec, T_comm_b = 0.065812 sec, T_comm_a = 0.068159 sec.
rank 126 Tb = 0.169747 sec, Ta = 0.172095 sec, comp_time = 0.207813 sec, comm_time = 0.134010 sec, neigh_comm_time = 0.000003 sec, ptp_comm_time = 0.000003 sec, coll_comm_time = 0.133998 sec, T_cmp_b = 0.103906 sec, T_cmp_a = 0.103906 sec, T_comm_b = 0.065831 sec, T_comm_a = 0.068179 sec.
rank 115 Tb = 0.169749 sec, Ta = 0.172098 sec, comp_time = 0.207847 sec, comm_time = 0.133980 sec, neigh_comm_time = 0.000003 sec, ptp_comm_time = 0.000003 sec, coll_comm_time = 0.133968 sec, T_cmp_b = 0.103923 sec, T_cmp_a = 0.103923 sec, T_comm_b = 0.065816 sec, T_comm_a = 0.068164 sec.
rank 240 Tb = 0.169748 sec, Ta = 0.172097 sec, comp_time = 0.207777 sec, comm_time = 0.134048 sec, neigh_comm_time = 0.000003 sec, ptp_comm_time = 0.000003 sec, coll_comm_time = 0.134036 sec, T_cmp_b = 0.103889 sec, T_cmp_a = 0.103888 sec, T_comm_b = 0.065850 sec, T_comm_a = 0.068198 sec.
rank 135 Tb = 0.169739 sec, Ta = 0.172101 sec, comp_time = 0.207777 sec, comm_time = 0.134044 sec, neigh_comm_time = 0.000003 sec, ptp_comm_time = 0.000003 sec, coll_comm_time = 0.134032 sec, T_cmp_b = 0.103888 sec, T_cmp_a = 0.103889 sec, T_comm_b = 0.065841 sec, T_comm_a = 0.068203 sec.
rank 106 Tb = 0.169744 sec, Ta = 0.172103 sec, comp_time = 0.207848 sec, comm_time = 0.133979 sec, neigh_comm_time = 0.000003 sec, ptp_comm_time = 0.000003 sec, coll_comm_time = 0.133968 sec, T_cmp_b = 0.103924 sec, T_cmp_a = 0.103924 sec, T_comm_b = 0.065810 sec, T_comm_a = 0.068169 sec.
rank 130 Tb = 0.169744 sec, Ta = 0.172100 sec, comp_time = 0.207813 sec, comm_time = 0.134010 sec, neigh_comm_time = 0.000003 sec, ptp_comm_time = 0.000003 sec, coll_comm_time = 0.133999 sec, T_cmp_b = 0.103907 sec, T_cmp_a = 0.103906 sec, T_comm_b = 0.065827 sec, T_comm_a = 0.068183 sec.
rank 32 Tb = 0.169743 sec, Ta = 0.172103 sec, comp_time = 0.207777 sec, comm_time = 0.134048 sec, neigh_comm_time = 0.000003 sec, ptp_comm_time = 0.000003 sec, coll_comm_time = 0.134036 sec, T_cmp_b = 0.103888 sec, T_cmp_a = 0.103889 sec, T_comm_b = 0.065844 sec, T_comm_a = 0.068204 sec.
rank 144 Tb = 0.169746 sec, Ta = 0.172095 sec, comp_time = 0.207812 sec, comm_time = 0.134009 sec, neigh_comm_time = 0.000003 sec, ptp_comm_time = 0.000003 sec, coll_comm_time = 0.133997 sec, T_cmp_b = 0.103906 sec, T_cmp_a = 0.103906 sec, T_comm_b = 0.065829 sec, T_comm_a = 0.068179 sec.
rank 198 Tb = 0.169746 sec, Ta = 0.172103 sec, comp_time = 0.207777 sec, comm_time = 0.134051 sec, neigh_comm_time = 0.000003 sec, ptp_comm_time = 0.000003 sec, coll_comm_time = 0.134040 sec, T_cmp_b = 0.103889 sec, T_cmp_a = 0.103888 sec, T_comm_b = 0.065847 sec, T_comm_a = 0.068204 sec.
rank 234 Tb = 0.169748 sec, Ta = 0.172100 sec, comp_time = 0.207813 sec, comm_time = 0.134015 sec, neigh_comm_time = 0.000003 sec, ptp_comm_time = 0.000003 sec, coll_comm_time = 0.134004 sec, T_cmp_b = 0.103907 sec, T_cmp_a = 0.103906 sec, T_comm_b = 0.065831 sec, T_comm_a = 0.068184 sec.
rank 246 Tb = 0.169751 sec, Ta = 0.172093 sec, comp_time = 0.207813 sec, comm_time = 0.134011 sec, neigh_comm_time = 0.000003 sec, ptp_comm_time = 0.000003 sec, coll_comm_time = 0.134000 sec, T_cmp_b = 0.103907 sec, T_cmp_a = 0.103907 sec, T_comm_b = 0.065835 sec, T_comm_a = 0.068177 sec.
rank 21 Tb = 0.169751 sec, Ta = 0.172096 sec, comp_time = 0.207812 sec, comm_time = 0.134014 sec, neigh_comm_time = 0.000003 sec, ptp_comm_time = 0.000003 sec, coll_comm_time = 0.134003 sec, T_cmp_b = 0.103906 sec, T_cmp_a = 0.103906 sec, T_comm_b = 0.065835 sec, T_comm_a = 0.068180 sec.
rank 68 Tb = 0.169746 sec, Ta = 0.172106 sec, comp_time = 0.207812 sec, comm_time = 0.134019 sec, neigh_comm_time = 0.000003 sec, ptp_comm_time = 0.000003 sec, coll_comm_time = 0.134007 sec, T_cmp_b = 0.103906 sec, T_cmp_a = 0.103906 sec, T_comm_b = 0.065829 sec, T_comm_a = 0.068189 sec.
rank 146 Tb = 0.169746 sec, Ta = 0.172097 sec, comp_time = 0.207848 sec, comm_time = 0.133974 sec, neigh_comm_time = 0.000003 sec, ptp_comm_time = 0.000003 sec, coll_comm_time = 0.133962 sec, T_cmp_b = 0.103924 sec, T_cmp_a = 0.103924 sec, T_comm_b = 0.065811 sec, T_comm_a = 0.068162 sec.
rank 4 Tb = 0.169747 sec, Ta = 0.172104 sec, comp_time = 0.207778 sec, comm_time = 0.134052 sec, neigh_comm_time = 0.000003 sec, ptp_comm_time = 0.000003 sec, coll_comm_time = 0.134041 sec, T_cmp_b = 0.103889 sec, T_cmp_a = 0.103889 sec, T_comm_b = 0.065848 sec, T_comm_a = 0.068204 sec.
rank 151 Tb = 0.169745 sec, Ta = 0.172094 sec, comp_time = 0.207812 sec, comm_time = 0.134007 sec, neigh_comm_time = 0.000003 sec, ptp_comm_time = 0.000003 sec, coll_comm_time = 0.133995 sec, T_cmp_b = 0.103906 sec, T_cmp_a = 0.103906 sec, T_comm_b = 0.065829 sec, T_comm_a = 0.068178 sec.
rank 119 Tb = 0.169744 sec, Ta = 0.172096 sec, comp_time = 0.207812 sec, comm_time = 0.134008 sec, neigh_comm_time = 0.000003 sec, ptp_comm_time = 0.000003 sec, coll_comm_time = 0.133996 sec, T_cmp_b = 0.103906 sec, T_cmp_a = 0.103906 sec, T_comm_b = 0.065828 sec, T_comm_a = 0.068180 sec.
rank 82 Tb = 0.169743 sec, Ta = 0.172099 sec, comp_time = 0.207848 sec, comm_time = 0.133975 sec, neigh_comm_time = 0.000003 sec, ptp_comm_time = 0.000003 sec, coll_comm_time = 0.133963 sec, T_cmp_b = 0.103924 sec, T_cmp_a = 0.103924 sec, T_comm_b = 0.065810 sec, T_comm_a = 0.068165 sec.
rank 122 Tb = 0.169748 sec, Ta = 0.172095 sec, comp_time = 0.207813 sec, comm_time = 0.134010 sec, neigh_comm_time = 0.000003 sec, ptp_comm_time = 0.000003 sec, coll_comm_time = 0.133999 sec, T_cmp_b = 0.103907 sec, T_cmp_a = 0.103906 sec, T_comm_b = 0.065832 sec, T_comm_a = 0.068179 sec.
rank 132 Tb = 0.169743 sec, Ta = 0.172101 sec, comp_time = 0.207812 sec, comm_time = 0.134012 sec, neigh_comm_time = 0.000003 sec, ptp_comm_time = 0.000003 sec, coll_comm_time = 0.134000 sec, T_cmp_b = 0.103906 sec, T_cmp_a = 0.103906 sec, T_comm_b = 0.065827 sec, T_comm_a = 0.068185 sec.
rank 75 Tb = 0.169745 sec, Ta = 0.172102 sec, comp_time = 0.207847 sec, comm_time = 0.133981 sec, neigh_comm_time = 0.000003 sec, ptp_comm_time = 0.000003 sec, coll_comm_time = 0.133970 sec, T_cmp_b = 0.103923 sec, T_cmp_a = 0.103923 sec, T_comm_b = 0.065812 sec, T_comm_a = 0.068169 sec.
rank 131 Tb = 0.169744 sec, Ta = 0.172100 sec, comp_time = 0.207812 sec, comm_time = 0.134013 sec, neigh_comm_time = 0.000003 sec, ptp_comm_time = 0.000003 sec, coll_comm_time = 0.134002 sec, T_cmp_b = 0.103906 sec, T_cmp_a = 0.103906 sec, T_comm_b = 0.065829 sec, T_comm_a = 0.068184 sec.
rank 2 Tb = 0.169746 sec, Ta = 0.172102 sec, comp_time = 0.207778 sec, comm_time = 0.134050 sec, neigh_comm_time = 0.000003 sec, ptp_comm_time = 0.000003 sec, coll_comm_time = 0.134038 sec, T_cmp_b = 0.103889 sec, T_cmp_a = 0.103889 sec, T_comm_b = 0.065847 sec, T_comm_a = 0.068203 sec.
rank 176 Tb = 0.169749 sec, Ta = 0.172096 sec, comp_time = 0.207812 sec, comm_time = 0.134012 sec, neigh_comm_time = 0.000003 sec, ptp_comm_time = 0.000003 sec, coll_comm_time = 0.134000 sec, T_cmp_b = 0.103906 sec, T_cmp_a = 0.103906 sec, T_comm_b = 0.065832 sec, T_comm_a = 0.068179 sec.
rank 206 Tb = 0.169746 sec, Ta = 0.172104 sec, comp_time = 0.207813 sec, comm_time = 0.134018 sec, neigh_comm_time = 0.000003 sec, ptp_comm_time = 0.000003 sec, coll_comm_time = 0.134006 sec, T_cmp_b = 0.103907 sec, T_cmp_a = 0.103906 sec, T_comm_b = 0.065829 sec, T_comm_a = 0.068188 sec.
rank 195 Tb = 0.169745 sec, Ta = 0.172103 sec, comp_time = 0.207777 sec, comm_time = 0.134051 sec, neigh_comm_time = 0.000003 sec, ptp_comm_time = 0.000003 sec, coll_comm_time = 0.134040 sec, T_cmp_b = 0.103889 sec, T_cmp_a = 0.103888 sec, T_comm_b = 0.065847 sec, T_comm_a = 0.068204 sec.
rank 247 Tb = 0.169742 sec, Ta = 0.172094 sec, comp_time = 0.207777 sec, comm_time = 0.134039 sec, neigh_comm_time = 0.000003 sec, ptp_comm_time = 0.000003 sec, coll_comm_time = 0.134027 sec, T_cmp_b = 0.103888 sec, T_cmp_a = 0.103888 sec, T_comm_b = 0.065843 sec, T_comm_a = 0.068196 sec.
rank 20 Tb = 0.169748 sec, Ta = 0.172097 sec, comp_time = 0.207812 sec, comm_time = 0.134012 sec, neigh_comm_time = 0.000003 sec, ptp_comm_time = 0.000003 sec, coll_comm_time = 0.134001 sec, T_cmp_b = 0.103906 sec, T_cmp_a = 0.103906 sec, T_comm_b = 0.065832 sec, T_comm_a = 0.068180 sec.
rank 71 Tb = 0.169741 sec, Ta = 0.172105 sec, comp_time = 0.207777 sec, comm_time = 0.134049 sec, neigh_comm_time = 0.000003 sec, ptp_comm_time = 0.000003 sec, coll_comm_time = 0.134038 sec, T_cmp_b = 0.103888 sec, T_cmp_a = 0.103888 sec, T_comm_b = 0.065842 sec, T_comm_a = 0.068207 sec.
rank 50 Tb = 0.169749 sec, Ta = 0.172099 sec, comp_time = 0.207813 sec, comm_time = 0.134015 sec, neigh_comm_time = 0.000003 sec, ptp_comm_time = 0.000003 sec, coll_comm_time = 0.134003 sec, T_cmp_b = 0.103907 sec, T_cmp_a = 0.103906 sec, T_comm_b = 0.065832 sec, T_comm_a = 0.068183 sec.
rank 38 Tb = 0.169747 sec, Ta = 0.172103 sec, comp_time = 0.207813 sec, comm_time = 0.134016 sec, neigh_comm_time = 0.000003 sec, ptp_comm_time = 0.000003 sec, coll_comm_time = 0.134004 sec, T_cmp_b = 0.103906 sec, T_cmp_a = 0.103906 sec, T_comm_b = 0.065830 sec, T_comm_a = 0.068186 sec.
rank 182 Tb = 0.169748 sec, Ta = 0.172094 sec, comp_time = 0.207848 sec, comm_time = 0.133974 sec, neigh_comm_time = 0.000003 sec, ptp_comm_time = 0.000003 sec, coll_comm_time = 0.133962 sec, T_cmp_b = 0.103924 sec, T_cmp_a = 0.103924 sec, T_comm_b = 0.065813 sec, T_comm_a = 0.068160 sec.
rank 87 Tb = 0.169743 sec, Ta = 0.172097 sec, comp_time = 0.207812 sec, comm_time = 0.134007 sec, neigh_comm_time = 0.000003 sec, ptp_comm_time = 0.000003 sec, coll_comm_time = 0.133996 sec, T_cmp_b = 0.103906 sec, T_cmp_a = 0.103906 sec, T_comm_b = 0.065826 sec, T_comm_a = 0.068181 sec.
rank 123 Tb = 0.169745 sec, Ta = 0.172094 sec, comp_time = 0.207812 sec, comm_time = 0.134007 sec, neigh_comm_time = 0.000003 sec, ptp_comm_time = 0.000003 sec, coll_comm_time = 0.133995 sec, T_cmp_b = 0.103906 sec, T_cmp_a = 0.103906 sec, T_comm_b = 0.065829 sec, T_comm_a = 0.068178 sec.
rank 242 Tb = 0.169748 sec, Ta = 0.172098 sec, comp_time = 0.207813 sec, comm_time = 0.134013 sec, neigh_comm_time = 0.000003 sec, ptp_comm_time = 0.000003 sec, coll_comm_time = 0.134001 sec, T_cmp_b = 0.103906 sec, T_cmp_a = 0.103906 sec, T_comm_b = 0.065831 sec, T_comm_a = 0.068182 sec.
rank 167 Tb = 0.169745 sec, Ta = 0.172101 sec, comp_time = 0.207812 sec, comm_time = 0.134014 sec, neigh_comm_time = 0.000003 sec, ptp_comm_time = 0.000003 sec, coll_comm_time = 0.134003 sec, T_cmp_b = 0.103906 sec, T_cmp_a = 0.103906 sec, T_comm_b = 0.065829 sec, T_comm_a = 0.068185 sec.
rank 66 Tb = 0.169746 sec, Ta = 0.172105 sec, comp_time = 0.207813 sec, comm_time = 0.134019 sec, neigh_comm_time = 0.000003 sec, ptp_comm_time = 0.000003 sec, coll_comm_time = 0.134008 sec, T_cmp_b = 0.103906 sec, T_cmp_a = 0.103906 sec, T_comm_b = 0.065830 sec, T_comm_a = 0.068189 sec.
rank 162 Tb = 0.169749 sec, Ta = 0.172100 sec, comp_time = 0.207847 sec, comm_time = 0.133982 sec, neigh_comm_time = 0.000003 sec, ptp_comm_time = 0.000003 sec, coll_comm_time = 0.133970 sec, T_cmp_b = 0.103924 sec, T_cmp_a = 0.103924 sec, T_comm_b = 0.065815 sec, T_comm_a = 0.068167 sec.
rank 34 Tb = 0.169748 sec, Ta = 0.172103 sec, comp_time = 0.207813 sec, comm_time = 0.134017 sec, neigh_comm_time = 0.000003 sec, ptp_comm_time = 0.000003 sec, coll_comm_time = 0.134005 sec, T_cmp_b = 0.103907 sec, T_cmp_a = 0.103906 sec, T_comm_b = 0.065831 sec, T_comm_a = 0.068186 sec.
rank 147 Tb = 0.169746 sec, Ta = 0.172095 sec, comp_time = 0.207847 sec, comm_time = 0.133975 sec, neigh_comm_time = 0.000003 sec, ptp_comm_time = 0.000003 sec, coll_comm_time = 0.133963 sec, T_cmp_b = 0.103923 sec, T_cmp_a = 0.103923 sec, T_comm_b = 0.065813 sec, T_comm_a = 0.068162 sec.
rank 196 Tb = 0.169748 sec, Ta = 0.172104 sec, comp_time = 0.207778 sec, comm_time = 0.134054 sec, neigh_comm_time = 0.000003 sec, ptp_comm_time = 0.000003 sec, coll_comm_time = 0.134043 sec, T_cmp_b = 0.103889 sec, T_cmp_a = 0.103889 sec, T_comm_b = 0.065849 sec, T_comm_a = 0.068205 sec.
rank 200 Tb = 0.169744 sec, Ta = 0.172107 sec, comp_time = 0.207777 sec, comm_time = 0.134053 sec, neigh_comm_time = 0.000003 sec, ptp_comm_time = 0.000003 sec, coll_comm_time = 0.134042 sec, T_cmp_b = 0.103888 sec, T_cmp_a = 0.103888 sec, T_comm_b = 0.065845 sec, T_comm_a = 0.068208 sec.
rank 244 Tb = 0.169750 sec, Ta = 0.172096 sec, comp_time = 0.207812 sec, comm_time = 0.134014 sec, neigh_comm_time = 0.000003 sec, ptp_comm_time = 0.000003 sec, coll_comm_time = 0.134002 sec, T_cmp_b = 0.103906 sec, T_cmp_a = 0.103906 sec, T_comm_b = 0.065834 sec, T_comm_a = 0.068180 sec.
rank 22 Tb = 0.169747 sec, Ta = 0.172097 sec, comp_time = 0.207813 sec, comm_time = 0.134011 sec, neigh_comm_time = 0.000003 sec, ptp_comm_time = 0.000003 sec, coll_comm_time = 0.134000 sec, T_cmp_b = 0.103907 sec, T_cmp_a = 0.103906 sec, T_comm_b = 0.065830 sec, T_comm_a = 0.068181 sec.
rank 69 Tb = 0.169747 sec, Ta = 0.172104 sec, comp_time = 0.207812 sec, comm_time = 0.134019 sec, neigh_comm_time = 0.000003 sec, ptp_comm_time = 0.000003 sec, coll_comm_time = 0.134007 sec, T_cmp_b = 0.103906 sec, T_cmp_a = 0.103906 sec, T_comm_b = 0.065830 sec, T_comm_a = 0.068188 sec.
rank 18 Tb = 0.169746 sec, Ta = 0.172099 sec, comp_time = 0.207813 sec, comm_time = 0.134012 sec, neigh_comm_time = 0.000003 sec, ptp_comm_time = 0.000003 sec, coll_comm_time = 0.134000 sec, T_cmp_b = 0.103907 sec, T_cmp_a = 0.103906 sec, T_comm_b = 0.065829 sec, T_comm_a = 0.068183 sec.
rank 36 Tb = 0.169747 sec, Ta = 0.172104 sec, comp_time = 0.207812 sec, comm_time = 0.134019 sec, neigh_comm_time = 0.000003 sec, ptp_comm_time = 0.000003 sec, coll_comm_time = 0.134007 sec, T_cmp_b = 0.103906 sec, T_cmp_a = 0.103906 sec, T_comm_b = 0.065831 sec, T_comm_a = 0.068188 sec.
rank 180 Tb = 0.169746 sec, Ta = 0.172095 sec, comp_time = 0.207847 sec, comm_time = 0.133973 sec, neigh_comm_time = 0.000003 sec, ptp_comm_time = 0.000003 sec, coll_comm_time = 0.133962 sec, T_cmp_b = 0.103924 sec, T_cmp_a = 0.103924 sec, T_comm_b = 0.065812 sec, T_comm_a = 0.068161 sec.
rank 207 Tb = 0.169745 sec, Ta = 0.172105 sec, comp_time = 0.207777 sec, comm_time = 0.134052 sec, neigh_comm_time = 0.000003 sec, ptp_comm_time = 0.000003 sec, coll_comm_time = 0.134041 sec, T_cmp_b = 0.103888 sec, T_cmp_a = 0.103889 sec, T_comm_b = 0.065846 sec, T_comm_a = 0.068206 sec.
rank 83 Tb = 0.169743 sec, Ta = 0.172099 sec, comp_time = 0.207847 sec, comm_time = 0.133975 sec, neigh_comm_time = 0.000003 sec, ptp_comm_time = 0.000003 sec, coll_comm_time = 0.133963 sec, T_cmp_b = 0.103924 sec, T_cmp_a = 0.103924 sec, T_comm_b = 0.065809 sec, T_comm_a = 0.068165 sec.
rank 210 Tb = 0.169743 sec, Ta = 0.172100 sec, comp_time = 0.207813 sec, comm_time = 0.134009 sec, neigh_comm_time = 0.000003 sec, ptp_comm_time = 0.000003 sec, coll_comm_time = 0.133997 sec, T_cmp_b = 0.103907 sec, T_cmp_a = 0.103906 sec, T_comm_b = 0.065826 sec, T_comm_a = 0.068183 sec.
rank 164 Tb = 0.169745 sec, Ta = 0.172102 sec, comp_time = 0.207847 sec, comm_time = 0.133980 sec, neigh_comm_time = 0.000003 sec, ptp_comm_time = 0.000003 sec, coll_comm_time = 0.133968 sec, T_cmp_b = 0.103924 sec, T_cmp_a = 0.103924 sec, T_comm_b = 0.065811 sec, T_comm_a = 0.068169 sec.
rank 107 Tb = 0.169744 sec, Ta = 0.172103 sec, comp_time = 0.207847 sec, comm_time = 0.133979 sec, neigh_comm_time = 0.000003 sec, ptp_comm_time = 0.000003 sec, coll_comm_time = 0.133968 sec, T_cmp_b = 0.103924 sec, T_cmp_a = 0.103923 sec, T_comm_b = 0.065810 sec, T_comm_a = 0.068169 sec.
rank 163 Tb = 0.169743 sec, Ta = 0.172100 sec, comp_time = 0.207847 sec, comm_time = 0.133976 sec, neigh_comm_time = 0.000003 sec, ptp_comm_time = 0.000003 sec, coll_comm_time = 0.133964 sec, T_cmp_b = 0.103924 sec, T_cmp_a = 0.103923 sec, T_comm_b = 0.065809 sec, T_comm_a = 0.068167 sec.
rank 35 Tb = 0.169745 sec, Ta = 0.172103 sec, comp_time = 0.207812 sec, comm_time = 0.134017 sec, neigh_comm_time = 0.000003 sec, ptp_comm_time = 0.000003 sec, coll_comm_time = 0.134005 sec, T_cmp_b = 0.103906 sec, T_cmp_a = 0.103906 sec, T_comm_b = 0.065830 sec, T_comm_a = 0.068187 sec.
rank 178 Tb = 0.169749 sec, Ta = 0.172098 sec, comp_time = 0.207848 sec, comm_time = 0.133980 sec, neigh_comm_time = 0.000003 sec, ptp_comm_time = 0.000003 sec, coll_comm_time = 0.133968 sec, T_cmp_b = 0.103924 sec, T_cmp_a = 0.103924 sec, T_comm_b = 0.065815 sec, T_comm_a = 0.068164 sec.
rank 127 Tb = 0.169742 sec, Ta = 0.172099 sec, comp_time = 0.207777 sec, comm_time = 0.134044 sec, neigh_comm_time = 0.000003 sec, ptp_comm_time = 0.000003 sec, coll_comm_time = 0.134033 sec, T_cmp_b = 0.103888 sec, T_cmp_a = 0.103889 sec, T_comm_b = 0.065844 sec, T_comm_a = 0.068200 sec.
rank 202 Tb = 0.169749 sec, Ta = 0.172103 sec, comp_time = 0.207813 sec, comm_time = 0.134020 sec, neigh_comm_time = 0.000003 sec, ptp_comm_time = 0.000003 sec, coll_comm_time = 0.134008 sec, T_cmp_b = 0.103906 sec, T_cmp_a = 0.103906 sec, T_comm_b = 0.065833 sec, T_comm_a = 0.068187 sec.
rank 215 Tb = 0.169738 sec, Ta = 0.172099 sec, comp_time = 0.207777 sec, comm_time = 0.134040 sec, neigh_comm_time = 0.000003 sec, ptp_comm_time = 0.000003 sec, coll_comm_time = 0.134029 sec, T_cmp_b = 0.103889 sec, T_cmp_a = 0.103888 sec, T_comm_b = 0.065840 sec, T_comm_a = 0.068200 sec.
rank 55 Tb = 0.169746 sec, Ta = 0.172095 sec, comp_time = 0.207777 sec, comm_time = 0.134044 sec, neigh_comm_time = 0.000003 sec, ptp_comm_time = 0.000003 sec, coll_comm_time = 0.134033 sec, T_cmp_b = 0.103889 sec, T_cmp_a = 0.103889 sec, T_comm_b = 0.065848 sec, T_comm_a = 0.068197 sec.
rank 79 Tb = 0.169743 sec, Ta = 0.172106 sec, comp_time = 0.207812 sec, comm_time = 0.134017 sec, neigh_comm_time = 0.000003 sec, ptp_comm_time = 0.000003 sec, coll_comm_time = 0.134006 sec, T_cmp_b = 0.103906 sec, T_cmp_a = 0.103906 sec, T_comm_b = 0.065827 sec, T_comm_a = 0.068190 sec.
rank 51 Tb = 0.169747 sec, Ta = 0.172098 sec, comp_time = 0.207812 sec, comm_time = 0.134013 sec, neigh_comm_time = 0.000003 sec, ptp_comm_time = 0.000003 sec, coll_comm_time = 0.134002 sec, T_cmp_b = 0.103906 sec, T_cmp_a = 0.103906 sec, T_comm_b = 0.065831 sec, T_comm_a = 0.068182 sec.
rank 39 Tb = 0.169745 sec, Ta = 0.172103 sec, comp_time = 0.207777 sec, comm_time = 0.134050 sec, neigh_comm_time = 0.000003 sec, ptp_comm_time = 0.000003 sec, coll_comm_time = 0.134039 sec, T_cmp_b = 0.103888 sec, T_cmp_a = 0.103889 sec, T_comm_b = 0.065846 sec, T_comm_a = 0.068204 sec.
rank 183 Tb = 0.169745 sec, Ta = 0.172095 sec, comp_time = 0.207812 sec, comm_time = 0.134007 sec, neigh_comm_time = 0.000003 sec, ptp_comm_time = 0.000003 sec, coll_comm_time = 0.133996 sec, T_cmp_b = 0.103906 sec, T_cmp_a = 0.103906 sec, T_comm_b = 0.065829 sec, T_comm_a = 0.068178 sec.
rank 199 Tb = 0.169743 sec, Ta = 0.172104 sec, comp_time = 0.207743 sec, comm_time = 0.134085 sec, neigh_comm_time = 0.000003 sec, ptp_comm_time = 0.000003 sec, coll_comm_time = 0.134073 sec, T_cmp_b = 0.103871 sec, T_cmp_a = 0.103871 sec, T_comm_b = 0.065862 sec, T_comm_a = 0.068223 sec.
rank 243 Tb = 0.169750 sec, Ta = 0.172098 sec, comp_time = 0.207812 sec, comm_time = 0.134015 sec, neigh_comm_time = 0.000003 sec, ptp_comm_time = 0.000003 sec, coll_comm_time = 0.134004 sec, T_cmp_b = 0.103906 sec, T_cmp_a = 0.103906 sec, T_comm_b = 0.065833 sec, T_comm_a = 0.068182 sec.
rank 211 Tb = 0.169740 sec, Ta = 0.172100 sec, comp_time = 0.207812 sec, comm_time = 0.134008 sec, neigh_comm_time = 0.000003 sec, ptp_comm_time = 0.000003 sec, coll_comm_time = 0.133997 sec, T_cmp_b = 0.103906 sec, T_cmp_a = 0.103906 sec, T_comm_b = 0.065825 sec, T_comm_a = 0.068184 sec.
rank 5 Tb = 0.169748 sec, Ta = 0.172102 sec, comp_time = 0.207777 sec, comm_time = 0.134052 sec, neigh_comm_time = 0.000003 sec, ptp_comm_time = 0.000003 sec, coll_comm_time = 0.134041 sec, T_cmp_b = 0.103889 sec, T_cmp_a = 0.103889 sec, T_comm_b = 0.065849 sec, T_comm_a = 0.068204 sec.
rank 67 Tb = 0.169746 sec, Ta = 0.172105 sec, comp_time = 0.207813 sec, comm_time = 0.134019 sec, neigh_comm_time = 0.000003 sec, ptp_comm_time = 0.000003 sec, coll_comm_time = 0.134007 sec, T_cmp_b = 0.103906 sec, T_cmp_a = 0.103906 sec, T_comm_b = 0.065830 sec, T_comm_a = 0.068189 sec.
rank 3 Tb = 0.169746 sec, Ta = 0.172102 sec, comp_time = 0.207777 sec, comm_time = 0.134050 sec, neigh_comm_time = 0.000003 sec, ptp_comm_time = 0.000003 sec, coll_comm_time = 0.134039 sec, T_cmp_b = 0.103888 sec, T_cmp_a = 0.103888 sec, T_comm_b = 0.065847 sec, T_comm_a = 0.068203 sec.
rank 179 Tb = 0.169744 sec, Ta = 0.172098 sec, comp_time = 0.207847 sec, comm_time = 0.133974 sec, neigh_comm_time = 0.000003 sec, ptp_comm_time = 0.000003 sec, coll_comm_time = 0.133963 sec, T_cmp_b = 0.103924 sec, T_cmp_a = 0.103923 sec, T_comm_b = 0.065810 sec, T_comm_a = 0.068164 sec.
rank 118 Tb = 0.169747 sec, Ta = 0.172095 sec, comp_time = 0.207847 sec, comm_time = 0.133974 sec, neigh_comm_time = 0.000003 sec, ptp_comm_time = 0.000003 sec, coll_comm_time = 0.133963 sec, T_cmp_b = 0.103924 sec, T_cmp_a = 0.103923 sec, T_comm_b = 0.065813 sec, T_comm_a = 0.068161 sec.
rank 203 Tb = 0.169749 sec, Ta = 0.172103 sec, comp_time = 0.207811 sec, comm_time = 0.134020 sec, neigh_comm_time = 0.000003 sec, ptp_comm_time = 0.000003 sec, coll_comm_time = 0.134008 sec, T_cmp_b = 0.103906 sec, T_cmp_a = 0.103906 sec, T_comm_b = 0.065833 sec, T_comm_a = 0.068187 sec.
rank 124 Tb = 0.169747 sec, Ta = 0.172095 sec, comp_time = 0.207812 sec, comm_time = 0.134010 sec, neigh_comm_time = 0.000003 sec, ptp_comm_time = 0.000003 sec, coll_comm_time = 0.133998 sec, T_cmp_b = 0.103906 sec, T_cmp_a = 0.103906 sec, T_comm_b = 0.065831 sec, T_comm_a = 0.068179 sec.
rank 23 Tb = 0.169745 sec, Ta = 0.172097 sec, comp_time = 0.207777 sec, comm_time = 0.134044 sec, neigh_comm_time = 0.000003 sec, ptp_comm_time = 0.000003 sec, coll_comm_time = 0.134033 sec, T_cmp_b = 0.103888 sec, T_cmp_a = 0.103888 sec, T_comm_b = 0.065846 sec, T_comm_a = 0.068198 sec.
rank 110 Tb = 0.169748 sec, Ta = 0.172104 sec, comp_time = 0.207848 sec, comm_time = 0.133984 sec, neigh_comm_time = 0.000003 sec, ptp_comm_time = 0.000003 sec, coll_comm_time = 0.133973 sec, T_cmp_b = 0.103924 sec, T_cmp_a = 0.103924 sec, T_comm_b = 0.065815 sec, T_comm_a = 0.068170 sec.
rank 19 Tb = 0.169746 sec, Ta = 0.172098 sec, comp_time = 0.207812 sec, comm_time = 0.134011 sec, neigh_comm_time = 0.000003 sec, ptp_comm_time = 0.000003 sec, coll_comm_time = 0.134000 sec, T_cmp_b = 0.103906 sec, T_cmp_a = 0.103906 sec, T_comm_b = 0.065830 sec, T_comm_a = 0.068181 sec.
