rank 160 Tb = 0.831301 sec, Ta = 0.000002 sec, comp_time = 0.519534 sec, comm_time = 0.311735 sec, neigh_comm_time = 0.311678 sec, ptp_comm_time = 0.000010 sec, coll_comm_time = 0.000010 sec, T_cmp_b = 0.519534 sec, T_cmp_a = 0.000000 sec, T_comm_b = 0.311735 sec, T_comm_a = 0.000000 sec.
rank 47 Tb = 0.831215 sec, Ta = 0.832797 sec, comp_time = 1.040264 sec, comm_time = 0.623685 sec, neigh_comm_time = 0.623571 sec, ptp_comm_time = 0.000021 sec, coll_comm_time = 0.000020 sec, T_cmp_b = 0.519444 sec, T_cmp_a = 0.520820 sec, T_comm_b = 0.311739 sec, T_comm_a = 0.311946 sec.
rank 239 Tb = 0.831219 sec, Ta = 0.832794 sec, comp_time = 1.040261 sec, comm_time = 0.623690 sec, neigh_comm_time = 0.623576 sec, ptp_comm_time = 0.000020 sec, coll_comm_time = 0.000020 sec, T_cmp_b = 0.519442 sec, T_cmp_a = 0.520818 sec, T_comm_b = 0.311745 sec, T_comm_a = 0.311945 sec.
rank 63 Tb = 0.831179 sec, Ta = 0.832764 sec, comp_time = 1.040078 sec, comm_time = 0.623800 sec, neigh_comm_time = 0.623685 sec, ptp_comm_time = 0.000021 sec, coll_comm_time = 0.000021 sec, T_cmp_b = 0.519352 sec, T_cmp_a = 0.520725 sec, T_comm_b = 0.311794 sec, T_comm_a = 0.312006 sec.
rank 56 Tb = 0.831208 sec, Ta = 0.832783 sec, comp_time = 1.040082 sec, comm_time = 0.623844 sec, neigh_comm_time = 0.623730 sec, ptp_comm_time = 0.000021 sec, coll_comm_time = 0.000021 sec, T_cmp_b = 0.519353 sec, T_cmp_a = 0.520729 sec, T_comm_b = 0.311822 sec, T_comm_a = 0.312021 sec.
rank 191 Tb = 0.831221 sec, Ta = 0.832790 sec, comp_time = 1.040264 sec, comm_time = 0.623685 sec, neigh_comm_time = 0.623571 sec, ptp_comm_time = 0.000020 sec, coll_comm_time = 0.000020 sec, T_cmp_b = 0.519445 sec, T_cmp_a = 0.520819 sec, T_comm_b = 0.311745 sec, T_comm_a = 0.311940 sec.
rank 232 Tb = 0.831243 sec, Ta = 0.832815 sec, comp_time = 1.040260 sec, comm_time = 0.623735 sec, neigh_comm_time = 0.623621 sec, ptp_comm_time = 0.000021 sec, coll_comm_time = 0.000020 sec, T_cmp_b = 0.519442 sec, T_cmp_a = 0.520818 sec, T_comm_b = 0.311769 sec, T_comm_a = 0.311966 sec.
rank 255 Tb = 0.831179 sec, Ta = 0.832751 sec, comp_time = 1.040077 sec, comm_time = 0.623787 sec, neigh_comm_time = 0.623672 sec, ptp_comm_time = 0.000021 sec, coll_comm_time = 0.000020 sec, T_cmp_b = 0.519351 sec, T_cmp_a = 0.520727 sec, T_comm_b = 0.311795 sec, T_comm_a = 0.311992 sec.
rank 237 Tb = 0.831231 sec, Ta = 0.832797 sec, comp_time = 1.040431 sec, comm_time = 0.623532 sec, neigh_comm_time = 0.623417 sec, ptp_comm_time = 0.000020 sec, coll_comm_time = 0.000020 sec, T_cmp_b = 0.519528 sec, T_cmp_a = 0.520904 sec, T_comm_b = 0.311671 sec, T_comm_a = 0.311861 sec.
rank 43 Tb = 0.831240 sec, Ta = 0.832817 sec, comp_time = 1.040433 sec, comm_time = 0.623561 sec, neigh_comm_time = 0.623447 sec, ptp_comm_time = 0.000020 sec, coll_comm_time = 0.000020 sec, T_cmp_b = 0.519529 sec, T_cmp_a = 0.520904 sec, T_comm_b = 0.311679 sec, T_comm_a = 0.311882 sec.
rank 127 Tb = 0.831221 sec, Ta = 0.832810 sec, comp_time = 1.040268 sec, comm_time = 0.623700 sec, neigh_comm_time = 0.623586 sec, ptp_comm_time = 0.000020 sec, coll_comm_time = 0.000020 sec, T_cmp_b = 0.519447 sec, T_cmp_a = 0.520821 sec, T_comm_b = 0.311743 sec, T_comm_a = 0.311958 sec.
rank 60 Tb = 0.831208 sec, Ta = 0.832785 sec, comp_time = 1.040257 sec, comm_time = 0.623673 sec, neigh_comm_time = 0.623559 sec, ptp_comm_time = 0.000020 sec, coll_comm_time = 0.000020 sec, T_cmp_b = 0.519440 sec, T_cmp_a = 0.520817 sec, T_comm_b = 0.311736 sec, T_comm_a = 0.311937 sec.
rank 59 Tb = 0.831219 sec, Ta = 0.832794 sec, comp_time = 1.040257 sec, comm_time = 0.623693 sec, neigh_comm_time = 0.623580 sec, ptp_comm_time = 0.000020 sec, coll_comm_time = 0.000020 sec, T_cmp_b = 0.519441 sec, T_cmp_a = 0.520816 sec, T_comm_b = 0.311747 sec, T_comm_a = 0.311947 sec.
rank 189 Tb = 0.831255 sec, Ta = 0.832817 sec, comp_time = 1.040439 sec, comm_time = 0.623571 sec, neigh_comm_time = 0.623457 sec, ptp_comm_time = 0.000020 sec, coll_comm_time = 0.000020 sec, T_cmp_b = 0.519532 sec, T_cmp_a = 0.520907 sec, T_comm_b = 0.311691 sec, T_comm_a = 0.311880 sec.
rank 120 Tb = 0.831250 sec, Ta = 0.832823 sec, comp_time = 1.040268 sec, comm_time = 0.623743 sec, neigh_comm_time = 0.623629 sec, ptp_comm_time = 0.000020 sec, coll_comm_time = 0.000020 sec, T_cmp_b = 0.519447 sec, T_cmp_a = 0.520821 sec, T_comm_b = 0.311771 sec, T_comm_a = 0.311971 sec.
rank 253 Tb = 0.831210 sec, Ta = 0.832767 sec, comp_time = 1.040255 sec, comm_time = 0.623657 sec, neigh_comm_time = 0.623544 sec, ptp_comm_time = 0.000020 sec, coll_comm_time = 0.000020 sec, T_cmp_b = 0.519440 sec, T_cmp_a = 0.520815 sec, T_comm_b = 0.311738 sec, T_comm_a = 0.311919 sec.
rank 235 Tb = 0.831240 sec, Ta = 0.832820 sec, comp_time = 1.040434 sec, comm_time = 0.623563 sec, neigh_comm_time = 0.623449 sec, ptp_comm_time = 0.000020 sec, coll_comm_time = 0.000020 sec, T_cmp_b = 0.519529 sec, T_cmp_a = 0.520905 sec, T_comm_b = 0.311679 sec, T_comm_a = 0.311884 sec.
rank 45 Tb = 0.831240 sec, Ta = 0.832805 sec, comp_time = 1.040431 sec, comm_time = 0.623550 sec, neigh_comm_time = 0.623436 sec, ptp_comm_time = 0.000020 sec, coll_comm_time = 0.000020 sec, T_cmp_b = 0.519528 sec, T_cmp_a = 0.520903 sec, T_comm_b = 0.311680 sec, T_comm_a = 0.311870 sec.
rank 236 Tb = 0.831242 sec, Ta = 0.832803 sec, comp_time = 1.040435 sec, comm_time = 0.623547 sec, neigh_comm_time = 0.623434 sec, ptp_comm_time = 0.000020 sec, coll_comm_time = 0.000020 sec, T_cmp_b = 0.519530 sec, T_cmp_a = 0.520905 sec, T_comm_b = 0.311680 sec, T_comm_a = 0.311867 sec.
rank 61 Tb = 0.831208 sec, Ta = 0.832789 sec, comp_time = 1.040255 sec, comm_time = 0.623679 sec, neigh_comm_time = 0.623566 sec, ptp_comm_time = 0.000020 sec, coll_comm_time = 0.000020 sec, T_cmp_b = 0.519439 sec, T_cmp_a = 0.520816 sec, T_comm_b = 0.311737 sec, T_comm_a = 0.311942 sec.
rank 58 Tb = 0.831230 sec, Ta = 0.832805 sec, comp_time = 1.040258 sec, comm_time = 0.623714 sec, neigh_comm_time = 0.623601 sec, ptp_comm_time = 0.000020 sec, coll_comm_time = 0.000020 sec, T_cmp_b = 0.519441 sec, T_cmp_a = 0.520817 sec, T_comm_b = 0.311757 sec, T_comm_a = 0.311957 sec.
rank 184 Tb = 0.831249 sec, Ta = 0.832824 sec, comp_time = 1.040264 sec, comm_time = 0.623746 sec, neigh_comm_time = 0.623632 sec, ptp_comm_time = 0.000020 sec, coll_comm_time = 0.000020 sec, T_cmp_b = 0.519445 sec, T_cmp_a = 0.520819 sec, T_comm_b = 0.311772 sec, T_comm_a = 0.311974 sec.
rank 243 Tb = 0.831267 sec, Ta = 0.832830 sec, comp_time = 1.040438 sec, comm_time = 0.623597 sec, neigh_comm_time = 0.623483 sec, ptp_comm_time = 0.000020 sec, coll_comm_time = 0.000020 sec, T_cmp_b = 0.519532 sec, T_cmp_a = 0.520907 sec, T_comm_b = 0.311704 sec, T_comm_a = 0.311893 sec.
rank 248 Tb = 0.831205 sec, Ta = 0.832776 sec, comp_time = 1.040076 sec, comm_time = 0.623840 sec, neigh_comm_time = 0.623725 sec, ptp_comm_time = 0.000021 sec, coll_comm_time = 0.000021 sec, T_cmp_b = 0.519350 sec, T_cmp_a = 0.520727 sec, T_comm_b = 0.311823 sec, T_comm_a = 0.312017 sec.
rank 111 Tb = 0.831266 sec, Ta = 0.832837 sec, comp_time = 1.040443 sec, comm_time = 0.623597 sec, neigh_comm_time = 0.623483 sec, ptp_comm_time = 0.000020 sec, coll_comm_time = 0.000020 sec, T_cmp_b = 0.519534 sec, T_cmp_a = 0.520909 sec, T_comm_b = 0.311700 sec, T_comm_a = 0.311897 sec.
rank 44 Tb = 0.831246 sec, Ta = 0.832806 sec, comp_time = 1.040435 sec, comm_time = 0.623555 sec, neigh_comm_time = 0.623441 sec, ptp_comm_time = 0.000020 sec, coll_comm_time = 0.000020 sec, T_cmp_b = 0.519530 sec, T_cmp_a = 0.520905 sec, T_comm_b = 0.311685 sec, T_comm_a = 0.311870 sec.
rank 245 Tb = 0.831258 sec, Ta = 0.832816 sec, comp_time = 1.040439 sec, comm_time = 0.623573 sec, neigh_comm_time = 0.623459 sec, ptp_comm_time = 0.000020 sec, coll_comm_time = 0.000020 sec, T_cmp_b = 0.519532 sec, T_cmp_a = 0.520907 sec, T_comm_b = 0.311694 sec, T_comm_a = 0.311878 sec.
rank 62 Tb = 0.831223 sec, Ta = 0.832801 sec, comp_time = 1.040261 sec, comm_time = 0.623700 sec, neigh_comm_time = 0.623586 sec, ptp_comm_time = 0.000020 sec, coll_comm_time = 0.000020 sec, T_cmp_b = 0.519443 sec, T_cmp_a = 0.520819 sec, T_comm_b = 0.311748 sec, T_comm_a = 0.311952 sec.
rank 57 Tb = 0.831243 sec, Ta = 0.832820 sec, comp_time = 1.040262 sec, comm_time = 0.623738 sec, neigh_comm_time = 0.623624 sec, ptp_comm_time = 0.000020 sec, coll_comm_time = 0.000020 sec, T_cmp_b = 0.519443 sec, T_cmp_a = 0.520819 sec, T_comm_b = 0.311768 sec, T_comm_a = 0.311970 sec.
rank 188 Tb = 0.831253 sec, Ta = 0.832819 sec, comp_time = 1.040439 sec, comm_time = 0.623570 sec, neigh_comm_time = 0.623456 sec, ptp_comm_time = 0.000020 sec, coll_comm_time = 0.000020 sec, T_cmp_b = 0.519532 sec, T_cmp_a = 0.520907 sec, T_comm_b = 0.311689 sec, T_comm_a = 0.311881 sec.
rank 234 Tb = 0.831247 sec, Ta = 0.832819 sec, comp_time = 1.040435 sec, comm_time = 0.623569 sec, neigh_comm_time = 0.623455 sec, ptp_comm_time = 0.000020 sec, coll_comm_time = 0.000020 sec, T_cmp_b = 0.519529 sec, T_cmp_a = 0.520905 sec, T_comm_b = 0.311686 sec, T_comm_a = 0.311883 sec.
rank 252 Tb = 0.831209 sec, Ta = 0.832772 sec, comp_time = 1.040257 sec, comm_time = 0.623660 sec, neigh_comm_time = 0.623547 sec, ptp_comm_time = 0.000020 sec, coll_comm_time = 0.000020 sec, T_cmp_b = 0.519441 sec, T_cmp_a = 0.520816 sec, T_comm_b = 0.311736 sec, T_comm_a = 0.311924 sec.
rank 109 Tb = 0.831276 sec, Ta = 0.832844 sec, comp_time = 1.040614 sec, comm_time = 0.623444 sec, neigh_comm_time = 0.623330 sec, ptp_comm_time = 0.000020 sec, coll_comm_time = 0.000020 sec, T_cmp_b = 0.519620 sec, T_cmp_a = 0.520994 sec, T_comm_b = 0.311625 sec, T_comm_a = 0.311820 sec.
rank 40 Tb = 0.831248 sec, Ta = 0.832836 sec, comp_time = 1.040263 sec, comm_time = 0.623759 sec, neigh_comm_time = 0.623644 sec, ptp_comm_time = 0.000021 sec, coll_comm_time = 0.000021 sec, T_cmp_b = 0.519444 sec, T_cmp_a = 0.520819 sec, T_comm_b = 0.311773 sec, T_comm_a = 0.311986 sec.
rank 231 Tb = 0.831242 sec, Ta = 0.832806 sec, comp_time = 1.040265 sec, comm_time = 0.623720 sec, neigh_comm_time = 0.623606 sec, ptp_comm_time = 0.000020 sec, coll_comm_time = 0.000020 sec, T_cmp_b = 0.519445 sec, T_cmp_a = 0.520820 sec, T_comm_b = 0.311765 sec, T_comm_a = 0.311954 sec.
rank 55 Tb = 0.831225 sec, Ta = 0.832803 sec, comp_time = 1.040261 sec, comm_time = 0.623704 sec, neigh_comm_time = 0.623590 sec, ptp_comm_time = 0.000020 sec, coll_comm_time = 0.000020 sec, T_cmp_b = 0.519442 sec, T_cmp_a = 0.520819 sec, T_comm_b = 0.311751 sec, T_comm_a = 0.311953 sec.
rank 48 Tb = 0.831243 sec, Ta = 0.832830 sec, comp_time = 1.040263 sec, comm_time = 0.623747 sec, neigh_comm_time = 0.623633 sec, ptp_comm_time = 0.000020 sec, coll_comm_time = 0.000020 sec, T_cmp_b = 0.519444 sec, T_cmp_a = 0.520818 sec, T_comm_b = 0.311767 sec, T_comm_a = 0.311981 sec.
rank 187 Tb = 0.831262 sec, Ta = 0.832833 sec, comp_time = 1.040439 sec, comm_time = 0.623593 sec, neigh_comm_time = 0.623479 sec, ptp_comm_time = 0.000020 sec, coll_comm_time = 0.000020 sec, T_cmp_b = 0.519532 sec, T_cmp_a = 0.520907 sec, T_comm_b = 0.311698 sec, T_comm_a = 0.311895 sec.
rank 123 Tb = 0.831265 sec, Ta = 0.832836 sec, comp_time = 1.040439 sec, comm_time = 0.623600 sec, neigh_comm_time = 0.623486 sec, ptp_comm_time = 0.000020 sec, coll_comm_time = 0.000020 sec, T_cmp_b = 0.519532 sec, T_cmp_a = 0.520907 sec, T_comm_b = 0.311702 sec, T_comm_a = 0.311898 sec.
rank 251 Tb = 0.831218 sec, Ta = 0.832783 sec, comp_time = 1.040259 sec, comm_time = 0.623679 sec, neigh_comm_time = 0.623566 sec, ptp_comm_time = 0.000020 sec, coll_comm_time = 0.000020 sec, T_cmp_b = 0.519441 sec, T_cmp_a = 0.520817 sec, T_comm_b = 0.311745 sec, T_comm_a = 0.311934 sec.
rank 107 Tb = 0.831280 sec, Ta = 0.832857 sec, comp_time = 1.040614 sec, comm_time = 0.623461 sec, neigh_comm_time = 0.623346 sec, ptp_comm_time = 0.000020 sec, coll_comm_time = 0.000020 sec, T_cmp_b = 0.519620 sec, T_cmp_a = 0.520994 sec, T_comm_b = 0.311628 sec, T_comm_a = 0.311832 sec.
rank 39 Tb = 0.831249 sec, Ta = 0.832813 sec, comp_time = 1.040260 sec, comm_time = 0.623739 sec, neigh_comm_time = 0.623625 sec, ptp_comm_time = 0.000020 sec, coll_comm_time = 0.000020 sec, T_cmp_b = 0.519443 sec, T_cmp_a = 0.520818 sec, T_comm_b = 0.311775 sec, T_comm_a = 0.311965 sec.
rank 125 Tb = 0.831255 sec, Ta = 0.832828 sec, comp_time = 1.040439 sec, comm_time = 0.623581 sec, neigh_comm_time = 0.623467 sec, ptp_comm_time = 0.000020 sec, coll_comm_time = 0.000020 sec, T_cmp_b = 0.519532 sec, T_cmp_a = 0.520907 sec, T_comm_b = 0.311691 sec, T_comm_a = 0.311890 sec.
rank 31 Tb = 0.831259 sec, Ta = 0.832835 sec, comp_time = 1.040262 sec, comm_time = 0.623770 sec, neigh_comm_time = 0.623656 sec, ptp_comm_time = 0.000020 sec, coll_comm_time = 0.000020 sec, T_cmp_b = 0.519443 sec, T_cmp_a = 0.520819 sec, T_comm_b = 0.311784 sec, T_comm_a = 0.311986 sec.
rank 51 Tb = 0.831271 sec, Ta = 0.832841 sec, comp_time = 1.040439 sec, comm_time = 0.623610 sec, neigh_comm_time = 0.623496 sec, ptp_comm_time = 0.000020 sec, coll_comm_time = 0.000020 sec, T_cmp_b = 0.519532 sec, T_cmp_a = 0.520907 sec, T_comm_b = 0.311707 sec, T_comm_a = 0.311903 sec.
rank 190 Tb = 0.831268 sec, Ta = 0.832832 sec, comp_time = 1.040439 sec, comm_time = 0.623599 sec, neigh_comm_time = 0.623485 sec, ptp_comm_time = 0.000020 sec, coll_comm_time = 0.000020 sec, T_cmp_b = 0.519532 sec, T_cmp_a = 0.520906 sec, T_comm_b = 0.311705 sec, T_comm_a = 0.311895 sec.
rank 224 Tb = 0.831249 sec, Ta = 0.832831 sec, comp_time = 1.040176 sec, comm_time = 0.623842 sec, neigh_comm_time = 0.623728 sec, ptp_comm_time = 0.000020 sec, coll_comm_time = 0.000020 sec, T_cmp_b = 0.519444 sec, T_cmp_a = 0.520731 sec, T_comm_b = 0.311773 sec, T_comm_a = 0.312068 sec.
rank 254 Tb = 0.831222 sec, Ta = 0.832783 sec, comp_time = 1.040263 sec, comm_time = 0.623679 sec, neigh_comm_time = 0.623565 sec, ptp_comm_time = 0.000020 sec, coll_comm_time = 0.000020 sec, T_cmp_b = 0.519444 sec, T_cmp_a = 0.520819 sec, T_comm_b = 0.311746 sec, T_comm_a = 0.311933 sec.
rank 108 Tb = 0.831287 sec, Ta = 0.832846 sec, comp_time = 1.040614 sec, comm_time = 0.623456 sec, neigh_comm_time = 0.623342 sec, ptp_comm_time = 0.000020 sec, coll_comm_time = 0.000020 sec, T_cmp_b = 0.519620 sec, T_cmp_a = 0.520994 sec, T_comm_b = 0.311636 sec, T_comm_a = 0.311821 sec.
rank 42 Tb = 0.831253 sec, Ta = 0.832836 sec, comp_time = 1.040433 sec, comm_time = 0.623592 sec, neigh_comm_time = 0.623479 sec, ptp_comm_time = 0.000020 sec, coll_comm_time = 0.000020 sec, T_cmp_b = 0.519529 sec, T_cmp_a = 0.520905 sec, T_comm_b = 0.311692 sec, T_comm_a = 0.311900 sec.
rank 199 Tb = 0.831253 sec, Ta = 0.832818 sec, comp_time = 1.040076 sec, comm_time = 0.623930 sec, neigh_comm_time = 0.623815 sec, ptp_comm_time = 0.000022 sec, coll_comm_time = 0.000021 sec, T_cmp_b = 0.519351 sec, T_cmp_a = 0.520725 sec, T_comm_b = 0.311869 sec, T_comm_a = 0.312060 sec.
rank 175 Tb = 0.831263 sec, Ta = 0.832838 sec, comp_time = 1.040440 sec, comm_time = 0.623599 sec, neigh_comm_time = 0.623485 sec, ptp_comm_time = 0.000020 sec, coll_comm_time = 0.000020 sec, T_cmp_b = 0.519532 sec, T_cmp_a = 0.520907 sec, T_comm_b = 0.311699 sec, T_comm_a = 0.311900 sec.
rank 168 Tb = 0.831290 sec, Ta = 0.832863 sec, comp_time = 1.040352 sec, comm_time = 0.623738 sec, neigh_comm_time = 0.623624 sec, ptp_comm_time = 0.000020 sec, coll_comm_time = 0.000020 sec, T_cmp_b = 0.519532 sec, T_cmp_a = 0.520819 sec, T_comm_b = 0.311725 sec, T_comm_a = 0.312013 sec.
rank 186 Tb = 0.831274 sec, Ta = 0.832851 sec, comp_time = 1.040439 sec, comm_time = 0.623623 sec, neigh_comm_time = 0.623509 sec, ptp_comm_time = 0.000020 sec, coll_comm_time = 0.000020 sec, T_cmp_b = 0.519532 sec, T_cmp_a = 0.520907 sec, T_comm_b = 0.311710 sec, T_comm_a = 0.311913 sec.
rank 192 Tb = 0.831262 sec, Ta = 0.832855 sec, comp_time = 1.040077 sec, comm_time = 0.623975 sec, neigh_comm_time = 0.623859 sec, ptp_comm_time = 0.000022 sec, coll_comm_time = 0.000021 sec, T_cmp_b = 0.519351 sec, T_cmp_a = 0.520726 sec, T_comm_b = 0.311878 sec, T_comm_a = 0.312097 sec.
rank 250 Tb = 0.831230 sec, Ta = 0.832803 sec, comp_time = 1.040259 sec, comm_time = 0.623711 sec, neigh_comm_time = 0.623598 sec, ptp_comm_time = 0.000020 sec, coll_comm_time = 0.000020 sec, T_cmp_b = 0.519442 sec, T_cmp_a = 0.520817 sec, T_comm_b = 0.311757 sec, T_comm_a = 0.311954 sec.
rank 103 Tb = 0.831289 sec, Ta = 0.832859 sec, comp_time = 1.040440 sec, comm_time = 0.623646 sec, neigh_comm_time = 0.623532 sec, ptp_comm_time = 0.000020 sec, coll_comm_time = 0.000020 sec, T_cmp_b = 0.519533 sec, T_cmp_a = 0.520907 sec, T_comm_b = 0.311724 sec, T_comm_a = 0.311921 sec.
rank 7 Tb = 0.831256 sec, Ta = 0.832838 sec, comp_time = 1.040079 sec, comm_time = 0.623948 sec, neigh_comm_time = 0.623832 sec, ptp_comm_time = 0.000023 sec, coll_comm_time = 0.000021 sec, T_cmp_b = 0.519353 sec, T_cmp_a = 0.520726 sec, T_comm_b = 0.311870 sec, T_comm_a = 0.312078 sec.
rank 126 Tb = 0.831273 sec, Ta = 0.832839 sec, comp_time = 1.040439 sec, comm_time = 0.623611 sec, neigh_comm_time = 0.623497 sec, ptp_comm_time = 0.000020 sec, coll_comm_time = 0.000020 sec, T_cmp_b = 0.519533 sec, T_cmp_a = 0.520906 sec, T_comm_b = 0.311708 sec, T_comm_a = 0.311902 sec.
rank 52 Tb = 0.831257 sec, Ta = 0.832832 sec, comp_time = 1.040438 sec, comm_time = 0.623589 sec, neigh_comm_time = 0.623475 sec, ptp_comm_time = 0.000020 sec, coll_comm_time = 0.000020 sec, T_cmp_b = 0.519532 sec, T_cmp_a = 0.520906 sec, T_comm_b = 0.311694 sec, T_comm_a = 0.311895 sec.
rank 50 Tb = 0.831282 sec, Ta = 0.832854 sec, comp_time = 1.040438 sec, comm_time = 0.623635 sec, neigh_comm_time = 0.623521 sec, ptp_comm_time = 0.000020 sec, coll_comm_time = 0.000020 sec, T_cmp_b = 0.519532 sec, T_cmp_a = 0.520906 sec, T_comm_b = 0.311719 sec, T_comm_a = 0.311916 sec.
rank 183 Tb = 0.831270 sec, Ta = 0.832832 sec, comp_time = 1.040445 sec, comm_time = 0.623594 sec, neigh_comm_time = 0.623480 sec, ptp_comm_time = 0.000020 sec, coll_comm_time = 0.000020 sec, T_cmp_b = 0.519535 sec, T_cmp_a = 0.520910 sec, T_comm_b = 0.311703 sec, T_comm_a = 0.311891 sec.
rank 121 Tb = 0.831287 sec, Ta = 0.832860 sec, comp_time = 1.040437 sec, comm_time = 0.623648 sec, neigh_comm_time = 0.623534 sec, ptp_comm_time = 0.000020 sec, coll_comm_time = 0.000020 sec, T_cmp_b = 0.519531 sec, T_cmp_a = 0.520906 sec, T_comm_b = 0.311725 sec, T_comm_a = 0.311923 sec.
rank 247 Tb = 0.831223 sec, Ta = 0.832783 sec, comp_time = 1.040266 sec, comm_time = 0.623678 sec, neigh_comm_time = 0.623564 sec, ptp_comm_time = 0.000020 sec, coll_comm_time = 0.000020 sec, T_cmp_b = 0.519446 sec, T_cmp_a = 0.520820 sec, T_comm_b = 0.311746 sec, T_comm_a = 0.311932 sec.
rank 104 Tb = 0.831293 sec, Ta = 0.832874 sec, comp_time = 1.040444 sec, comm_time = 0.623660 sec, neigh_comm_time = 0.623546 sec, ptp_comm_time = 0.000020 sec, coll_comm_time = 0.000020 sec, T_cmp_b = 0.519534 sec, T_cmp_a = 0.520909 sec, T_comm_b = 0.311727 sec, T_comm_a = 0.311934 sec.
rank 32 Tb = 0.831263 sec, Ta = 0.832849 sec, comp_time = 1.040261 sec, comm_time = 0.623789 sec, neigh_comm_time = 0.623676 sec, ptp_comm_time = 0.000020 sec, coll_comm_time = 0.000020 sec, T_cmp_b = 0.519443 sec, T_cmp_a = 0.520818 sec, T_comm_b = 0.311789 sec, T_comm_a = 0.312000 sec.
rank 238 Tb = 0.831265 sec, Ta = 0.832831 sec, comp_time = 1.040438 sec, comm_time = 0.623596 sec, neigh_comm_time = 0.623481 sec, ptp_comm_time = 0.000020 sec, coll_comm_time = 0.000020 sec, T_cmp_b = 0.519532 sec, T_cmp_a = 0.520906 sec, T_comm_b = 0.311701 sec, T_comm_a = 0.311894 sec.
rank 173 Tb = 0.831278 sec, Ta = 0.832842 sec, comp_time = 1.040613 sec, comm_time = 0.623444 sec, neigh_comm_time = 0.623330 sec, ptp_comm_time = 0.000020 sec, coll_comm_time = 0.000020 sec, T_cmp_b = 0.519619 sec, T_cmp_a = 0.520994 sec, T_comm_b = 0.311627 sec, T_comm_a = 0.311817 sec.
rank 170 Tb = 0.831291 sec, Ta = 0.832867 sec, comp_time = 1.040614 sec, comm_time = 0.623481 sec, neigh_comm_time = 0.623367 sec, ptp_comm_time = 0.000020 sec, coll_comm_time = 0.000020 sec, T_cmp_b = 0.519620 sec, T_cmp_a = 0.520995 sec, T_comm_b = 0.311640 sec, T_comm_a = 0.311841 sec.
rank 185 Tb = 0.831287 sec, Ta = 0.832860 sec, comp_time = 1.040436 sec, comm_time = 0.623649 sec, neigh_comm_time = 0.623535 sec, ptp_comm_time = 0.000020 sec, coll_comm_time = 0.000020 sec, T_cmp_b = 0.519531 sec, T_cmp_a = 0.520905 sec, T_comm_b = 0.311725 sec, T_comm_a = 0.311924 sec.
rank 233 Tb = 0.831279 sec, Ta = 0.832853 sec, comp_time = 1.040438 sec, comm_time = 0.623632 sec, neigh_comm_time = 0.623518 sec, ptp_comm_time = 0.000020 sec, coll_comm_time = 0.000020 sec, T_cmp_b = 0.519531 sec, T_cmp_a = 0.520906 sec, T_comm_b = 0.311717 sec, T_comm_a = 0.311915 sec.
rank 249 Tb = 0.831241 sec, Ta = 0.832812 sec, comp_time = 1.040263 sec, comm_time = 0.623726 sec, neigh_comm_time = 0.623612 sec, ptp_comm_time = 0.000020 sec, coll_comm_time = 0.000020 sec, T_cmp_b = 0.519444 sec, T_cmp_a = 0.520819 sec, T_comm_b = 0.311765 sec, T_comm_a = 0.311962 sec.
rank 110 Tb = 0.831306 sec, Ta = 0.832873 sec, comp_time = 1.040615 sec, comm_time = 0.623501 sec, neigh_comm_time = 0.623387 sec, ptp_comm_time = 0.000020 sec, coll_comm_time = 0.000020 sec, T_cmp_b = 0.519620 sec, T_cmp_a = 0.520995 sec, T_comm_b = 0.311654 sec, T_comm_a = 0.311848 sec.
rank 46 Tb = 0.831269 sec, Ta = 0.832837 sec, comp_time = 1.040438 sec, comm_time = 0.623605 sec, neigh_comm_time = 0.623491 sec, ptp_comm_time = 0.000020 sec, coll_comm_time = 0.000020 sec, T_cmp_b = 0.519532 sec, T_cmp_a = 0.520906 sec, T_comm_b = 0.311705 sec, T_comm_a = 0.311900 sec.
rank 119 Tb = 0.831271 sec, Ta = 0.832839 sec, comp_time = 1.040441 sec, comm_time = 0.623606 sec, neigh_comm_time = 0.623492 sec, ptp_comm_time = 0.000020 sec, coll_comm_time = 0.000020 sec, T_cmp_b = 0.519533 sec, T_cmp_a = 0.520908 sec, T_comm_b = 0.311706 sec, T_comm_a = 0.311901 sec.
rank 53 Tb = 0.831256 sec, Ta = 0.832833 sec, comp_time = 1.040439 sec, comm_time = 0.623588 sec, neigh_comm_time = 0.623473 sec, ptp_comm_time = 0.000020 sec, coll_comm_time = 0.000020 sec, T_cmp_b = 0.519532 sec, T_cmp_a = 0.520906 sec, T_comm_b = 0.311692 sec, T_comm_a = 0.311896 sec.
rank 24 Tb = 0.831274 sec, Ta = 0.832861 sec, comp_time = 1.040261 sec, comm_time = 0.623812 sec, neigh_comm_time = 0.623698 sec, ptp_comm_time = 0.000020 sec, coll_comm_time = 0.000020 sec, T_cmp_b = 0.519443 sec, T_cmp_a = 0.520818 sec, T_comm_b = 0.311800 sec, T_comm_a = 0.312012 sec.
rank 29 Tb = 0.831278 sec, Ta = 0.832855 sec, comp_time = 1.040436 sec, comm_time = 0.623635 sec, neigh_comm_time = 0.623521 sec, ptp_comm_time = 0.000020 sec, coll_comm_time = 0.000020 sec, T_cmp_b = 0.519531 sec, T_cmp_a = 0.520905 sec, T_comm_b = 0.311716 sec, T_comm_a = 0.311919 sec.
rank 112 Tb = 0.831285 sec, Ta = 0.832870 sec, comp_time = 1.040441 sec, comm_time = 0.623651 sec, neigh_comm_time = 0.623537 sec, ptp_comm_time = 0.000020 sec, coll_comm_time = 0.000020 sec, T_cmp_b = 0.519533 sec, T_cmp_a = 0.520908 sec, T_comm_b = 0.311720 sec, T_comm_a = 0.311931 sec.
rank 244 Tb = 0.831257 sec, Ta = 0.832818 sec, comp_time = 1.040438 sec, comm_time = 0.623574 sec, neigh_comm_time = 0.623460 sec, ptp_comm_time = 0.000020 sec, coll_comm_time = 0.000020 sec, T_cmp_b = 0.519532 sec, T_cmp_a = 0.520906 sec, T_comm_b = 0.311693 sec, T_comm_a = 0.311880 sec.
rank 106 Tb = 0.831294 sec, Ta = 0.832874 sec, comp_time = 1.040613 sec, comm_time = 0.623493 sec, neigh_comm_time = 0.623379 sec, ptp_comm_time = 0.000020 sec, coll_comm_time = 0.000020 sec, T_cmp_b = 0.519620 sec, T_cmp_a = 0.520993 sec, T_comm_b = 0.311643 sec, T_comm_a = 0.311850 sec.
rank 0 Tb = 0.831266 sec, Ta = 0.832859 sec, comp_time = 1.040089 sec, comm_time = 0.623971 sec, neigh_comm_time = 0.623856 sec, ptp_comm_time = 0.000021 sec, coll_comm_time = 0.000021 sec, T_cmp_b = 0.519352 sec, T_cmp_a = 0.520737 sec, T_comm_b = 0.311882 sec, T_comm_a = 0.312089 sec.
rank 229 Tb = 0.831274 sec, Ta = 0.832833 sec, comp_time = 1.040437 sec, comm_time = 0.623607 sec, neigh_comm_time = 0.623493 sec, ptp_comm_time = 0.000020 sec, coll_comm_time = 0.000020 sec, T_cmp_b = 0.519531 sec, T_cmp_a = 0.520906 sec, T_comm_b = 0.311711 sec, T_comm_a = 0.311896 sec.
rank 167 Tb = 0.831294 sec, Ta = 0.832857 sec, comp_time = 1.040444 sec, comm_time = 0.623644 sec, neigh_comm_time = 0.623530 sec, ptp_comm_time = 0.000020 sec, coll_comm_time = 0.000020 sec, T_cmp_b = 0.519535 sec, T_cmp_a = 0.520909 sec, T_comm_b = 0.311728 sec, T_comm_a = 0.311917 sec.
rank 171 Tb = 0.831288 sec, Ta = 0.832868 sec, comp_time = 1.040614 sec, comm_time = 0.623480 sec, neigh_comm_time = 0.623366 sec, ptp_comm_time = 0.000020 sec, coll_comm_time = 0.000020 sec, T_cmp_b = 0.519620 sec, T_cmp_a = 0.520994 sec, T_comm_b = 0.311637 sec, T_comm_a = 0.311843 sec.
rank 176 Tb = 0.831286 sec, Ta = 0.832869 sec, comp_time = 1.040445 sec, comm_time = 0.623647 sec, neigh_comm_time = 0.623533 sec, ptp_comm_time = 0.000020 sec, coll_comm_time = 0.000020 sec, T_cmp_b = 0.519535 sec, T_cmp_a = 0.520910 sec, T_comm_b = 0.311719 sec, T_comm_a = 0.311928 sec.
rank 226 Tb = 0.831285 sec, Ta = 0.832862 sec, comp_time = 1.040437 sec, comm_time = 0.623648 sec, neigh_comm_time = 0.623534 sec, ptp_comm_time = 0.000020 sec, coll_comm_time = 0.000020 sec, T_cmp_b = 0.519531 sec, T_cmp_a = 0.520906 sec, T_comm_b = 0.311723 sec, T_comm_a = 0.311925 sec.
rank 240 Tb = 0.831240 sec, Ta = 0.832822 sec, comp_time = 1.040266 sec, comm_time = 0.623733 sec, neigh_comm_time = 0.623619 sec, ptp_comm_time = 0.000020 sec, coll_comm_time = 0.000020 sec, T_cmp_b = 0.519446 sec, T_cmp_a = 0.520820 sec, T_comm_b = 0.311763 sec, T_comm_a = 0.311971 sec.
rank 71 Tb = 0.831296 sec, Ta = 0.832875 sec, comp_time = 1.040268 sec, comm_time = 0.623840 sec, neigh_comm_time = 0.623726 sec, ptp_comm_time = 0.000020 sec, coll_comm_time = 0.000020 sec, T_cmp_b = 0.519447 sec, T_cmp_a = 0.520821 sec, T_comm_b = 0.311817 sec, T_comm_a = 0.312023 sec.
rank 37 Tb = 0.831279 sec, Ta = 0.832842 sec, comp_time = 1.040436 sec, comm_time = 0.623622 sec, neigh_comm_time = 0.623508 sec, ptp_comm_time = 0.000020 sec, coll_comm_time = 0.000020 sec, T_cmp_b = 0.519531 sec, T_cmp_a = 0.520905 sec, T_comm_b = 0.311716 sec, T_comm_a = 0.311906 sec.
rank 116 Tb = 0.831294 sec, Ta = 0.832865 sec, comp_time = 1.040615 sec, comm_time = 0.623482 sec, neigh_comm_time = 0.623368 sec, ptp_comm_time = 0.000020 sec, coll_comm_time = 0.000020 sec, T_cmp_b = 0.519620 sec, T_cmp_a = 0.520995 sec, T_comm_b = 0.311643 sec, T_comm_a = 0.311840 sec.
rank 54 Tb = 0.831272 sec, Ta = 0.832839 sec, comp_time = 1.040439 sec, comm_time = 0.623610 sec, neigh_comm_time = 0.623496 sec, ptp_comm_time = 0.000020 sec, coll_comm_time = 0.000020 sec, T_cmp_b = 0.519532 sec, T_cmp_a = 0.520907 sec, T_comm_b = 0.311709 sec, T_comm_a = 0.311901 sec.
rank 49 Tb = 0.831291 sec, Ta = 0.832865 sec, comp_time = 1.040437 sec, comm_time = 0.623656 sec, neigh_comm_time = 0.623542 sec, ptp_comm_time = 0.000020 sec, coll_comm_time = 0.000020 sec, T_cmp_b = 0.519531 sec, T_cmp_a = 0.520906 sec, T_comm_b = 0.311728 sec, T_comm_a = 0.311927 sec.
rank 181 Tb = 0.831294 sec, Ta = 0.832856 sec, comp_time = 1.040616 sec, comm_time = 0.623471 sec, neigh_comm_time = 0.623357 sec, ptp_comm_time = 0.000020 sec, coll_comm_time = 0.000020 sec, T_cmp_b = 0.519621 sec, T_cmp_a = 0.520995 sec, T_comm_b = 0.311642 sec, T_comm_a = 0.311830 sec.
rank 115 Tb = 0.831306 sec, Ta = 0.832874 sec, comp_time = 1.040615 sec, comm_time = 0.623502 sec, neigh_comm_time = 0.623388 sec, ptp_comm_time = 0.000020 sec, coll_comm_time = 0.000020 sec, T_cmp_b = 0.519620 sec, T_cmp_a = 0.520995 sec, T_comm_b = 0.311654 sec, T_comm_a = 0.311848 sec.
rank 246 Tb = 0.831269 sec, Ta = 0.832827 sec, comp_time = 1.040440 sec, comm_time = 0.623594 sec, neigh_comm_time = 0.623479 sec, ptp_comm_time = 0.000020 sec, coll_comm_time = 0.000020 sec, T_cmp_b = 0.519532 sec, T_cmp_a = 0.520908 sec, T_comm_b = 0.311705 sec, T_comm_a = 0.311889 sec.
rank 96 Tb = 0.831299 sec, Ta = 0.832890 sec, comp_time = 1.040352 sec, comm_time = 0.623775 sec, neigh_comm_time = 0.623661 sec, ptp_comm_time = 0.000020 sec, coll_comm_time = 0.000020 sec, T_cmp_b = 0.519532 sec, T_cmp_a = 0.520819 sec, T_comm_b = 0.311735 sec, T_comm_a = 0.312040 sec.
rank 34 Tb = 0.831293 sec, Ta = 0.832856 sec, comp_time = 1.040436 sec, comm_time = 0.623650 sec, neigh_comm_time = 0.623536 sec, ptp_comm_time = 0.000020 sec, coll_comm_time = 0.000020 sec, T_cmp_b = 0.519531 sec, T_cmp_a = 0.520905 sec, T_comm_b = 0.311731 sec, T_comm_a = 0.311919 sec.
rank 230 Tb = 0.831294 sec, Ta = 0.832849 sec, comp_time = 1.040439 sec, comm_time = 0.623643 sec, neigh_comm_time = 0.623529 sec, ptp_comm_time = 0.000020 sec, coll_comm_time = 0.000020 sec, T_cmp_b = 0.519532 sec, T_cmp_a = 0.520907 sec, T_comm_b = 0.311731 sec, T_comm_a = 0.311912 sec.
rank 172 Tb = 0.831285 sec, Ta = 0.832858 sec, comp_time = 1.040614 sec, comm_time = 0.623467 sec, neigh_comm_time = 0.623353 sec, ptp_comm_time = 0.000020 sec, coll_comm_time = 0.000020 sec, T_cmp_b = 0.519620 sec, T_cmp_a = 0.520994 sec, T_comm_b = 0.311634 sec, T_comm_a = 0.311833 sec.
rank 3 Tb = 0.831308 sec, Ta = 0.832884 sec, comp_time = 1.040256 sec, comm_time = 0.623870 sec, neigh_comm_time = 0.623757 sec, ptp_comm_time = 0.000020 sec, coll_comm_time = 0.000020 sec, T_cmp_b = 0.519441 sec, T_cmp_a = 0.520815 sec, T_comm_b = 0.311834 sec, T_comm_a = 0.312037 sec.
rank 27 Tb = 0.831294 sec, Ta = 0.832868 sec, comp_time = 1.040436 sec, comm_time = 0.623663 sec, neigh_comm_time = 0.623549 sec, ptp_comm_time = 0.000020 sec, coll_comm_time = 0.000020 sec, T_cmp_b = 0.519531 sec, T_cmp_a = 0.520905 sec, T_comm_b = 0.311732 sec, T_comm_a = 0.311932 sec.
rank 227 Tb = 0.831296 sec, Ta = 0.832866 sec, comp_time = 1.040437 sec, comm_time = 0.623663 sec, neigh_comm_time = 0.623548 sec, ptp_comm_time = 0.000020 sec, coll_comm_time = 0.000020 sec, T_cmp_b = 0.519531 sec, T_cmp_a = 0.520906 sec, T_comm_b = 0.311734 sec, T_comm_a = 0.311929 sec.
rank 223 Tb = 0.831272 sec, Ta = 0.832830 sec, comp_time = 1.040265 sec, comm_time = 0.623775 sec, neigh_comm_time = 0.623661 sec, ptp_comm_time = 0.000020 sec, coll_comm_time = 0.000020 sec, T_cmp_b = 0.519445 sec, T_cmp_a = 0.520820 sec, T_comm_b = 0.311796 sec, T_comm_a = 0.311979 sec.
rank 101 Tb = 0.831315 sec, Ta = 0.832879 sec, comp_time = 1.040614 sec, comm_time = 0.623518 sec, neigh_comm_time = 0.623404 sec, ptp_comm_time = 0.000020 sec, coll_comm_time = 0.000020 sec, T_cmp_b = 0.519620 sec, T_cmp_a = 0.520994 sec, T_comm_b = 0.311664 sec, T_comm_a = 0.311854 sec.
rank 36 Tb = 0.831266 sec, Ta = 0.832848 sec, comp_time = 1.040436 sec, comm_time = 0.623615 sec, neigh_comm_time = 0.623501 sec, ptp_comm_time = 0.000020 sec, coll_comm_time = 0.000020 sec, T_cmp_b = 0.519531 sec, T_cmp_a = 0.520906 sec, T_comm_b = 0.311704 sec, T_comm_a = 0.311911 sec.
rank 117 Tb = 0.831295 sec, Ta = 0.832867 sec, comp_time = 1.040615 sec, comm_time = 0.623485 sec, neigh_comm_time = 0.623370 sec, ptp_comm_time = 0.000020 sec, coll_comm_time = 0.000020 sec, T_cmp_b = 0.519620 sec, T_cmp_a = 0.520995 sec, T_comm_b = 0.311643 sec, T_comm_a = 0.311841 sec.
rank 135 Tb = 0.831296 sec, Ta = 0.832865 sec, comp_time = 1.040264 sec, comm_time = 0.623834 sec, neigh_comm_time = 0.623720 sec, ptp_comm_time = 0.000020 sec, coll_comm_time = 0.000020 sec, T_cmp_b = 0.519445 sec, T_cmp_a = 0.520819 sec, T_comm_b = 0.311820 sec, T_comm_a = 0.312015 sec.
rank 16 Tb = 0.831280 sec, Ta = 0.832875 sec, comp_time = 1.040265 sec, comm_time = 0.623827 sec, neigh_comm_time = 0.623714 sec, ptp_comm_time = 0.000020 sec, coll_comm_time = 0.000020 sec, T_cmp_b = 0.519445 sec, T_cmp_a = 0.520820 sec, T_comm_b = 0.311804 sec, T_comm_a = 0.312023 sec.
rank 180 Tb = 0.831294 sec, Ta = 0.832858 sec, comp_time = 1.040616 sec, comm_time = 0.623474 sec, neigh_comm_time = 0.623359 sec, ptp_comm_time = 0.000020 sec, coll_comm_time = 0.000020 sec, T_cmp_b = 0.519621 sec, T_cmp_a = 0.520995 sec, T_comm_b = 0.311642 sec, T_comm_a = 0.311832 sec.
rank 114 Tb = 0.831318 sec, Ta = 0.832887 sec, comp_time = 1.040616 sec, comm_time = 0.623526 sec, neigh_comm_time = 0.623412 sec, ptp_comm_time = 0.000020 sec, coll_comm_time = 0.000020 sec, T_cmp_b = 0.519621 sec, T_cmp_a = 0.520995 sec, T_comm_b = 0.311666 sec, T_comm_a = 0.311860 sec.
rank 124 Tb = 0.831258 sec, Ta = 0.832827 sec, comp_time = 1.040439 sec, comm_time = 0.623584 sec, neigh_comm_time = 0.623470 sec, ptp_comm_time = 0.000020 sec, coll_comm_time = 0.000020 sec, T_cmp_b = 0.519532 sec, T_cmp_a = 0.520907 sec, T_comm_b = 0.311694 sec, T_comm_a = 0.311889 sec.
rank 64 Tb = 0.831306 sec, Ta = 0.832898 sec, comp_time = 1.040267 sec, comm_time = 0.623874 sec, neigh_comm_time = 0.623760 sec, ptp_comm_time = 0.000020 sec, coll_comm_time = 0.000020 sec, T_cmp_b = 0.519446 sec, T_cmp_a = 0.520821 sec, T_comm_b = 0.311828 sec, T_comm_a = 0.312046 sec.
rank 35 Tb = 0.831282 sec, Ta = 0.832858 sec, comp_time = 1.040437 sec, comm_time = 0.623641 sec, neigh_comm_time = 0.623527 sec, ptp_comm_time = 0.000020 sec, coll_comm_time = 0.000020 sec, T_cmp_b = 0.519531 sec, T_cmp_a = 0.520906 sec, T_comm_b = 0.311719 sec, T_comm_a = 0.311922 sec.
rank 198 Tb = 0.831290 sec, Ta = 0.832858 sec, comp_time = 1.040261 sec, comm_time = 0.623824 sec, neigh_comm_time = 0.623710 sec, ptp_comm_time = 0.000020 sec, coll_comm_time = 0.000020 sec, T_cmp_b = 0.519444 sec, T_cmp_a = 0.520818 sec, T_comm_b = 0.311815 sec, T_comm_a = 0.312009 sec.
rank 28 Tb = 0.831280 sec, Ta = 0.832856 sec, comp_time = 1.040437 sec, comm_time = 0.623637 sec, neigh_comm_time = 0.623523 sec, ptp_comm_time = 0.000020 sec, coll_comm_time = 0.000020 sec, T_cmp_b = 0.519531 sec, T_cmp_a = 0.520906 sec, T_comm_b = 0.311718 sec, T_comm_a = 0.311919 sec.
rank 128 Tb = 0.831304 sec, Ta = 0.832897 sec, comp_time = 1.040264 sec, comm_time = 0.623875 sec, neigh_comm_time = 0.623760 sec, ptp_comm_time = 0.000020 sec, coll_comm_time = 0.000020 sec, T_cmp_b = 0.519445 sec, T_cmp_a = 0.520819 sec, T_comm_b = 0.311827 sec, T_comm_a = 0.312047 sec.
rank 182 Tb = 0.831307 sec, Ta = 0.832865 sec, comp_time = 1.040616 sec, comm_time = 0.623494 sec, neigh_comm_time = 0.623379 sec, ptp_comm_time = 0.000020 sec, coll_comm_time = 0.000020 sec, T_cmp_b = 0.519621 sec, T_cmp_a = 0.520996 sec, T_comm_b = 0.311655 sec, T_comm_a = 0.311839 sec.
rank 225 Tb = 0.831298 sec, Ta = 0.832868 sec, comp_time = 1.040439 sec, comm_time = 0.623664 sec, neigh_comm_time = 0.623550 sec, ptp_comm_time = 0.000020 sec, coll_comm_time = 0.000020 sec, T_cmp_b = 0.519533 sec, T_cmp_a = 0.520907 sec, T_comm_b = 0.311734 sec, T_comm_a = 0.311930 sec.
rank 242 Tb = 0.831280 sec, Ta = 0.832849 sec, comp_time = 1.040439 sec, comm_time = 0.623628 sec, neigh_comm_time = 0.623513 sec, ptp_comm_time = 0.000020 sec, coll_comm_time = 0.000020 sec, T_cmp_b = 0.519532 sec, T_cmp_a = 0.520906 sec, T_comm_b = 0.311716 sec, T_comm_a = 0.311912 sec.
rank 102 Tb = 0.831327 sec, Ta = 0.832893 sec, comp_time = 1.040616 sec, comm_time = 0.623542 sec, neigh_comm_time = 0.623428 sec, ptp_comm_time = 0.000020 sec, coll_comm_time = 0.000020 sec, T_cmp_b = 0.519621 sec, T_cmp_a = 0.520995 sec, T_comm_b = 0.311675 sec, T_comm_a = 0.311867 sec.
rank 38 Tb = 0.831290 sec, Ta = 0.832857 sec, comp_time = 1.040439 sec, comm_time = 0.623646 sec, neigh_comm_time = 0.623532 sec, ptp_comm_time = 0.000020 sec, coll_comm_time = 0.000020 sec, T_cmp_b = 0.519532 sec, T_cmp_a = 0.520907 sec, T_comm_b = 0.311727 sec, T_comm_a = 0.311920 sec.
rank 118 Tb = 0.831308 sec, Ta = 0.832874 sec, comp_time = 1.040617 sec, comm_time = 0.623503 sec, neigh_comm_time = 0.623389 sec, ptp_comm_time = 0.000020 sec, coll_comm_time = 0.000020 sec, T_cmp_b = 0.519621 sec, T_cmp_a = 0.520996 sec, T_comm_b = 0.311656 sec, T_comm_a = 0.311848 sec.
rank 5 Tb = 0.831296 sec, Ta = 0.832871 sec, comp_time = 1.040256 sec, comm_time = 0.623848 sec, neigh_comm_time = 0.623735 sec, ptp_comm_time = 0.000020 sec, coll_comm_time = 0.000020 sec, T_cmp_b = 0.519440 sec, T_cmp_a = 0.520816 sec, T_comm_b = 0.311824 sec, T_comm_a = 0.312024 sec.
rank 26 Tb = 0.831292 sec, Ta = 0.832888 sec, comp_time = 1.040436 sec, comm_time = 0.623681 sec, neigh_comm_time = 0.623567 sec, ptp_comm_time = 0.000020 sec, coll_comm_time = 0.000020 sec, T_cmp_b = 0.519531 sec, T_cmp_a = 0.520905 sec, T_comm_b = 0.311729 sec, T_comm_a = 0.311951 sec.
rank 179 Tb = 0.831303 sec, Ta = 0.832873 sec, comp_time = 1.040615 sec, comm_time = 0.623498 sec, neigh_comm_time = 0.623384 sec, ptp_comm_time = 0.000020 sec, coll_comm_time = 0.000020 sec, T_cmp_b = 0.519620 sec, T_cmp_a = 0.520995 sec, T_comm_b = 0.311652 sec, T_comm_a = 0.311847 sec.
rank 113 Tb = 0.831330 sec, Ta = 0.832899 sec, comp_time = 1.040616 sec, comm_time = 0.623550 sec, neigh_comm_time = 0.623436 sec, ptp_comm_time = 0.000020 sec, coll_comm_time = 0.000020 sec, T_cmp_b = 0.519621 sec, T_cmp_a = 0.520995 sec, T_comm_b = 0.311678 sec, T_comm_a = 0.311873 sec.
rank 215 Tb = 0.831274 sec, Ta = 0.832838 sec, comp_time = 1.040261 sec, comm_time = 0.623788 sec, neigh_comm_time = 0.623675 sec, ptp_comm_time = 0.000020 sec, coll_comm_time = 0.000020 sec, T_cmp_b = 0.519443 sec, T_cmp_a = 0.520819 sec, T_comm_b = 0.311799 sec, T_comm_a = 0.311989 sec.
rank 99 Tb = 0.831318 sec, Ta = 0.832894 sec, comp_time = 1.040615 sec, comm_time = 0.623535 sec, neigh_comm_time = 0.623421 sec, ptp_comm_time = 0.000020 sec, coll_comm_time = 0.000020 sec, T_cmp_b = 0.519620 sec, T_cmp_a = 0.520995 sec, T_comm_b = 0.311666 sec, T_comm_a = 0.311869 sec.
rank 41 Tb = 0.831283 sec, Ta = 0.832870 sec, comp_time = 1.040438 sec, comm_time = 0.623653 sec, neigh_comm_time = 0.623538 sec, ptp_comm_time = 0.000020 sec, coll_comm_time = 0.000020 sec, T_cmp_b = 0.519532 sec, T_cmp_a = 0.520907 sec, T_comm_b = 0.311720 sec, T_comm_a = 0.311933 sec.
rank 228 Tb = 0.831273 sec, Ta = 0.832856 sec, comp_time = 1.040436 sec, comm_time = 0.623630 sec, neigh_comm_time = 0.623516 sec, ptp_comm_time = 0.000020 sec, coll_comm_time = 0.000020 sec, T_cmp_b = 0.519530 sec, T_cmp_a = 0.520906 sec, T_comm_b = 0.311711 sec, T_comm_a = 0.311919 sec.
rank 23 Tb = 0.831279 sec, Ta = 0.832860 sec, comp_time = 1.040265 sec, comm_time = 0.623811 sec, neigh_comm_time = 0.623698 sec, ptp_comm_time = 0.000020 sec, coll_comm_time = 0.000020 sec, T_cmp_b = 0.519445 sec, T_cmp_a = 0.520820 sec, T_comm_b = 0.311803 sec, T_comm_a = 0.312009 sec.
rank 169 Tb = 0.831321 sec, Ta = 0.832895 sec, comp_time = 1.040615 sec, comm_time = 0.623538 sec, neigh_comm_time = 0.623424 sec, ptp_comm_time = 0.000020 sec, coll_comm_time = 0.000020 sec, T_cmp_b = 0.519620 sec, T_cmp_a = 0.520995 sec, T_comm_b = 0.311670 sec, T_comm_a = 0.311868 sec.
rank 159 Tb = 0.831312 sec, Ta = 0.832870 sec, comp_time = 1.040444 sec, comm_time = 0.623676 sec, neigh_comm_time = 0.623561 sec, ptp_comm_time = 0.000020 sec, coll_comm_time = 0.000020 sec, T_cmp_b = 0.519535 sec, T_cmp_a = 0.520909 sec, T_comm_b = 0.311746 sec, T_comm_a = 0.311930 sec.
rank 195 Tb = 0.831302 sec, Ta = 0.832873 sec, comp_time = 1.040253 sec, comm_time = 0.623857 sec, neigh_comm_time = 0.623743 sec, ptp_comm_time = 0.000020 sec, coll_comm_time = 0.000020 sec, T_cmp_b = 0.519439 sec, T_cmp_a = 0.520814 sec, T_comm_b = 0.311830 sec, T_comm_a = 0.312027 sec.
rank 122 Tb = 0.831279 sec, Ta = 0.832849 sec, comp_time = 1.040439 sec, comm_time = 0.623627 sec, neigh_comm_time = 0.623513 sec, ptp_comm_time = 0.000020 sec, coll_comm_time = 0.000020 sec, T_cmp_b = 0.519532 sec, T_cmp_a = 0.520907 sec, T_comm_b = 0.311715 sec, T_comm_a = 0.311911 sec.
rank 70 Tb = 0.831333 sec, Ta = 0.832910 sec, comp_time = 1.040440 sec, comm_time = 0.623741 sec, neigh_comm_time = 0.623627 sec, ptp_comm_time = 0.000020 sec, coll_comm_time = 0.000020 sec, T_cmp_b = 0.519533 sec, T_cmp_a = 0.520907 sec, T_comm_b = 0.311769 sec, T_comm_a = 0.311972 sec.
rank 6 Tb = 0.831294 sec, Ta = 0.832870 sec, comp_time = 1.040263 sec, comm_time = 0.623839 sec, neigh_comm_time = 0.623724 sec, ptp_comm_time = 0.000020 sec, coll_comm_time = 0.000020 sec, T_cmp_b = 0.519444 sec, T_cmp_a = 0.520819 sec, T_comm_b = 0.311818 sec, T_comm_a = 0.312021 sec.
rank 95 Tb = 0.831298 sec, Ta = 0.832878 sec, comp_time = 1.040440 sec, comm_time = 0.623674 sec, neigh_comm_time = 0.623560 sec, ptp_comm_time = 0.000020 sec, coll_comm_time = 0.000020 sec, T_cmp_b = 0.519533 sec, T_cmp_a = 0.520907 sec, T_comm_b = 0.311734 sec, T_comm_a = 0.311941 sec.
rank 174 Tb = 0.831305 sec, Ta = 0.832874 sec, comp_time = 1.040615 sec, comm_time = 0.623501 sec, neigh_comm_time = 0.623387 sec, ptp_comm_time = 0.000020 sec, coll_comm_time = 0.000020 sec, T_cmp_b = 0.519620 sec, T_cmp_a = 0.520995 sec, T_comm_b = 0.311653 sec, T_comm_a = 0.311848 sec.
rank 25 Tb = 0.831313 sec, Ta = 0.832897 sec, comp_time = 1.040440 sec, comm_time = 0.623708 sec, neigh_comm_time = 0.623594 sec, ptp_comm_time = 0.000020 sec, coll_comm_time = 0.000020 sec, T_cmp_b = 0.519533 sec, T_cmp_a = 0.520907 sec, T_comm_b = 0.311749 sec, T_comm_a = 0.311959 sec.
rank 178 Tb = 0.831316 sec, Ta = 0.832889 sec, comp_time = 1.040616 sec, comm_time = 0.623528 sec, neigh_comm_time = 0.623413 sec, ptp_comm_time = 0.000020 sec, coll_comm_time = 0.000020 sec, T_cmp_b = 0.519621 sec, T_cmp_a = 0.520995 sec, T_comm_b = 0.311664 sec, T_comm_a = 0.311863 sec.
rank 88 Tb = 0.831314 sec, Ta = 0.832903 sec, comp_time = 1.040440 sec, comm_time = 0.623715 sec, neigh_comm_time = 0.623601 sec, ptp_comm_time = 0.000020 sec, coll_comm_time = 0.000020 sec, T_cmp_b = 0.519533 sec, T_cmp_a = 0.520907 sec, T_comm_b = 0.311750 sec, T_comm_a = 0.311965 sec.
rank 221 Tb = 0.831278 sec, Ta = 0.832839 sec, comp_time = 1.040436 sec, comm_time = 0.623618 sec, neigh_comm_time = 0.623504 sec, ptp_comm_time = 0.000020 sec, coll_comm_time = 0.000020 sec, T_cmp_b = 0.519531 sec, T_cmp_a = 0.520905 sec, T_comm_b = 0.311715 sec, T_comm_a = 0.311903 sec.
rank 105 Tb = 0.831324 sec, Ta = 0.832906 sec, comp_time = 1.040615 sec, comm_time = 0.623552 sec, neigh_comm_time = 0.623438 sec, ptp_comm_time = 0.000020 sec, coll_comm_time = 0.000020 sec, T_cmp_b = 0.519620 sec, T_cmp_a = 0.520995 sec, T_comm_b = 0.311672 sec, T_comm_a = 0.311880 sec.
rank 33 Tb = 0.831301 sec, Ta = 0.832886 sec, comp_time = 1.040440 sec, comm_time = 0.623684 sec, neigh_comm_time = 0.623570 sec, ptp_comm_time = 0.000020 sec, coll_comm_time = 0.000020 sec, T_cmp_b = 0.519532 sec, T_cmp_a = 0.520907 sec, T_comm_b = 0.311737 sec, T_comm_a = 0.311947 sec.
rank 207 Tb = 0.831287 sec, Ta = 0.832859 sec, comp_time = 1.040267 sec, comm_time = 0.623817 sec, neigh_comm_time = 0.623703 sec, ptp_comm_time = 0.000020 sec, coll_comm_time = 0.000020 sec, T_cmp_b = 0.519446 sec, T_cmp_a = 0.520821 sec, T_comm_b = 0.311810 sec, T_comm_a = 0.312007 sec.
rank 30 Tb = 0.831299 sec, Ta = 0.832878 sec, comp_time = 1.040439 sec, comm_time = 0.623676 sec, neigh_comm_time = 0.623562 sec, ptp_comm_time = 0.000020 sec, coll_comm_time = 0.000020 sec, T_cmp_b = 0.519532 sec, T_cmp_a = 0.520907 sec, T_comm_b = 0.311736 sec, T_comm_a = 0.311941 sec.
rank 18 Tb = 0.831341 sec, Ta = 0.832901 sec, comp_time = 1.040436 sec, comm_time = 0.623744 sec, neigh_comm_time = 0.623630 sec, ptp_comm_time = 0.000020 sec, coll_comm_time = 0.000020 sec, T_cmp_b = 0.519531 sec, T_cmp_a = 0.520905 sec, T_comm_b = 0.311779 sec, T_comm_a = 0.311966 sec.
rank 157 Tb = 0.831327 sec, Ta = 0.832891 sec, comp_time = 1.040614 sec, comm_time = 0.623541 sec, neigh_comm_time = 0.623427 sec, ptp_comm_time = 0.000020 sec, coll_comm_time = 0.000020 sec, T_cmp_b = 0.519620 sec, T_cmp_a = 0.520994 sec, T_comm_b = 0.311675 sec, T_comm_a = 0.311866 sec.
rank 193 Tb = 0.831302 sec, Ta = 0.832887 sec, comp_time = 1.040263 sec, comm_time = 0.623864 sec, neigh_comm_time = 0.623749 sec, ptp_comm_time = 0.000020 sec, coll_comm_time = 0.000020 sec, T_cmp_b = 0.519444 sec, T_cmp_a = 0.520818 sec, T_comm_b = 0.311826 sec, T_comm_a = 0.312037 sec.
rank 241 Tb = 0.831289 sec, Ta = 0.832857 sec, comp_time = 1.040437 sec, comm_time = 0.623646 sec, neigh_comm_time = 0.623532 sec, ptp_comm_time = 0.000020 sec, coll_comm_time = 0.000020 sec, T_cmp_b = 0.519531 sec, T_cmp_a = 0.520906 sec, T_comm_b = 0.311726 sec, T_comm_a = 0.311921 sec.
rank 79 Tb = 0.831327 sec, Ta = 0.832909 sec, comp_time = 1.040442 sec, comm_time = 0.623732 sec, neigh_comm_time = 0.623618 sec, ptp_comm_time = 0.000020 sec, coll_comm_time = 0.000020 sec, T_cmp_b = 0.519533 sec, T_cmp_a = 0.520908 sec, T_comm_b = 0.311762 sec, T_comm_a = 0.311970 sec.
rank 15 Tb = 0.831287 sec, Ta = 0.832875 sec, comp_time = 1.040264 sec, comm_time = 0.623836 sec, neigh_comm_time = 0.623722 sec, ptp_comm_time = 0.000020 sec, coll_comm_time = 0.000020 sec, T_cmp_b = 0.519445 sec, T_cmp_a = 0.520819 sec, T_comm_b = 0.311811 sec, T_comm_a = 0.312025 sec.
rank 87 Tb = 0.831318 sec, Ta = 0.832893 sec, comp_time = 1.040444 sec, comm_time = 0.623705 sec, neigh_comm_time = 0.623591 sec, ptp_comm_time = 0.000020 sec, coll_comm_time = 0.000020 sec, T_cmp_b = 0.519535 sec, T_cmp_a = 0.520909 sec, T_comm_b = 0.311752 sec, T_comm_a = 0.311953 sec.
rank 165 Tb = 0.831314 sec, Ta = 0.832875 sec, comp_time = 1.040615 sec, comm_time = 0.623513 sec, neigh_comm_time = 0.623399 sec, ptp_comm_time = 0.000020 sec, coll_comm_time = 0.000020 sec, T_cmp_b = 0.519620 sec, T_cmp_a = 0.520995 sec, T_comm_b = 0.311663 sec, T_comm_a = 0.311850 sec.
rank 162 Tb = 0.831326 sec, Ta = 0.832903 sec, comp_time = 1.040615 sec, comm_time = 0.623551 sec, neigh_comm_time = 0.623437 sec, ptp_comm_time = 0.000020 sec, coll_comm_time = 0.000020 sec, T_cmp_b = 0.519620 sec, T_cmp_a = 0.520995 sec, T_comm_b = 0.311674 sec, T_comm_a = 0.311877 sec.
rank 177 Tb = 0.831329 sec, Ta = 0.832898 sec, comp_time = 1.040616 sec, comm_time = 0.623548 sec, neigh_comm_time = 0.623434 sec, ptp_comm_time = 0.000020 sec, coll_comm_time = 0.000020 sec, T_cmp_b = 0.519621 sec, T_cmp_a = 0.520996 sec, T_comm_b = 0.311677 sec, T_comm_a = 0.311871 sec.
rank 91 Tb = 0.831334 sec, Ta = 0.832906 sec, comp_time = 1.040614 sec, comm_time = 0.623564 sec, neigh_comm_time = 0.623449 sec, ptp_comm_time = 0.000020 sec, coll_comm_time = 0.000020 sec, T_cmp_b = 0.519620 sec, T_cmp_a = 0.520995 sec, T_comm_b = 0.311682 sec, T_comm_a = 0.311881 sec.
rank 220 Tb = 0.831281 sec, Ta = 0.832850 sec, comp_time = 1.040437 sec, comm_time = 0.623631 sec, neigh_comm_time = 0.623517 sec, ptp_comm_time = 0.000020 sec, coll_comm_time = 0.000020 sec, T_cmp_b = 0.519531 sec, T_cmp_a = 0.520906 sec, T_comm_b = 0.311719 sec, T_comm_a = 0.311913 sec.
rank 97 Tb = 0.831340 sec, Ta = 0.832921 sec, comp_time = 1.040616 sec, comm_time = 0.623582 sec, neigh_comm_time = 0.623468 sec, ptp_comm_time = 0.000020 sec, coll_comm_time = 0.000020 sec, T_cmp_b = 0.519621 sec, T_cmp_a = 0.520995 sec, T_comm_b = 0.311688 sec, T_comm_a = 0.311894 sec.
rank 1 Tb = 0.831308 sec, Ta = 0.832894 sec, comp_time = 1.040263 sec, comm_time = 0.623877 sec, neigh_comm_time = 0.623763 sec, ptp_comm_time = 0.000020 sec, coll_comm_time = 0.000020 sec, T_cmp_b = 0.519444 sec, T_cmp_a = 0.520819 sec, T_comm_b = 0.311833 sec, T_comm_a = 0.312044 sec.
rank 197 Tb = 0.831297 sec, Ta = 0.832862 sec, comp_time = 1.040252 sec, comm_time = 0.623842 sec, neigh_comm_time = 0.623729 sec, ptp_comm_time = 0.000020 sec, coll_comm_time = 0.000020 sec, T_cmp_b = 0.519438 sec, T_cmp_a = 0.520814 sec, T_comm_b = 0.311826 sec, T_comm_a = 0.312016 sec.
rank 22 Tb = 0.831322 sec, Ta = 0.832893 sec, comp_time = 1.040437 sec, comm_time = 0.623715 sec, neigh_comm_time = 0.623601 sec, ptp_comm_time = 0.000020 sec, coll_comm_time = 0.000020 sec, T_cmp_b = 0.519532 sec, T_cmp_a = 0.520906 sec, T_comm_b = 0.311758 sec, T_comm_a = 0.311957 sec.
rank 19 Tb = 0.831337 sec, Ta = 0.832909 sec, comp_time = 1.040437 sec, comm_time = 0.623746 sec, neigh_comm_time = 0.623632 sec, ptp_comm_time = 0.000020 sec, coll_comm_time = 0.000020 sec, T_cmp_b = 0.519532 sec, T_cmp_a = 0.520906 sec, T_comm_b = 0.311774 sec, T_comm_a = 0.311973 sec.
rank 151 Tb = 0.831321 sec, Ta = 0.832896 sec, comp_time = 1.040440 sec, comm_time = 0.623714 sec, neigh_comm_time = 0.623600 sec, ptp_comm_time = 0.000020 sec, coll_comm_time = 0.000020 sec, T_cmp_b = 0.519533 sec, T_cmp_a = 0.520907 sec, T_comm_b = 0.311756 sec, T_comm_a = 0.311958 sec.
rank 194 Tb = 0.831305 sec, Ta = 0.832885 sec, comp_time = 1.040253 sec, comm_time = 0.623872 sec, neigh_comm_time = 0.623758 sec, ptp_comm_time = 0.000020 sec, coll_comm_time = 0.000020 sec, T_cmp_b = 0.519439 sec, T_cmp_a = 0.520814 sec, T_comm_b = 0.311833 sec, T_comm_a = 0.312039 sec.
rank 208 Tb = 0.831287 sec, Ta = 0.832874 sec, comp_time = 1.040260 sec, comm_time = 0.623838 sec, neigh_comm_time = 0.623724 sec, ptp_comm_time = 0.000020 sec, coll_comm_time = 0.000020 sec, T_cmp_b = 0.519443 sec, T_cmp_a = 0.520817 sec, T_comm_b = 0.311812 sec, T_comm_a = 0.312026 sec.
rank 69 Tb = 0.831337 sec, Ta = 0.832913 sec, comp_time = 1.040439 sec, comm_time = 0.623749 sec, neigh_comm_time = 0.623635 sec, ptp_comm_time = 0.000020 sec, coll_comm_time = 0.000020 sec, T_cmp_b = 0.519532 sec, T_cmp_a = 0.520907 sec, T_comm_b = 0.311773 sec, T_comm_a = 0.311976 sec.
rank 4 Tb = 0.831299 sec, Ta = 0.832877 sec, comp_time = 1.040254 sec, comm_time = 0.623858 sec, neigh_comm_time = 0.623745 sec, ptp_comm_time = 0.000020 sec, coll_comm_time = 0.000020 sec, T_cmp_b = 0.519439 sec, T_cmp_a = 0.520815 sec, T_comm_b = 0.311828 sec, T_comm_a = 0.312030 sec.
rank 92 Tb = 0.831326 sec, Ta = 0.832895 sec, comp_time = 1.040615 sec, comm_time = 0.623544 sec, neigh_comm_time = 0.623430 sec, ptp_comm_time = 0.000020 sec, coll_comm_time = 0.000020 sec, T_cmp_b = 0.519620 sec, T_cmp_a = 0.520995 sec, T_comm_b = 0.311674 sec, T_comm_a = 0.311870 sec.
rank 20 Tb = 0.831330 sec, Ta = 0.832899 sec, comp_time = 1.040436 sec, comm_time = 0.623730 sec, neigh_comm_time = 0.623616 sec, ptp_comm_time = 0.000020 sec, coll_comm_time = 0.000020 sec, T_cmp_b = 0.519531 sec, T_cmp_a = 0.520905 sec, T_comm_b = 0.311767 sec, T_comm_a = 0.311963 sec.
rank 163 Tb = 0.831336 sec, Ta = 0.832909 sec, comp_time = 1.040615 sec, comm_time = 0.623567 sec, neigh_comm_time = 0.623453 sec, ptp_comm_time = 0.000020 sec, coll_comm_time = 0.000020 sec, T_cmp_b = 0.519620 sec, T_cmp_a = 0.520995 sec, T_comm_b = 0.311684 sec, T_comm_a = 0.311883 sec.
rank 155 Tb = 0.831348 sec, Ta = 0.832915 sec, comp_time = 1.040615 sec, comm_time = 0.623585 sec, neigh_comm_time = 0.623471 sec, ptp_comm_time = 0.000020 sec, coll_comm_time = 0.000020 sec, T_cmp_b = 0.519620 sec, T_cmp_a = 0.520995 sec, T_comm_b = 0.311696 sec, T_comm_a = 0.311889 sec.
rank 80 Tb = 0.831331 sec, Ta = 0.832923 sec, comp_time = 1.040444 sec, comm_time = 0.623748 sec, neigh_comm_time = 0.623634 sec, ptp_comm_time = 0.000020 sec, coll_comm_time = 0.000020 sec, T_cmp_b = 0.519535 sec, T_cmp_a = 0.520909 sec, T_comm_b = 0.311765 sec, T_comm_a = 0.311983 sec.
rank 222 Tb = 0.831308 sec, Ta = 0.832864 sec, comp_time = 1.040438 sec, comm_time = 0.623672 sec, neigh_comm_time = 0.623558 sec, ptp_comm_time = 0.000020 sec, coll_comm_time = 0.000020 sec, T_cmp_b = 0.519532 sec, T_cmp_a = 0.520906 sec, T_comm_b = 0.311744 sec, T_comm_a = 0.311928 sec.
rank 65 Tb = 0.831348 sec, Ta = 0.832932 sec, comp_time = 1.040438 sec, comm_time = 0.623780 sec, neigh_comm_time = 0.623666 sec, ptp_comm_time = 0.000020 sec, coll_comm_time = 0.000020 sec, T_cmp_b = 0.519531 sec, T_cmp_a = 0.520907 sec, T_comm_b = 0.311786 sec, T_comm_a = 0.311994 sec.
rank 2 Tb = 0.831314 sec, Ta = 0.832898 sec, comp_time = 1.040253 sec, comm_time = 0.623894 sec, neigh_comm_time = 0.623781 sec, ptp_comm_time = 0.000020 sec, coll_comm_time = 0.000020 sec, T_cmp_b = 0.519439 sec, T_cmp_a = 0.520814 sec, T_comm_b = 0.311842 sec, T_comm_a = 0.312052 sec.
rank 196 Tb = 0.831302 sec, Ta = 0.832868 sec, comp_time = 1.040252 sec, comm_time = 0.623853 sec, neigh_comm_time = 0.623739 sec, ptp_comm_time = 0.000020 sec, coll_comm_time = 0.000020 sec, T_cmp_b = 0.519439 sec, T_cmp_a = 0.520814 sec, T_comm_b = 0.311830 sec, T_comm_a = 0.312023 sec.
rank 166 Tb = 0.831335 sec, Ta = 0.832890 sec, comp_time = 1.040615 sec, comm_time = 0.623548 sec, neigh_comm_time = 0.623434 sec, ptp_comm_time = 0.000020 sec, coll_comm_time = 0.000020 sec, T_cmp_b = 0.519620 sec, T_cmp_a = 0.520995 sec, T_comm_b = 0.311684 sec, T_comm_a = 0.311864 sec.
rank 17 Tb = 0.831333 sec, Ta = 0.832918 sec, comp_time = 1.040440 sec, comm_time = 0.623749 sec, neigh_comm_time = 0.623634 sec, ptp_comm_time = 0.000020 sec, coll_comm_time = 0.000020 sec, T_cmp_b = 0.519533 sec, T_cmp_a = 0.520907 sec, T_comm_b = 0.311769 sec, T_comm_a = 0.311980 sec.
rank 144 Tb = 0.831329 sec, Ta = 0.832921 sec, comp_time = 1.040440 sec, comm_time = 0.623748 sec, neigh_comm_time = 0.623634 sec, ptp_comm_time = 0.000020 sec, coll_comm_time = 0.000020 sec, T_cmp_b = 0.519533 sec, T_cmp_a = 0.520907 sec, T_comm_b = 0.311765 sec, T_comm_a = 0.311983 sec.
rank 98 Tb = 0.831328 sec, Ta = 0.832892 sec, comp_time = 1.040614 sec, comm_time = 0.623543 sec, neigh_comm_time = 0.623429 sec, ptp_comm_time = 0.000020 sec, coll_comm_time = 0.000020 sec, T_cmp_b = 0.519620 sec, T_cmp_a = 0.520994 sec, T_comm_b = 0.311676 sec, T_comm_a = 0.311867 sec.
rank 216 Tb = 0.831272 sec, Ta = 0.832874 sec, comp_time = 1.040265 sec, comm_time = 0.623818 sec, neigh_comm_time = 0.623704 sec, ptp_comm_time = 0.000020 sec, coll_comm_time = 0.000020 sec, T_cmp_b = 0.519445 sec, T_cmp_a = 0.520820 sec, T_comm_b = 0.311795 sec, T_comm_a = 0.312024 sec.
rank 68 Tb = 0.831343 sec, Ta = 0.832919 sec, comp_time = 1.040438 sec, comm_time = 0.623761 sec, neigh_comm_time = 0.623647 sec, ptp_comm_time = 0.000020 sec, coll_comm_time = 0.000020 sec, T_cmp_b = 0.519532 sec, T_cmp_a = 0.520906 sec, T_comm_b = 0.311780 sec, T_comm_a = 0.311982 sec.
rank 14 Tb = 0.831332 sec, Ta = 0.832908 sec, comp_time = 1.040439 sec, comm_time = 0.623738 sec, neigh_comm_time = 0.623624 sec, ptp_comm_time = 0.000020 sec, coll_comm_time = 0.000020 sec, T_cmp_b = 0.519532 sec, T_cmp_a = 0.520907 sec, T_comm_b = 0.311768 sec, T_comm_a = 0.311970 sec.
rank 93 Tb = 0.831318 sec, Ta = 0.832898 sec, comp_time = 1.040614 sec, comm_time = 0.623539 sec, neigh_comm_time = 0.623425 sec, ptp_comm_time = 0.000020 sec, coll_comm_time = 0.000020 sec, T_cmp_b = 0.519620 sec, T_cmp_a = 0.520994 sec, T_comm_b = 0.311667 sec, T_comm_a = 0.311872 sec.
rank 21 Tb = 0.831322 sec, Ta = 0.832902 sec, comp_time = 1.040437 sec, comm_time = 0.623726 sec, neigh_comm_time = 0.623611 sec, ptp_comm_time = 0.000020 sec, coll_comm_time = 0.000020 sec, T_cmp_b = 0.519531 sec, T_cmp_a = 0.520906 sec, T_comm_b = 0.311760 sec, T_comm_a = 0.311966 sec.
rank 161 Tb = 0.831342 sec, Ta = 0.832916 sec, comp_time = 1.040526 sec, comm_time = 0.623669 sec, neigh_comm_time = 0.623555 sec, ptp_comm_time = 0.000020 sec, coll_comm_time = 0.000020 sec, T_cmp_b = 0.519620 sec, T_cmp_a = 0.520907 sec, T_comm_b = 0.311691 sec, T_comm_a = 0.311978 sec.
rank 156 Tb = 0.831331 sec, Ta = 0.832897 sec, comp_time = 1.040615 sec, comm_time = 0.623551 sec, neigh_comm_time = 0.623437 sec, ptp_comm_time = 0.000020 sec, coll_comm_time = 0.000020 sec, T_cmp_b = 0.519620 sec, T_cmp_a = 0.520994 sec, T_comm_b = 0.311679 sec, T_comm_a = 0.311872 sec.
rank 90 Tb = 0.831341 sec, Ta = 0.832922 sec, comp_time = 1.040614 sec, comm_time = 0.623587 sec, neigh_comm_time = 0.623473 sec, ptp_comm_time = 0.000020 sec, coll_comm_time = 0.000020 sec, T_cmp_b = 0.519620 sec, T_cmp_a = 0.520994 sec, T_comm_b = 0.311690 sec, T_comm_a = 0.311897 sec.
rank 214 Tb = 0.831317 sec, Ta = 0.832888 sec, comp_time = 1.040438 sec, comm_time = 0.623704 sec, neigh_comm_time = 0.623590 sec, ptp_comm_time = 0.000020 sec, coll_comm_time = 0.000020 sec, T_cmp_b = 0.519532 sec, T_cmp_a = 0.520906 sec, T_comm_b = 0.311754 sec, T_comm_a = 0.311951 sec.
rank 67 Tb = 0.831351 sec, Ta = 0.832933 sec, comp_time = 1.040438 sec, comm_time = 0.623783 sec, neigh_comm_time = 0.623669 sec, ptp_comm_time = 0.000020 sec, coll_comm_time = 0.000020 sec, T_cmp_b = 0.519532 sec, T_cmp_a = 0.520906 sec, T_comm_b = 0.311788 sec, T_comm_a = 0.311996 sec.
rank 8 Tb = 0.831317 sec, Ta = 0.832902 sec, comp_time = 1.040265 sec, comm_time = 0.623891 sec, neigh_comm_time = 0.623777 sec, ptp_comm_time = 0.000020 sec, coll_comm_time = 0.000020 sec, T_cmp_b = 0.519445 sec, T_cmp_a = 0.520820 sec, T_comm_b = 0.311840 sec, T_comm_a = 0.312051 sec.
rank 100 Tb = 0.831300 sec, Ta = 0.832883 sec, comp_time = 1.040614 sec, comm_time = 0.623507 sec, neigh_comm_time = 0.623393 sec, ptp_comm_time = 0.000020 sec, coll_comm_time = 0.000020 sec, T_cmp_b = 0.519620 sec, T_cmp_a = 0.520995 sec, T_comm_b = 0.311649 sec, T_comm_a = 0.311858 sec.
rank 164 Tb = 0.831315 sec, Ta = 0.832898 sec, comp_time = 1.040614 sec, comm_time = 0.623536 sec, neigh_comm_time = 0.623422 sec, ptp_comm_time = 0.000020 sec, coll_comm_time = 0.000020 sec, T_cmp_b = 0.519620 sec, T_cmp_a = 0.520995 sec, T_comm_b = 0.311663 sec, T_comm_a = 0.311872 sec.
rank 131 Tb = 0.831352 sec, Ta = 0.832923 sec, comp_time = 1.040439 sec, comm_time = 0.623773 sec, neigh_comm_time = 0.623659 sec, ptp_comm_time = 0.000020 sec, coll_comm_time = 0.000020 sec, T_cmp_b = 0.519532 sec, T_cmp_a = 0.520907 sec, T_comm_b = 0.311788 sec, T_comm_a = 0.311985 sec.
rank 154 Tb = 0.831336 sec, Ta = 0.832918 sec, comp_time = 1.040615 sec, comm_time = 0.623577 sec, neigh_comm_time = 0.623463 sec, ptp_comm_time = 0.000020 sec, coll_comm_time = 0.000020 sec, T_cmp_b = 0.519620 sec, T_cmp_a = 0.520995 sec, T_comm_b = 0.311684 sec, T_comm_a = 0.311893 sec.
rank 200 Tb = 0.831303 sec, Ta = 0.832892 sec, comp_time = 1.040267 sec, comm_time = 0.623866 sec, neigh_comm_time = 0.623752 sec, ptp_comm_time = 0.000020 sec, coll_comm_time = 0.000020 sec, T_cmp_b = 0.519446 sec, T_cmp_a = 0.520821 sec, T_comm_b = 0.311826 sec, T_comm_a = 0.312040 sec.
rank 219 Tb = 0.831305 sec, Ta = 0.832873 sec, comp_time = 1.040437 sec, comm_time = 0.623678 sec, neigh_comm_time = 0.623564 sec, ptp_comm_time = 0.000020 sec, coll_comm_time = 0.000020 sec, T_cmp_b = 0.519531 sec, T_cmp_a = 0.520906 sec, T_comm_b = 0.311742 sec, T_comm_a = 0.311936 sec.
rank 78 Tb = 0.831371 sec, Ta = 0.832944 sec, comp_time = 1.040617 sec, comm_time = 0.623635 sec, neigh_comm_time = 0.623521 sec, ptp_comm_time = 0.000020 sec, coll_comm_time = 0.000020 sec, T_cmp_b = 0.519621 sec, T_cmp_a = 0.520996 sec, T_comm_b = 0.311718 sec, T_comm_a = 0.311917 sec.
rank 13 Tb = 0.831335 sec, Ta = 0.832911 sec, comp_time = 1.040438 sec, comm_time = 0.623745 sec, neigh_comm_time = 0.623631 sec, ptp_comm_time = 0.000020 sec, coll_comm_time = 0.000020 sec, T_cmp_b = 0.519532 sec, T_cmp_a = 0.520906 sec, T_comm_b = 0.311772 sec, T_comm_a = 0.311974 sec.
rank 94 Tb = 0.831340 sec, Ta = 0.832913 sec, comp_time = 1.040615 sec, comm_time = 0.623575 sec, neigh_comm_time = 0.623461 sec, ptp_comm_time = 0.000020 sec, coll_comm_time = 0.000020 sec, T_cmp_b = 0.519620 sec, T_cmp_a = 0.520995 sec, T_comm_b = 0.311688 sec, T_comm_a = 0.311887 sec.
rank 134 Tb = 0.831341 sec, Ta = 0.832905 sec, comp_time = 1.040440 sec, comm_time = 0.623742 sec, neigh_comm_time = 0.623628 sec, ptp_comm_time = 0.000020 sec, coll_comm_time = 0.000020 sec, T_cmp_b = 0.519533 sec, T_cmp_a = 0.520907 sec, T_comm_b = 0.311776 sec, T_comm_a = 0.311966 sec.
rank 129 Tb = 0.831346 sec, Ta = 0.832935 sec, comp_time = 1.040437 sec, comm_time = 0.623781 sec, neigh_comm_time = 0.623667 sec, ptp_comm_time = 0.000020 sec, coll_comm_time = 0.000020 sec, T_cmp_b = 0.519531 sec, T_cmp_a = 0.520906 sec, T_comm_b = 0.311784 sec, T_comm_a = 0.311998 sec.
rank 158 Tb = 0.831349 sec, Ta = 0.832907 sec, comp_time = 1.040616 sec, comm_time = 0.623578 sec, neigh_comm_time = 0.623463 sec, ptp_comm_time = 0.000020 sec, coll_comm_time = 0.000020 sec, T_cmp_b = 0.519621 sec, T_cmp_a = 0.520995 sec, T_comm_b = 0.311697 sec, T_comm_a = 0.311881 sec.
rank 203 Tb = 0.831338 sec, Ta = 0.832915 sec, comp_time = 1.040438 sec, comm_time = 0.623753 sec, neigh_comm_time = 0.623639 sec, ptp_comm_time = 0.000020 sec, coll_comm_time = 0.000020 sec, T_cmp_b = 0.519531 sec, T_cmp_a = 0.520906 sec, T_comm_b = 0.311775 sec, T_comm_a = 0.311978 sec.
rank 213 Tb = 0.831329 sec, Ta = 0.832889 sec, comp_time = 1.040436 sec, comm_time = 0.623719 sec, neigh_comm_time = 0.623605 sec, ptp_comm_time = 0.000020 sec, coll_comm_time = 0.000020 sec, T_cmp_b = 0.519531 sec, T_cmp_a = 0.520905 sec, T_comm_b = 0.311766 sec, T_comm_a = 0.311952 sec.
rank 72 Tb = 0.831349 sec, Ta = 0.832934 sec, comp_time = 1.040442 sec, comm_time = 0.623779 sec, neigh_comm_time = 0.623665 sec, ptp_comm_time = 0.000020 sec, coll_comm_time = 0.000020 sec, T_cmp_b = 0.519533 sec, T_cmp_a = 0.520908 sec, T_comm_b = 0.311784 sec, T_comm_a = 0.311995 sec.
rank 9 Tb = 0.831340 sec, Ta = 0.832930 sec, comp_time = 1.040439 sec, comm_time = 0.623770 sec, neigh_comm_time = 0.623656 sec, ptp_comm_time = 0.000020 sec, coll_comm_time = 0.000020 sec, T_cmp_b = 0.519532 sec, T_cmp_a = 0.520907 sec, T_comm_b = 0.311777 sec, T_comm_a = 0.311993 sec.
rank 206 Tb = 0.831332 sec, Ta = 0.832898 sec, comp_time = 1.040439 sec, comm_time = 0.623729 sec, neigh_comm_time = 0.623615 sec, ptp_comm_time = 0.000020 sec, coll_comm_time = 0.000020 sec, T_cmp_b = 0.519532 sec, T_cmp_a = 0.520907 sec, T_comm_b = 0.311768 sec, T_comm_a = 0.311961 sec.
rank 143 Tb = 0.831333 sec, Ta = 0.832904 sec, comp_time = 1.040446 sec, comm_time = 0.623729 sec, neigh_comm_time = 0.623615 sec, ptp_comm_time = 0.000020 sec, coll_comm_time = 0.000020 sec, T_cmp_b = 0.519536 sec, T_cmp_a = 0.520910 sec, T_comm_b = 0.311766 sec, T_comm_a = 0.311963 sec.
rank 146 Tb = 0.831375 sec, Ta = 0.832954 sec, comp_time = 1.040614 sec, comm_time = 0.623652 sec, neigh_comm_time = 0.623537 sec, ptp_comm_time = 0.000020 sec, coll_comm_time = 0.000020 sec, T_cmp_b = 0.519620 sec, T_cmp_a = 0.520994 sec, T_comm_b = 0.311723 sec, T_comm_a = 0.311928 sec.
rank 152 Tb = 0.831323 sec, Ta = 0.832921 sec, comp_time = 1.040356 sec, comm_time = 0.623824 sec, neigh_comm_time = 0.623710 sec, ptp_comm_time = 0.000020 sec, coll_comm_time = 0.000020 sec, T_cmp_b = 0.519535 sec, T_cmp_a = 0.520822 sec, T_comm_b = 0.311756 sec, T_comm_a = 0.312068 sec.
rank 89 Tb = 0.831354 sec, Ta = 0.832935 sec, comp_time = 1.040615 sec, comm_time = 0.623611 sec, neigh_comm_time = 0.623496 sec, ptp_comm_time = 0.000020 sec, coll_comm_time = 0.000020 sec, T_cmp_b = 0.519621 sec, T_cmp_a = 0.520995 sec, T_comm_b = 0.311702 sec, T_comm_a = 0.311909 sec.
rank 218 Tb = 0.831292 sec, Ta = 0.832877 sec, comp_time = 1.040437 sec, comm_time = 0.623670 sec, neigh_comm_time = 0.623555 sec, ptp_comm_time = 0.000020 sec, coll_comm_time = 0.000020 sec, T_cmp_b = 0.519531 sec, T_cmp_a = 0.520906 sec, T_comm_b = 0.311729 sec, T_comm_a = 0.311940 sec.
rank 77 Tb = 0.831377 sec, Ta = 0.832947 sec, comp_time = 1.040616 sec, comm_time = 0.623645 sec, neigh_comm_time = 0.623531 sec, ptp_comm_time = 0.000020 sec, coll_comm_time = 0.000020 sec, T_cmp_b = 0.519621 sec, T_cmp_a = 0.520996 sec, T_comm_b = 0.311724 sec, T_comm_a = 0.311921 sec.
rank 12 Tb = 0.831342 sec, Ta = 0.832917 sec, comp_time = 1.040438 sec, comm_time = 0.623758 sec, neigh_comm_time = 0.623644 sec, ptp_comm_time = 0.000020 sec, coll_comm_time = 0.000020 sec, T_cmp_b = 0.519531 sec, T_cmp_a = 0.520907 sec, T_comm_b = 0.311779 sec, T_comm_a = 0.311980 sec.
rank 86 Tb = 0.831358 sec, Ta = 0.832927 sec, comp_time = 1.040615 sec, comm_time = 0.623608 sec, neigh_comm_time = 0.623494 sec, ptp_comm_time = 0.000020 sec, coll_comm_time = 0.000020 sec, T_cmp_b = 0.519620 sec, T_cmp_a = 0.520995 sec, T_comm_b = 0.311707 sec, T_comm_a = 0.311901 sec.
rank 148 Tb = 0.831376 sec, Ta = 0.832941 sec, comp_time = 1.040615 sec, comm_time = 0.623639 sec, neigh_comm_time = 0.623525 sec, ptp_comm_time = 0.000020 sec, coll_comm_time = 0.000020 sec, T_cmp_b = 0.519620 sec, T_cmp_a = 0.520995 sec, T_comm_b = 0.311724 sec, T_comm_a = 0.311915 sec.
rank 136 Tb = 0.831346 sec, Ta = 0.832935 sec, comp_time = 1.040445 sec, comm_time = 0.623774 sec, neigh_comm_time = 0.623659 sec, ptp_comm_time = 0.000020 sec, coll_comm_time = 0.000020 sec, T_cmp_b = 0.519535 sec, T_cmp_a = 0.520910 sec, T_comm_b = 0.311779 sec, T_comm_a = 0.311994 sec.
rank 150 Tb = 0.831359 sec, Ta = 0.832929 sec, comp_time = 1.040615 sec, comm_time = 0.623610 sec, neigh_comm_time = 0.623496 sec, ptp_comm_time = 0.000020 sec, coll_comm_time = 0.000020 sec, T_cmp_b = 0.519620 sec, T_cmp_a = 0.520995 sec, T_comm_b = 0.311707 sec, T_comm_a = 0.311903 sec.
rank 201 Tb = 0.831333 sec, Ta = 0.832925 sec, comp_time = 1.040440 sec, comm_time = 0.623756 sec, neigh_comm_time = 0.623641 sec, ptp_comm_time = 0.000020 sec, coll_comm_time = 0.000020 sec, T_cmp_b = 0.519532 sec, T_cmp_a = 0.520907 sec, T_comm_b = 0.311769 sec, T_comm_a = 0.311987 sec.
rank 212 Tb = 0.831331 sec, Ta = 0.832894 sec, comp_time = 1.040437 sec, comm_time = 0.623726 sec, neigh_comm_time = 0.623612 sec, ptp_comm_time = 0.000020 sec, coll_comm_time = 0.000020 sec, T_cmp_b = 0.519531 sec, T_cmp_a = 0.520906 sec, T_comm_b = 0.311768 sec, T_comm_a = 0.311958 sec.
rank 66 Tb = 0.831358 sec, Ta = 0.832941 sec, comp_time = 1.040439 sec, comm_time = 0.623797 sec, neigh_comm_time = 0.623683 sec, ptp_comm_time = 0.000020 sec, coll_comm_time = 0.000020 sec, T_cmp_b = 0.519532 sec, T_cmp_a = 0.520907 sec, T_comm_b = 0.311794 sec, T_comm_a = 0.312003 sec.
rank 140 Tb = 0.831386 sec, Ta = 0.832953 sec, comp_time = 1.040616 sec, comm_time = 0.623661 sec, neigh_comm_time = 0.623547 sec, ptp_comm_time = 0.000020 sec, coll_comm_time = 0.000020 sec, T_cmp_b = 0.519620 sec, T_cmp_a = 0.520995 sec, T_comm_b = 0.311734 sec, T_comm_a = 0.311927 sec.
rank 205 Tb = 0.831338 sec, Ta = 0.832903 sec, comp_time = 1.040438 sec, comm_time = 0.623741 sec, neigh_comm_time = 0.623627 sec, ptp_comm_time = 0.000020 sec, coll_comm_time = 0.000020 sec, T_cmp_b = 0.519532 sec, T_cmp_a = 0.520906 sec, T_comm_b = 0.311774 sec, T_comm_a = 0.311967 sec.
rank 133 Tb = 0.831347 sec, Ta = 0.832912 sec, comp_time = 1.040439 sec, comm_time = 0.623757 sec, neigh_comm_time = 0.623642 sec, ptp_comm_time = 0.000020 sec, coll_comm_time = 0.000020 sec, T_cmp_b = 0.519532 sec, T_cmp_a = 0.520907 sec, T_comm_b = 0.311783 sec, T_comm_a = 0.311974 sec.
rank 130 Tb = 0.831354 sec, Ta = 0.832937 sec, comp_time = 1.040439 sec, comm_time = 0.623789 sec, neigh_comm_time = 0.623675 sec, ptp_comm_time = 0.000020 sec, coll_comm_time = 0.000020 sec, T_cmp_b = 0.519532 sec, T_cmp_a = 0.520907 sec, T_comm_b = 0.311790 sec, T_comm_a = 0.311999 sec.
rank 147 Tb = 0.831370 sec, Ta = 0.832935 sec, comp_time = 1.040615 sec, comm_time = 0.623628 sec, neigh_comm_time = 0.623514 sec, ptp_comm_time = 0.000020 sec, coll_comm_time = 0.000020 sec, T_cmp_b = 0.519620 sec, T_cmp_a = 0.520995 sec, T_comm_b = 0.311718 sec, T_comm_a = 0.311909 sec.
rank 82 Tb = 0.831380 sec, Ta = 0.832938 sec, comp_time = 1.040615 sec, comm_time = 0.623640 sec, neigh_comm_time = 0.623526 sec, ptp_comm_time = 0.000020 sec, coll_comm_time = 0.000020 sec, T_cmp_b = 0.519620 sec, T_cmp_a = 0.520995 sec, T_comm_b = 0.311728 sec, T_comm_a = 0.311912 sec.
rank 211 Tb = 0.831330 sec, Ta = 0.832889 sec, comp_time = 1.040436 sec, comm_time = 0.623720 sec, neigh_comm_time = 0.623606 sec, ptp_comm_time = 0.000020 sec, coll_comm_time = 0.000020 sec, T_cmp_b = 0.519531 sec, T_cmp_a = 0.520905 sec, T_comm_b = 0.311767 sec, T_comm_a = 0.311953 sec.
rank 76 Tb = 0.831382 sec, Ta = 0.832954 sec, comp_time = 1.040616 sec, comm_time = 0.623657 sec, neigh_comm_time = 0.623543 sec, ptp_comm_time = 0.000020 sec, coll_comm_time = 0.000020 sec, T_cmp_b = 0.519621 sec, T_cmp_a = 0.520996 sec, T_comm_b = 0.311729 sec, T_comm_a = 0.311928 sec.
rank 11 Tb = 0.831344 sec, Ta = 0.832931 sec, comp_time = 1.040440 sec, comm_time = 0.623773 sec, neigh_comm_time = 0.623658 sec, ptp_comm_time = 0.000020 sec, coll_comm_time = 0.000020 sec, T_cmp_b = 0.519533 sec, T_cmp_a = 0.520907 sec, T_comm_b = 0.311779 sec, T_comm_a = 0.311993 sec.
rank 84 Tb = 0.831365 sec, Ta = 0.832934 sec, comp_time = 1.040615 sec, comm_time = 0.623622 sec, neigh_comm_time = 0.623508 sec, ptp_comm_time = 0.000020 sec, coll_comm_time = 0.000020 sec, T_cmp_b = 0.519620 sec, T_cmp_a = 0.520995 sec, T_comm_b = 0.311713 sec, T_comm_a = 0.311909 sec.
rank 132 Tb = 0.831351 sec, Ta = 0.832920 sec, comp_time = 1.040439 sec, comm_time = 0.623770 sec, neigh_comm_time = 0.623655 sec, ptp_comm_time = 0.000020 sec, coll_comm_time = 0.000020 sec, T_cmp_b = 0.519532 sec, T_cmp_a = 0.520907 sec, T_comm_b = 0.311787 sec, T_comm_a = 0.311983 sec.
rank 139 Tb = 0.831383 sec, Ta = 0.832959 sec, comp_time = 1.040616 sec, comm_time = 0.623663 sec, neigh_comm_time = 0.623549 sec, ptp_comm_time = 0.000020 sec, coll_comm_time = 0.000020 sec, T_cmp_b = 0.519621 sec, T_cmp_a = 0.520995 sec, T_comm_b = 0.311730 sec, T_comm_a = 0.311932 sec.
rank 149 Tb = 0.831368 sec, Ta = 0.832930 sec, comp_time = 1.040615 sec, comm_time = 0.623621 sec, neigh_comm_time = 0.623507 sec, ptp_comm_time = 0.000020 sec, coll_comm_time = 0.000020 sec, T_cmp_b = 0.519620 sec, T_cmp_a = 0.520995 sec, T_comm_b = 0.311717 sec, T_comm_a = 0.311904 sec.
rank 202 Tb = 0.831343 sec, Ta = 0.832929 sec, comp_time = 1.040438 sec, comm_time = 0.623771 sec, neigh_comm_time = 0.623657 sec, ptp_comm_time = 0.000020 sec, coll_comm_time = 0.000020 sec, T_cmp_b = 0.519532 sec, T_cmp_a = 0.520906 sec, T_comm_b = 0.311779 sec, T_comm_a = 0.311992 sec.
rank 209 Tb = 0.831329 sec, Ta = 0.832909 sec, comp_time = 1.040439 sec, comm_time = 0.623737 sec, neigh_comm_time = 0.623623 sec, ptp_comm_time = 0.000020 sec, coll_comm_time = 0.000020 sec, T_cmp_b = 0.519532 sec, T_cmp_a = 0.520907 sec, T_comm_b = 0.311765 sec, T_comm_a = 0.311971 sec.
rank 73 Tb = 0.831381 sec, Ta = 0.832967 sec, comp_time = 1.040618 sec, comm_time = 0.623668 sec, neigh_comm_time = 0.623554 sec, ptp_comm_time = 0.000020 sec, coll_comm_time = 0.000020 sec, T_cmp_b = 0.519621 sec, T_cmp_a = 0.520996 sec, T_comm_b = 0.311728 sec, T_comm_a = 0.311940 sec.
rank 10 Tb = 0.831351 sec, Ta = 0.832940 sec, comp_time = 1.040440 sec, comm_time = 0.623788 sec, neigh_comm_time = 0.623674 sec, ptp_comm_time = 0.000020 sec, coll_comm_time = 0.000020 sec, T_cmp_b = 0.519533 sec, T_cmp_a = 0.520907 sec, T_comm_b = 0.311787 sec, T_comm_a = 0.312002 sec.
rank 204 Tb = 0.831341 sec, Ta = 0.832911 sec, comp_time = 1.040437 sec, comm_time = 0.623752 sec, neigh_comm_time = 0.623638 sec, ptp_comm_time = 0.000020 sec, coll_comm_time = 0.000020 sec, T_cmp_b = 0.519531 sec, T_cmp_a = 0.520906 sec, T_comm_b = 0.311778 sec, T_comm_a = 0.311974 sec.
rank 142 Tb = 0.831376 sec, Ta = 0.832941 sec, comp_time = 1.040618 sec, comm_time = 0.623638 sec, neigh_comm_time = 0.623523 sec, ptp_comm_time = 0.000020 sec, coll_comm_time = 0.000020 sec, T_cmp_b = 0.519621 sec, T_cmp_a = 0.520996 sec, T_comm_b = 0.311723 sec, T_comm_a = 0.311914 sec.
rank 137 Tb = 0.831376 sec, Ta = 0.832968 sec, comp_time = 1.040617 sec, comm_time = 0.623665 sec, neigh_comm_time = 0.623551 sec, ptp_comm_time = 0.000020 sec, coll_comm_time = 0.000020 sec, T_cmp_b = 0.519621 sec, T_cmp_a = 0.520996 sec, T_comm_b = 0.311723 sec, T_comm_a = 0.311942 sec.
rank 145 Tb = 0.831372 sec, Ta = 0.832951 sec, comp_time = 1.040613 sec, comm_time = 0.623647 sec, neigh_comm_time = 0.623532 sec, ptp_comm_time = 0.000020 sec, coll_comm_time = 0.000020 sec, T_cmp_b = 0.519619 sec, T_cmp_a = 0.520994 sec, T_comm_b = 0.311721 sec, T_comm_a = 0.311926 sec.
rank 83 Tb = 0.831371 sec, Ta = 0.832945 sec, comp_time = 1.040615 sec, comm_time = 0.623638 sec, neigh_comm_time = 0.623524 sec, ptp_comm_time = 0.000020 sec, coll_comm_time = 0.000020 sec, T_cmp_b = 0.519620 sec, T_cmp_a = 0.520995 sec, T_comm_b = 0.311719 sec, T_comm_a = 0.311920 sec.
rank 210 Tb = 0.831333 sec, Ta = 0.832911 sec, comp_time = 1.040436 sec, comm_time = 0.623745 sec, neigh_comm_time = 0.623631 sec, ptp_comm_time = 0.000020 sec, coll_comm_time = 0.000020 sec, T_cmp_b = 0.519531 sec, T_cmp_a = 0.520905 sec, T_comm_b = 0.311771 sec, T_comm_a = 0.311975 sec.
rank 75 Tb = 0.831385 sec, Ta = 0.832966 sec, comp_time = 1.040616 sec, comm_time = 0.623672 sec, neigh_comm_time = 0.623558 sec, ptp_comm_time = 0.000020 sec, coll_comm_time = 0.000020 sec, T_cmp_b = 0.519621 sec, T_cmp_a = 0.520995 sec, T_comm_b = 0.311732 sec, T_comm_a = 0.311940 sec.
rank 138 Tb = 0.831389 sec, Ta = 0.832971 sec, comp_time = 1.040616 sec, comm_time = 0.623682 sec, neigh_comm_time = 0.623567 sec, ptp_comm_time = 0.000020 sec, coll_comm_time = 0.000020 sec, T_cmp_b = 0.519621 sec, T_cmp_a = 0.520995 sec, T_comm_b = 0.311736 sec, T_comm_a = 0.311945 sec.
rank 85 Tb = 0.831364 sec, Ta = 0.832938 sec, comp_time = 1.040614 sec, comm_time = 0.623624 sec, neigh_comm_time = 0.623510 sec, ptp_comm_time = 0.000020 sec, coll_comm_time = 0.000020 sec, T_cmp_b = 0.519620 sec, T_cmp_a = 0.520994 sec, T_comm_b = 0.311712 sec, T_comm_a = 0.311912 sec.
rank 141 Tb = 0.831380 sec, Ta = 0.832946 sec, comp_time = 1.040616 sec, comm_time = 0.623647 sec, neigh_comm_time = 0.623533 sec, ptp_comm_time = 0.000020 sec, coll_comm_time = 0.000020 sec, T_cmp_b = 0.519621 sec, T_cmp_a = 0.520995 sec, T_comm_b = 0.311728 sec, T_comm_a = 0.311919 sec.
rank 153 Tb = 0.831356 sec, Ta = 0.832953 sec, comp_time = 1.040616 sec, comm_time = 0.623631 sec, neigh_comm_time = 0.623517 sec, ptp_comm_time = 0.000020 sec, coll_comm_time = 0.000020 sec, T_cmp_b = 0.519620 sec, T_cmp_a = 0.520996 sec, T_comm_b = 0.311704 sec, T_comm_a = 0.311926 sec.
rank 81 Tb = 0.831372 sec, Ta = 0.832953 sec, comp_time = 1.040614 sec, comm_time = 0.623648 sec, neigh_comm_time = 0.623534 sec, ptp_comm_time = 0.000020 sec, coll_comm_time = 0.000020 sec, T_cmp_b = 0.519620 sec, T_cmp_a = 0.520994 sec, T_comm_b = 0.311720 sec, T_comm_a = 0.311928 sec.
rank 217 Tb = 0.831316 sec, Ta = 0.832911 sec, comp_time = 1.040439 sec, comm_time = 0.623725 sec, neigh_comm_time = 0.623611 sec, ptp_comm_time = 0.000020 sec, coll_comm_time = 0.000020 sec, T_cmp_b = 0.519533 sec, T_cmp_a = 0.520907 sec, T_comm_b = 0.311752 sec, T_comm_a = 0.311973 sec.
rank 74 Tb = 0.831392 sec, Ta = 0.832976 sec, comp_time = 1.040616 sec, comm_time = 0.623690 sec, neigh_comm_time = 0.623576 sec, ptp_comm_time = 0.000020 sec, coll_comm_time = 0.000020 sec, T_cmp_b = 0.519621 sec, T_cmp_a = 0.520996 sec, T_comm_b = 0.311740 sec, T_comm_a = 0.311950 sec.
