rank 1 failed at loop 1
rank 97: Tb = 0.014518 sec, Ta = 0.057946 sec, comp_time = 0.071391 sec,comm_time = 0.000580 sec, neigh_comm_time = 0.000571 sec, ptp_comm_time = 0.000001 sec, coll_comm_time = 0.000002 sec
rank 178: Tb = 0.014536 sec, Ta = 0.057943 sec, comp_time = 0.071391 sec,comm_time = 0.000581 sec, neigh_comm_time = 0.000572 sec, ptp_comm_time = 0.000002 sec, coll_comm_time = 0.000002 sec
rank 403: Tb = 0.014520 sec, Ta = 0.057943 sec, comp_time = 0.071391 sec,comm_time = 0.000577 sec, neigh_comm_time = 0.000568 sec, ptp_comm_time = 0.000002 sec, coll_comm_time = 0.000002 sec
rank 258: Tb = 0.014533 sec, Ta = 0.057947 sec, comp_time = 0.071391 sec,comm_time = 0.000511 sec, neigh_comm_time = 0.000501 sec, ptp_comm_time = 0.000002 sec, coll_comm_time = 0.000002 sec
rank 116: Tb = 0.014536 sec, Ta = 0.057941 sec, comp_time = 0.071391 sec,comm_time = 0.000582 sec, neigh_comm_time = 0.000572 sec, ptp_comm_time = 0.000002 sec, coll_comm_time = 0.000002 sec
rank 340: Tb = 0.014534 sec, Ta = 0.057945 sec, comp_time = 0.071391 sec,comm_time = 0.000582 sec, neigh_comm_time = 0.000573 sec, ptp_comm_time = 0.000002 sec, coll_comm_time = 0.000002 sec
rank 355: Tb = 0.014519 sec, Ta = 0.057943 sec, comp_time = 0.071391 sec,comm_time = 0.000579 sec, neigh_comm_time = 0.000570 sec, ptp_comm_time = 0.000002 sec, coll_comm_time = 0.000002 sec
rank 1: Tb = 0.014526 sec, Ta = 0.057956 sec, comp_time = 0.014278 sec,comm_time = 0.000110 sec, neigh_comm_time = 0.000108 sec, ptp_comm_time = 0.000000 sec, coll_comm_time = 0.000000 sec
rank 371: Tb = 0.014519 sec, Ta = 0.057940 sec, comp_time = 0.071391 sec,comm_time = 0.000579 sec, neigh_comm_time = 0.000569 sec, ptp_comm_time = 0.000002 sec, coll_comm_time = 0.000002 sec
rank 171: Tb = 0.014523 sec, Ta = 0.057944 sec, comp_time = 0.071391 sec,comm_time = 0.000579 sec, neigh_comm_time = 0.000569 sec, ptp_comm_time = 0.000001 sec, coll_comm_time = 0.000002 sec
rank 132: Tb = 0.014537 sec, Ta = 0.057945 sec, comp_time = 0.071391 sec,comm_time = 0.000513 sec, neigh_comm_time = 0.000503 sec, ptp_comm_time = 0.000002 sec, coll_comm_time = 0.000002 sec
rank 260: Tb = 0.014536 sec, Ta = 0.057947 sec, comp_time = 0.071391 sec,comm_time = 0.000512 sec, neigh_comm_time = 0.000502 sec, ptp_comm_time = 0.000002 sec, coll_comm_time = 0.000002 sec
rank 512: Tb = 0.015260 sec, Ta = 0.057938 sec, comp_time = 0.000000 sec,comm_time = 0.000000 sec, neigh_comm_time = 0.000000 sec, ptp_comm_time = 0.000000 sec, coll_comm_time = 0.000000 sec
rank 436: Tb = 0.014535 sec, Ta = 0.057941 sec, comp_time = 0.071391 sec,comm_time = 0.000578 sec, neigh_comm_time = 0.000568 sec, ptp_comm_time = 0.000002 sec, coll_comm_time = 0.000002 sec
rank 180: Tb = 0.014537 sec, Ta = 0.057942 sec, comp_time = 0.071391 sec,comm_time = 0.000583 sec, neigh_comm_time = 0.000573 sec, ptp_comm_time = 0.000002 sec, coll_comm_time = 0.000002 sec
rank 388: Tb = 0.014535 sec, Ta = 0.057943 sec, comp_time = 0.071390 sec,comm_time = 0.000513 sec, neigh_comm_time = 0.000504 sec, ptp_comm_time = 0.000002 sec, coll_comm_time = 0.000002 sec
rank 146: Tb = 0.014537 sec, Ta = 0.057945 sec, comp_time = 0.071391 sec,comm_time = 0.000582 sec, neigh_comm_time = 0.000572 sec, ptp_comm_time = 0.000002 sec, coll_comm_time = 0.000002 sec
rank 39: Tb = 0.014533 sec, Ta = 0.057949 sec, comp_time = 0.071390 sec,comm_time = 0.000429 sec, neigh_comm_time = 0.000420 sec, ptp_comm_time = 0.000001 sec, coll_comm_time = 0.000002 sec
rank 427: Tb = 0.014523 sec, Ta = 0.057943 sec, comp_time = 0.071391 sec,comm_time = 0.000575 sec, neigh_comm_time = 0.000565 sec, ptp_comm_time = 0.000002 sec, coll_comm_time = 0.000002 sec
rank 404: Tb = 0.014534 sec, Ta = 0.057942 sec, comp_time = 0.071391 sec,comm_time = 0.000579 sec, neigh_comm_time = 0.000570 sec, ptp_comm_time = 0.000002 sec, coll_comm_time = 0.000002 sec
rank 274: Tb = 0.014536 sec, Ta = 0.057947 sec, comp_time = 0.071391 sec,comm_time = 0.000581 sec, neigh_comm_time = 0.000572 sec, ptp_comm_time = 0.000002 sec, coll_comm_time = 0.000002 sec
rank 356: Tb = 0.014532 sec, Ta = 0.057941 sec, comp_time = 0.071391 sec,comm_time = 0.000582 sec, neigh_comm_time = 0.000573 sec, ptp_comm_time = 0.000002 sec, coll_comm_time = 0.000002 sec
rank 275: Tb = 0.014521 sec, Ta = 0.057947 sec, comp_time = 0.071391 sec,comm_time = 0.000579 sec, neigh_comm_time = 0.000570 sec, ptp_comm_time = 0.000002 sec, coll_comm_time = 0.000002 sec
rank 113: Tb = 0.014518 sec, Ta = 0.057944 sec, comp_time = 0.071391 sec,comm_time = 0.000578 sec, neigh_comm_time = 0.000568 sec, ptp_comm_time = 0.000002 sec, coll_comm_time = 0.000002 sec
rank 268: Tb = 0.014535 sec, Ta = 0.057946 sec, comp_time = 0.071391 sec,comm_time = 0.000577 sec, neigh_comm_time = 0.000568 sec, ptp_comm_time = 0.000002 sec, coll_comm_time = 0.000002 sec
rank 372: Tb = 0.014536 sec, Ta = 0.057939 sec, comp_time = 0.071391 sec,comm_time = 0.000580 sec, neigh_comm_time = 0.000570 sec, ptp_comm_time = 0.000002 sec, coll_comm_time = 0.000002 sec
rank 164: Tb = 0.014536 sec, Ta = 0.057943 sec, comp_time = 0.071391 sec,comm_time = 0.000581 sec, neigh_comm_time = 0.000571 sec, ptp_comm_time = 0.000002 sec, coll_comm_time = 0.000002 sec
rank 130: Tb = 0.014531 sec, Ta = 0.057945 sec, comp_time = 0.071391 sec,comm_time = 0.000512 sec, neigh_comm_time = 0.000502 sec, ptp_comm_time = 0.000002 sec, coll_comm_time = 0.000002 sec
rank 276: Tb = 0.014539 sec, Ta = 0.057946 sec, comp_time = 0.071391 sec,comm_time = 0.000580 sec, neigh_comm_time = 0.000570 sec, ptp_comm_time = 0.000002 sec, coll_comm_time = 0.000002 sec
rank 513: Tb = 0.015247 sec, Ta = 0.057957 sec, comp_time = 0.057113 sec,comm_time = 0.000376 sec, neigh_comm_time = 0.000368 sec, ptp_comm_time = 0.000001 sec, coll_comm_time = 0.000002 sec
rank 443: Tb = 0.014529 sec, Ta = 0.057940 sec, comp_time = 0.071391 sec,comm_time = 0.000508 sec, neigh_comm_time = 0.000498 sec, ptp_comm_time = 0.000002 sec, coll_comm_time = 0.000002 sec
rank 228: Tb = 0.014536 sec, Ta = 0.057942 sec, comp_time = 0.071391 sec,comm_time = 0.000581 sec, neigh_comm_time = 0.000572 sec, ptp_comm_time = 0.000002 sec, coll_comm_time = 0.000002 sec
rank 148: Tb = 0.014537 sec, Ta = 0.057944 sec, comp_time = 0.071391 sec,comm_time = 0.000582 sec, neigh_comm_time = 0.000573 sec, ptp_comm_time = 0.000002 sec, coll_comm_time = 0.000002 sec
rank 386: Tb = 0.014529 sec, Ta = 0.057944 sec, comp_time = 0.071390 sec,comm_time = 0.000509 sec, neigh_comm_time = 0.000500 sec, ptp_comm_time = 0.000002 sec, coll_comm_time = 0.000002 sec
rank 99: Tb = 0.014521 sec, Ta = 0.057947 sec, comp_time = 0.071391 sec,comm_time = 0.000582 sec, neigh_comm_time = 0.000573 sec, ptp_comm_time = 0.000002 sec, coll_comm_time = 0.000002 sec
rank 187: Tb = 0.014526 sec, Ta = 0.057942 sec, comp_time = 0.071391 sec,comm_time = 0.000513 sec, neigh_comm_time = 0.000503 sec, ptp_comm_time = 0.000002 sec, coll_comm_time = 0.000002 sec
rank 412: Tb = 0.014540 sec, Ta = 0.057942 sec, comp_time = 0.071391 sec,comm_time = 0.000576 sec, neigh_comm_time = 0.000567 sec, ptp_comm_time = 0.000002 sec, coll_comm_time = 0.000002 sec
rank 257: Tb = 0.014524 sec, Ta = 0.057953 sec, comp_time = 0.071391 sec,comm_time = 0.000511 sec, neigh_comm_time = 0.000501 sec, ptp_comm_time = 0.000001 sec, coll_comm_time = 0.000002 sec
rank 118: Tb = 0.014539 sec, Ta = 0.057941 sec, comp_time = 0.071391 sec,comm_time = 0.000582 sec, neigh_comm_time = 0.000572 sec, ptp_comm_time = 0.000002 sec, coll_comm_time = 0.000002 sec
rank 284: Tb = 0.014546 sec, Ta = 0.057946 sec, comp_time = 0.071391 sec,comm_time = 0.000581 sec, neigh_comm_time = 0.000572 sec, ptp_comm_time = 0.000002 sec, coll_comm_time = 0.000002 sec
rank 114: Tb = 0.014535 sec, Ta = 0.057940 sec, comp_time = 0.071391 sec,comm_time = 0.000581 sec, neigh_comm_time = 0.000572 sec, ptp_comm_time = 0.000002 sec, coll_comm_time = 0.000002 sec
rank 266: Tb = 0.014532 sec, Ta = 0.057946 sec, comp_time = 0.071391 sec,comm_time = 0.000578 sec, neigh_comm_time = 0.000568 sec, ptp_comm_time = 0.000002 sec, coll_comm_time = 0.000002 sec
rank 370: Tb = 0.014535 sec, Ta = 0.057940 sec, comp_time = 0.071391 sec,comm_time = 0.000584 sec, neigh_comm_time = 0.000574 sec, ptp_comm_time = 0.000002 sec, coll_comm_time = 0.000002 sec
rank 229: Tb = 0.014522 sec, Ta = 0.057944 sec, comp_time = 0.071391 sec,comm_time = 0.000575 sec, neigh_comm_time = 0.000566 sec, ptp_comm_time = 0.000001 sec, coll_comm_time = 0.000002 sec
rank 134: Tb = 0.014536 sec, Ta = 0.057946 sec, comp_time = 0.071391 sec,comm_time = 0.000510 sec, neigh_comm_time = 0.000501 sec, ptp_comm_time = 0.000002 sec, coll_comm_time = 0.000002 sec
rank 31: Tb = 0.014534 sec, Ta = 0.057947 sec, comp_time = 0.071390 sec,comm_time = 0.000433 sec, neigh_comm_time = 0.000423 sec, ptp_comm_time = 0.000001 sec, coll_comm_time = 0.000002 sec
rank 437: Tb = 0.014522 sec, Ta = 0.057943 sec, comp_time = 0.071391 sec,comm_time = 0.000577 sec, neigh_comm_time = 0.000567 sec, ptp_comm_time = 0.000002 sec, coll_comm_time = 0.000002 sec
rank 188: Tb = 0.014542 sec, Ta = 0.057942 sec, comp_time = 0.071391 sec,comm_time = 0.000513 sec, neigh_comm_time = 0.000503 sec, ptp_comm_time = 0.000002 sec, coll_comm_time = 0.000002 sec
rank 396: Tb = 0.014532 sec, Ta = 0.057943 sec, comp_time = 0.071391 sec,comm_time = 0.000577 sec, neigh_comm_time = 0.000567 sec, ptp_comm_time = 0.000002 sec, coll_comm_time = 0.000002 sec
rank 394: Tb = 0.014534 sec, Ta = 0.057945 sec, comp_time = 0.071391 sec,comm_time = 0.000579 sec, neigh_comm_time = 0.000569 sec, ptp_comm_time = 0.000002 sec, coll_comm_time = 0.000002 sec
rank 300: Tb = 0.014532 sec, Ta = 0.057948 sec, comp_time = 0.071391 sec,comm_time = 0.000575 sec, neigh_comm_time = 0.000566 sec, ptp_comm_time = 0.000002 sec, coll_comm_time = 0.000002 sec
rank 419: Tb = 0.014527 sec, Ta = 0.057944 sec, comp_time = 0.071391 sec,comm_time = 0.000577 sec, neigh_comm_time = 0.000568 sec, ptp_comm_time = 0.000002 sec, coll_comm_time = 0.000002 sec
rank 402: Tb = 0.014534 sec, Ta = 0.057944 sec, comp_time = 0.071391 sec,comm_time = 0.000579 sec, neigh_comm_time = 0.000569 sec, ptp_comm_time = 0.000002 sec, coll_comm_time = 0.000002 sec
rank 17: Tb = 0.014521 sec, Ta = 0.057950 sec, comp_time = 0.071390 sec,comm_time = 0.000512 sec, neigh_comm_time = 0.000502 sec, ptp_comm_time = 0.000002 sec, coll_comm_time = 0.000002 sec
rank 292: Tb = 0.014536 sec, Ta = 0.057945 sec, comp_time = 0.071391 sec,comm_time = 0.000583 sec, neigh_comm_time = 0.000573 sec, ptp_comm_time = 0.000002 sec, coll_comm_time = 0.000002 sec
rank 282: Tb = 0.014535 sec, Ta = 0.057946 sec, comp_time = 0.071391 sec,comm_time = 0.000577 sec, neigh_comm_time = 0.000568 sec, ptp_comm_time = 0.000002 sec, coll_comm_time = 0.000002 sec
rank 289: Tb = 0.014520 sec, Ta = 0.057949 sec, comp_time = 0.071391 sec,comm_time = 0.000577 sec, neigh_comm_time = 0.000568 sec, ptp_comm_time = 0.000002 sec, coll_comm_time = 0.000002 sec
rank 15: Tb = 0.014533 sec, Ta = 0.057950 sec, comp_time = 0.071390 sec,comm_time = 0.000431 sec, neigh_comm_time = 0.000421 sec, ptp_comm_time = 0.000002 sec, coll_comm_time = 0.000002 sec
rank 380: Tb = 0.014537 sec, Ta = 0.057940 sec, comp_time = 0.071390 sec,comm_time = 0.000511 sec, neigh_comm_time = 0.000502 sec, ptp_comm_time = 0.000002 sec, coll_comm_time = 0.000002 sec
rank 162: Tb = 0.014531 sec, Ta = 0.057945 sec, comp_time = 0.071391 sec,comm_time = 0.000580 sec, neigh_comm_time = 0.000571 sec, ptp_comm_time = 0.000002 sec, coll_comm_time = 0.000002 sec
rank 203: Tb = 0.014528 sec, Ta = 0.057945 sec, comp_time = 0.071391 sec,comm_time = 0.000575 sec, neigh_comm_time = 0.000565 sec, ptp_comm_time = 0.000002 sec, coll_comm_time = 0.000002 sec
rank 261: Tb = 0.014524 sec, Ta = 0.057951 sec, comp_time = 0.071391 sec,comm_time = 0.000511 sec, neigh_comm_time = 0.000501 sec, ptp_comm_time = 0.000002 sec, coll_comm_time = 0.000002 sec
rank 434: Tb = 0.014535 sec, Ta = 0.057941 sec, comp_time = 0.071391 sec,comm_time = 0.000580 sec, neigh_comm_time = 0.000570 sec, ptp_comm_time = 0.000002 sec, coll_comm_time = 0.000002 sec
rank 485: Tb = 0.014522 sec, Ta = 0.057943 sec, comp_time = 0.071390 sec,comm_time = 0.000510 sec, neigh_comm_time = 0.000500 sec, ptp_comm_time = 0.000002 sec, coll_comm_time = 0.000002 sec
rank 150: Tb = 0.014540 sec, Ta = 0.057943 sec, comp_time = 0.071391 sec,comm_time = 0.000584 sec, neigh_comm_time = 0.000575 sec, ptp_comm_time = 0.000002 sec, coll_comm_time = 0.000002 sec
rank 209: Tb = 0.014520 sec, Ta = 0.057946 sec, comp_time = 0.071391 sec,comm_time = 0.000574 sec, neigh_comm_time = 0.000565 sec, ptp_comm_time = 0.000001 sec, coll_comm_time = 0.000002 sec
rank 41: Tb = 0.014525 sec, Ta = 0.057948 sec, comp_time = 0.071390 sec,comm_time = 0.000511 sec, neigh_comm_time = 0.000502 sec, ptp_comm_time = 0.000002 sec, coll_comm_time = 0.000002 sec
rank 243: Tb = 0.014525 sec, Ta = 0.057942 sec, comp_time = 0.071391 sec,comm_time = 0.000575 sec, neigh_comm_time = 0.000566 sec, ptp_comm_time = 0.000001 sec, coll_comm_time = 0.000002 sec
rank 468: Tb = 0.014535 sec, Ta = 0.057942 sec, comp_time = 0.071391 sec,comm_time = 0.000507 sec, neigh_comm_time = 0.000497 sec, ptp_comm_time = 0.000002 sec, coll_comm_time = 0.000002 sec
rank 3: Tb = 0.014519 sec, Ta = 0.057953 sec, comp_time = 0.071390 sec,comm_time = 0.000434 sec, neigh_comm_time = 0.000424 sec, ptp_comm_time = 0.000002 sec, coll_comm_time = 0.000002 sec
rank 124: Tb = 0.014540 sec, Ta = 0.057940 sec, comp_time = 0.071391 sec,comm_time = 0.000511 sec, neigh_comm_time = 0.000501 sec, ptp_comm_time = 0.000002 sec, coll_comm_time = 0.000002 sec
rank 278: Tb = 0.014539 sec, Ta = 0.057946 sec, comp_time = 0.071391 sec,comm_time = 0.000580 sec, neigh_comm_time = 0.000570 sec, ptp_comm_time = 0.000002 sec, coll_comm_time = 0.000002 sec
rank 120: Tb = 0.014538 sec, Ta = 0.057941 sec, comp_time = 0.071390 sec,comm_time = 0.000431 sec, neigh_comm_time = 0.000422 sec, ptp_comm_time = 0.000002 sec, coll_comm_time = 0.000002 sec
rank 8: Tb = 0.014533 sec, Ta = 0.057947 sec, comp_time = 0.071390 sec,comm_time = 0.000430 sec, neigh_comm_time = 0.000420 sec, ptp_comm_time = 0.000001 sec, coll_comm_time = 0.000002 sec
rank 376: Tb = 0.014540 sec, Ta = 0.057940 sec, comp_time = 0.071390 sec,comm_time = 0.000430 sec, neigh_comm_time = 0.000420 sec, ptp_comm_time = 0.000002 sec, coll_comm_time = 0.000002 sec
rank 231: Tb = 0.014530 sec, Ta = 0.057945 sec, comp_time = 0.071391 sec,comm_time = 0.000509 sec, neigh_comm_time = 0.000499 sec, ptp_comm_time = 0.000001 sec, coll_comm_time = 0.000002 sec
rank 140: Tb = 0.014537 sec, Ta = 0.057946 sec, comp_time = 0.071391 sec,comm_time = 0.000579 sec, neigh_comm_time = 0.000570 sec, ptp_comm_time = 0.000002 sec, coll_comm_time = 0.000002 sec
rank 95: Tb = 0.014529 sec, Ta = 0.057947 sec, comp_time = 0.071391 sec,comm_time = 0.000516 sec, neigh_comm_time = 0.000507 sec, ptp_comm_time = 0.000001 sec, coll_comm_time = 0.000002 sec
rank 439: Tb = 0.014532 sec, Ta = 0.057943 sec, comp_time = 0.071390 sec,comm_time = 0.000510 sec, neigh_comm_time = 0.000500 sec, ptp_comm_time = 0.000002 sec, coll_comm_time = 0.000002 sec
rank 244: Tb = 0.014538 sec, Ta = 0.057941 sec, comp_time = 0.071391 sec,comm_time = 0.000580 sec, neigh_comm_time = 0.000571 sec, ptp_comm_time = 0.000002 sec, coll_comm_time = 0.000002 sec
rank 390: Tb = 0.014535 sec, Ta = 0.057944 sec, comp_time = 0.071390 sec,comm_time = 0.000509 sec, neigh_comm_time = 0.000500 sec, ptp_comm_time = 0.000002 sec, coll_comm_time = 0.000002 sec
rank 194: Tb = 0.014536 sec, Ta = 0.057946 sec, comp_time = 0.071391 sec,comm_time = 0.000507 sec, neigh_comm_time = 0.000498 sec, ptp_comm_time = 0.000001 sec, coll_comm_time = 0.000002 sec
rank 47: Tb = 0.014535 sec, Ta = 0.057951 sec, comp_time = 0.071390 sec,comm_time = 0.000429 sec, neigh_comm_time = 0.000419 sec, ptp_comm_time = 0.000002 sec, coll_comm_time = 0.000002 sec
rank 417: Tb = 0.014525 sec, Ta = 0.057946 sec, comp_time = 0.071391 sec,comm_time = 0.000577 sec, neigh_comm_time = 0.000567 sec, ptp_comm_time = 0.000002 sec, coll_comm_time = 0.000002 sec
rank 410: Tb = 0.014535 sec, Ta = 0.057943 sec, comp_time = 0.071391 sec,comm_time = 0.000575 sec, neigh_comm_time = 0.000566 sec, ptp_comm_time = 0.000002 sec, coll_comm_time = 0.000002 sec
rank 81: Tb = 0.014519 sec, Ta = 0.057952 sec, comp_time = 0.071391 sec,comm_time = 0.000577 sec, neigh_comm_time = 0.000568 sec, ptp_comm_time = 0.000002 sec, coll_comm_time = 0.000002 sec
rank 357: Tb = 0.014520 sec, Ta = 0.057944 sec, comp_time = 0.071391 sec,comm_time = 0.000579 sec, neigh_comm_time = 0.000570 sec, ptp_comm_time = 0.000002 sec, coll_comm_time = 0.000002 sec
rank 337: Tb = 0.014518 sec, Ta = 0.057949 sec, comp_time = 0.071391 sec,comm_time = 0.000577 sec, neigh_comm_time = 0.000568 sec, ptp_comm_time = 0.000002 sec, coll_comm_time = 0.000002 sec
rank 290: Tb = 0.014530 sec, Ta = 0.057945 sec, comp_time = 0.071391 sec,comm_time = 0.000576 sec, neigh_comm_time = 0.000566 sec, ptp_comm_time = 0.000002 sec, coll_comm_time = 0.000002 sec
rank 7: Tb = 0.014536 sec, Ta = 0.057953 sec, comp_time = 0.071390 sec,comm_time = 0.000365 sec, neigh_comm_time = 0.000356 sec, ptp_comm_time = 0.000001 sec, coll_comm_time = 0.000002 sec
rank 374: Tb = 0.014537 sec, Ta = 0.057941 sec, comp_time = 0.071390 sec,comm_time = 0.000582 sec, neigh_comm_time = 0.000572 sec, ptp_comm_time = 0.000002 sec, coll_comm_time = 0.000002 sec
rank 225: Tb = 0.014519 sec, Ta = 0.057946 sec, comp_time = 0.071391 sec,comm_time = 0.000574 sec, neigh_comm_time = 0.000565 sec, ptp_comm_time = 0.000001 sec, coll_comm_time = 0.000002 sec
rank 138: Tb = 0.014534 sec, Ta = 0.057946 sec, comp_time = 0.071391 sec,comm_time = 0.000580 sec, neigh_comm_time = 0.000570 sec, ptp_comm_time = 0.000002 sec, coll_comm_time = 0.000002 sec
rank 262: Tb = 0.014535 sec, Ta = 0.057947 sec, comp_time = 0.071390 sec,comm_time = 0.000509 sec, neigh_comm_time = 0.000499 sec, ptp_comm_time = 0.000002 sec, coll_comm_time = 0.000002 sec
rank 441: Tb = 0.014525 sec, Ta = 0.057943 sec, comp_time = 0.071390 sec,comm_time = 0.000509 sec, neigh_comm_time = 0.000499 sec, ptp_comm_time = 0.000002 sec, coll_comm_time = 0.000002 sec
rank 429: Tb = 0.014520 sec, Ta = 0.057942 sec, comp_time = 0.071390 sec,comm_time = 0.000576 sec, neigh_comm_time = 0.000566 sec, ptp_comm_time = 0.000002 sec, coll_comm_time = 0.000002 sec
rank 156: Tb = 0.014544 sec, Ta = 0.057943 sec, comp_time = 0.071391 sec,comm_time = 0.000581 sec, neigh_comm_time = 0.000572 sec, ptp_comm_time = 0.000002 sec, coll_comm_time = 0.000002 sec
rank 154: Tb = 0.014536 sec, Ta = 0.057945 sec, comp_time = 0.071391 sec,comm_time = 0.000580 sec, neigh_comm_time = 0.000570 sec, ptp_comm_time = 0.000001 sec, coll_comm_time = 0.000002 sec
rank 43: Tb = 0.014524 sec, Ta = 0.057947 sec, comp_time = 0.071390 sec,comm_time = 0.000514 sec, neigh_comm_time = 0.000504 sec, ptp_comm_time = 0.000002 sec, coll_comm_time = 0.000002 sec
rank 177: Tb = 0.014524 sec, Ta = 0.057945 sec, comp_time = 0.071391 sec,comm_time = 0.000577 sec, neigh_comm_time = 0.000567 sec, ptp_comm_time = 0.000002 sec, coll_comm_time = 0.000002 sec
rank 414: Tb = 0.014540 sec, Ta = 0.057938 sec, comp_time = 0.071390 sec,comm_time = 0.000576 sec, neigh_comm_time = 0.000566 sec, ptp_comm_time = 0.000002 sec, coll_comm_time = 0.000002 sec
rank 331: Tb = 0.014525 sec, Ta = 0.057947 sec, comp_time = 0.071391 sec,comm_time = 0.000579 sec, neigh_comm_time = 0.000569 sec, ptp_comm_time = 0.000002 sec, coll_comm_time = 0.000002 sec
rank 119: Tb = 0.014532 sec, Ta = 0.057944 sec, comp_time = 0.071390 sec,comm_time = 0.000512 sec, neigh_comm_time = 0.000503 sec, ptp_comm_time = 0.000002 sec, coll_comm_time = 0.000002 sec
rank 342: Tb = 0.014537 sec, Ta = 0.057945 sec, comp_time = 0.071391 sec,comm_time = 0.000581 sec, neigh_comm_time = 0.000572 sec, ptp_comm_time = 0.000002 sec, coll_comm_time = 0.000002 sec
rank 299: Tb = 0.014523 sec, Ta = 0.057945 sec, comp_time = 0.071391 sec,comm_time = 0.000576 sec, neigh_comm_time = 0.000566 sec, ptp_comm_time = 0.000002 sec, coll_comm_time = 0.000002 sec
rank 2: Tb = 0.014515 sec, Ta = 0.057951 sec, comp_time = 0.071390 sec,comm_time = 0.000472 sec, neigh_comm_time = 0.000462 sec, ptp_comm_time = 0.000001 sec, coll_comm_time = 0.000002 sec
rank 378: Tb = 0.014536 sec, Ta = 0.057941 sec, comp_time = 0.071391 sec,comm_time = 0.000510 sec, neigh_comm_time = 0.000500 sec, ptp_comm_time = 0.000002 sec, coll_comm_time = 0.000002 sec
rank 165: Tb = 0.014524 sec, Ta = 0.057947 sec, comp_time = 0.071391 sec,comm_time = 0.000579 sec, neigh_comm_time = 0.000570 sec, ptp_comm_time = 0.000002 sec, coll_comm_time = 0.000002 sec
rank 207: Tb = 0.014531 sec, Ta = 0.057948 sec, comp_time = 0.071391 sec,comm_time = 0.000507 sec, neigh_comm_time = 0.000498 sec, ptp_comm_time = 0.000002 sec, coll_comm_time = 0.000002 sec
rank 22: Tb = 0.014541 sec, Ta = 0.057949 sec, comp_time = 0.071391 sec,comm_time = 0.000515 sec, neigh_comm_time = 0.000506 sec, ptp_comm_time = 0.000002 sec, coll_comm_time = 0.000002 sec
rank 500: Tb = 0.014538 sec, Ta = 0.057941 sec, comp_time = 0.071391 sec,comm_time = 0.000510 sec, neigh_comm_time = 0.000500 sec, ptp_comm_time = 0.000002 sec, coll_comm_time = 0.000002 sec
rank 183: Tb = 0.014538 sec, Ta = 0.057944 sec, comp_time = 0.071391 sec,comm_time = 0.000511 sec, neigh_comm_time = 0.000501 sec, ptp_comm_time = 0.000002 sec, coll_comm_time = 0.000002 sec
rank 453: Tb = 0.014525 sec, Ta = 0.057947 sec, comp_time = 0.071390 sec,comm_time = 0.000430 sec, neigh_comm_time = 0.000420 sec, ptp_comm_time = 0.000001 sec, coll_comm_time = 0.000002 sec
rank 392: Tb = 0.014534 sec, Ta = 0.057944 sec, comp_time = 0.071391 sec,comm_time = 0.000508 sec, neigh_comm_time = 0.000498 sec, ptp_comm_time = 0.000002 sec, coll_comm_time = 0.000002 sec
rank 101: Tb = 0.014519 sec, Ta = 0.057951 sec, comp_time = 0.071391 sec,comm_time = 0.000580 sec, neigh_comm_time = 0.000570 sec, ptp_comm_time = 0.000002 sec, coll_comm_time = 0.000002 sec
rank 416: Tb = 0.014535 sec, Ta = 0.057939 sec, comp_time = 0.071390 sec,comm_time = 0.000512 sec, neigh_comm_time = 0.000503 sec, ptp_comm_time = 0.000002 sec, coll_comm_time = 0.000002 sec
rank 475: Tb = 0.014527 sec, Ta = 0.057942 sec, comp_time = 0.071390 sec,comm_time = 0.000509 sec, neigh_comm_time = 0.000500 sec, ptp_comm_time = 0.000002 sec, coll_comm_time = 0.000002 sec
rank 18: Tb = 0.014538 sec, Ta = 0.057950 sec, comp_time = 0.071391 sec,comm_time = 0.000516 sec, neigh_comm_time = 0.000506 sec, ptp_comm_time = 0.000001 sec, coll_comm_time = 0.000002 sec
rank 301: Tb = 0.014520 sec, Ta = 0.057944 sec, comp_time = 0.071391 sec,comm_time = 0.000578 sec, neigh_comm_time = 0.000568 sec, ptp_comm_time = 0.000002 sec, coll_comm_time = 0.000002 sec
rank 339: Tb = 0.014518 sec, Ta = 0.057948 sec, comp_time = 0.071391 sec,comm_time = 0.000577 sec, neigh_comm_time = 0.000568 sec, ptp_comm_time = 0.000002 sec, coll_comm_time = 0.000002 sec
rank 112: Tb = 0.014527 sec, Ta = 0.057941 sec, comp_time = 0.071391 sec,comm_time = 0.000513 sec, neigh_comm_time = 0.000503 sec, ptp_comm_time = 0.000002 sec, coll_comm_time = 0.000002 sec
rank 6: Tb = 0.014539 sec, Ta = 0.057950 sec, comp_time = 0.071390 sec,comm_time = 0.000433 sec, neigh_comm_time = 0.000423 sec, ptp_comm_time = 0.000002 sec, coll_comm_time = 0.000002 sec
rank 309: Tb = 0.014522 sec, Ta = 0.057947 sec, comp_time = 0.071391 sec,comm_time = 0.000575 sec, neigh_comm_time = 0.000566 sec, ptp_comm_time = 0.000002 sec, coll_comm_time = 0.000002 sec
rank 227: Tb = 0.014524 sec, Ta = 0.057944 sec, comp_time = 0.071391 sec,comm_time = 0.000579 sec, neigh_comm_time = 0.000569 sec, ptp_comm_time = 0.000002 sec, coll_comm_time = 0.000002 sec
rank 136: Tb = 0.014533 sec, Ta = 0.057945 sec, comp_time = 0.071391 sec,comm_time = 0.000511 sec, neigh_comm_time = 0.000501 sec, ptp_comm_time = 0.000002 sec, coll_comm_time = 0.000002 sec
rank 263: Tb = 0.014531 sec, Ta = 0.057952 sec, comp_time = 0.071390 sec,comm_time = 0.000429 sec, neigh_comm_time = 0.000419 sec, ptp_comm_time = 0.000001 sec, coll_comm_time = 0.000002 sec
rank 435: Tb = 0.014525 sec, Ta = 0.057945 sec, comp_time = 0.071391 sec,comm_time = 0.000577 sec, neigh_comm_time = 0.000567 sec, ptp_comm_time = 0.000002 sec, coll_comm_time = 0.000002 sec
rank 487: Tb = 0.014529 sec, Ta = 0.057944 sec, comp_time = 0.071390 sec,comm_time = 0.000430 sec, neigh_comm_time = 0.000420 sec, ptp_comm_time = 0.000001 sec, coll_comm_time = 0.000002 sec
rank 158: Tb = 0.014539 sec, Ta = 0.057940 sec, comp_time = 0.071391 sec,comm_time = 0.000582 sec, neigh_comm_time = 0.000573 sec, ptp_comm_time = 0.000002 sec, coll_comm_time = 0.000002 sec
rank 152: Tb = 0.014540 sec, Ta = 0.057944 sec, comp_time = 0.071391 sec,comm_time = 0.000512 sec, neigh_comm_time = 0.000503 sec, ptp_comm_time = 0.000002 sec, coll_comm_time = 0.000002 sec
rank 33: Tb = 0.014521 sec, Ta = 0.057951 sec, comp_time = 0.071390 sec,comm_time = 0.000513 sec, neigh_comm_time = 0.000503 sec, ptp_comm_time = 0.000002 sec, coll_comm_time = 0.000002 sec
rank 242: Tb = 0.014537 sec, Ta = 0.057941 sec, comp_time = 0.071391 sec,comm_time = 0.000579 sec, neigh_comm_time = 0.000569 sec, ptp_comm_time = 0.000002 sec, coll_comm_time = 0.000002 sec
rank 220: Tb = 0.014544 sec, Ta = 0.057943 sec, comp_time = 0.071391 sec,comm_time = 0.000582 sec, neigh_comm_time = 0.000573 sec, ptp_comm_time = 0.000001 sec, coll_comm_time = 0.000002 sec
rank 264: Tb = 0.014531 sec, Ta = 0.057948 sec, comp_time = 0.071390 sec,comm_time = 0.000505 sec, neigh_comm_time = 0.000496 sec, ptp_comm_time = 0.000001 sec, coll_comm_time = 0.000002 sec
rank 308: Tb = 0.014537 sec, Ta = 0.057945 sec, comp_time = 0.071391 sec,comm_time = 0.000580 sec, neigh_comm_time = 0.000571 sec, ptp_comm_time = 0.000002 sec, coll_comm_time = 0.000002 sec
rank 286: Tb = 0.014540 sec, Ta = 0.057944 sec, comp_time = 0.071390 sec,comm_time = 0.000580 sec, neigh_comm_time = 0.000570 sec, ptp_comm_time = 0.000002 sec, coll_comm_time = 0.000002 sec
rank 291: Tb = 0.014524 sec, Ta = 0.057948 sec, comp_time = 0.071391 sec,comm_time = 0.000577 sec, neigh_comm_time = 0.000568 sec, ptp_comm_time = 0.000002 sec, coll_comm_time = 0.000002 sec
rank 10: Tb = 0.014529 sec, Ta = 0.057948 sec, comp_time = 0.071391 sec,comm_time = 0.000511 sec, neigh_comm_time = 0.000501 sec, ptp_comm_time = 0.000002 sec, coll_comm_time = 0.000002 sec
rank 377: Tb = 0.014521 sec, Ta = 0.057943 sec, comp_time = 0.071390 sec,comm_time = 0.000510 sec, neigh_comm_time = 0.000500 sec, ptp_comm_time = 0.000001 sec, coll_comm_time = 0.000002 sec
rank 493: Tb = 0.014520 sec, Ta = 0.057943 sec, comp_time = 0.071391 sec,comm_time = 0.000511 sec, neigh_comm_time = 0.000501 sec, ptp_comm_time = 0.000002 sec, coll_comm_time = 0.000002 sec
rank 206: Tb = 0.014537 sec, Ta = 0.057945 sec, comp_time = 0.071391 sec,comm_time = 0.000580 sec, neigh_comm_time = 0.000571 sec, ptp_comm_time = 0.000001 sec, coll_comm_time = 0.000002 sec
rank 30: Tb = 0.014542 sec, Ta = 0.057948 sec, comp_time = 0.071390 sec,comm_time = 0.000514 sec, neigh_comm_time = 0.000504 sec, ptp_comm_time = 0.000002 sec, coll_comm_time = 0.000002 sec
rank 503: Tb = 0.014531 sec, Ta = 0.057943 sec, comp_time = 0.071390 sec,comm_time = 0.000427 sec, neigh_comm_time = 0.000417 sec, ptp_comm_time = 0.000002 sec, coll_comm_time = 0.000002 sec
rank 181: Tb = 0.014522 sec, Ta = 0.057945 sec, comp_time = 0.071391 sec,comm_time = 0.000580 sec, neigh_comm_time = 0.000570 sec, ptp_comm_time = 0.000002 sec, coll_comm_time = 0.000002 sec
rank 196: Tb = 0.014541 sec, Ta = 0.057946 sec, comp_time = 0.071391 sec,comm_time = 0.000510 sec, neigh_comm_time = 0.000500 sec, ptp_comm_time = 0.000001 sec, coll_comm_time = 0.000002 sec
rank 458: Tb = 0.014534 sec, Ta = 0.057943 sec, comp_time = 0.071390 sec,comm_time = 0.000508 sec, neigh_comm_time = 0.000498 sec, ptp_comm_time = 0.000002 sec, coll_comm_time = 0.000002 sec
rank 45: Tb = 0.014523 sec, Ta = 0.057951 sec, comp_time = 0.071391 sec,comm_time = 0.000511 sec, neigh_comm_time = 0.000502 sec, ptp_comm_time = 0.000002 sec, coll_comm_time = 0.000002 sec
rank 426: Tb = 0.014531 sec, Ta = 0.057943 sec, comp_time = 0.071391 sec,comm_time = 0.000580 sec, neigh_comm_time = 0.000570 sec, ptp_comm_time = 0.000002 sec, coll_comm_time = 0.000002 sec
rank 466: Tb = 0.014535 sec, Ta = 0.057943 sec, comp_time = 0.071390 sec,comm_time = 0.000510 sec, neigh_comm_time = 0.000500 sec, ptp_comm_time = 0.000001 sec, coll_comm_time = 0.000002 sec
rank 16: Tb = 0.014529 sec, Ta = 0.057949 sec, comp_time = 0.071390 sec,comm_time = 0.000432 sec, neigh_comm_time = 0.000422 sec, ptp_comm_time = 0.000001 sec, coll_comm_time = 0.000002 sec
rank 365: Tb = 0.014519 sec, Ta = 0.057944 sec, comp_time = 0.071391 sec,comm_time = 0.000581 sec, neigh_comm_time = 0.000571 sec, ptp_comm_time = 0.000002 sec, coll_comm_time = 0.000002 sec
rank 273: Tb = 0.014522 sec, Ta = 0.057951 sec, comp_time = 0.071391 sec,comm_time = 0.000576 sec, neigh_comm_time = 0.000566 sec, ptp_comm_time = 0.000002 sec, coll_comm_time = 0.000002 sec
rank 122: Tb = 0.014534 sec, Ta = 0.057941 sec, comp_time = 0.071391 sec,comm_time = 0.000512 sec, neigh_comm_time = 0.000501 sec, ptp_comm_time = 0.000002 sec, coll_comm_time = 0.000002 sec
rank 70: Tb = 0.014543 sec, Ta = 0.057950 sec, comp_time = 0.071391 sec,comm_time = 0.000510 sec, neigh_comm_time = 0.000500 sec, ptp_comm_time = 0.000002 sec, coll_comm_time = 0.000002 sec
rank 373: Tb = 0.014518 sec, Ta = 0.057946 sec, comp_time = 0.071391 sec,comm_time = 0.000579 sec, neigh_comm_time = 0.000569 sec, ptp_comm_time = 0.000002 sec, coll_comm_time = 0.000002 sec
rank 163: Tb = 0.014526 sec, Ta = 0.057946 sec, comp_time = 0.071391 sec,comm_time = 0.000578 sec, neigh_comm_time = 0.000568 sec, ptp_comm_time = 0.000002 sec, coll_comm_time = 0.000002 sec
rank 459: Tb = 0.014527 sec, Ta = 0.057943 sec, comp_time = 0.071390 sec,comm_time = 0.000507 sec, neigh_comm_time = 0.000497 sec, ptp_comm_time = 0.000002 sec, coll_comm_time = 0.000002 sec
rank 324: Tb = 0.014540 sec, Ta = 0.057948 sec, comp_time = 0.071391 sec,comm_time = 0.000510 sec, neigh_comm_time = 0.000501 sec, ptp_comm_time = 0.000002 sec, coll_comm_time = 0.000002 sec
rank 505: Tb = 0.014524 sec, Ta = 0.057944 sec, comp_time = 0.071390 sec,comm_time = 0.000427 sec, neigh_comm_time = 0.000417 sec, ptp_comm_time = 0.000002 sec, coll_comm_time = 0.000002 sec
rank 420: Tb = 0.014532 sec, Ta = 0.057944 sec, comp_time = 0.071391 sec,comm_time = 0.000577 sec, neigh_comm_time = 0.000567 sec, ptp_comm_time = 0.000002 sec, coll_comm_time = 0.000002 sec
rank 212: Tb = 0.014538 sec, Ta = 0.057944 sec, comp_time = 0.071391 sec,comm_time = 0.000580 sec, neigh_comm_time = 0.000571 sec, ptp_comm_time = 0.000002 sec, coll_comm_time = 0.000002 sec
rank 210: Tb = 0.014536 sec, Ta = 0.057944 sec, comp_time = 0.071391 sec,comm_time = 0.000578 sec, neigh_comm_time = 0.000569 sec, ptp_comm_time = 0.000002 sec, coll_comm_time = 0.000002 sec
rank 34: Tb = 0.014530 sec, Ta = 0.057948 sec, comp_time = 0.071390 sec,comm_time = 0.000513 sec, neigh_comm_time = 0.000504 sec, ptp_comm_time = 0.000002 sec, coll_comm_time = 0.000002 sec
rank 179: Tb = 0.014526 sec, Ta = 0.057946 sec, comp_time = 0.071391 sec,comm_time = 0.000578 sec, neigh_comm_time = 0.000568 sec, ptp_comm_time = 0.000002 sec, coll_comm_time = 0.000002 sec
rank 476: Tb = 0.014540 sec, Ta = 0.057942 sec, comp_time = 0.071391 sec,comm_time = 0.000508 sec, neigh_comm_time = 0.000499 sec, ptp_comm_time = 0.000002 sec, coll_comm_time = 0.000002 sec
rank 267: Tb = 0.014526 sec, Ta = 0.057949 sec, comp_time = 0.071391 sec,comm_time = 0.000580 sec, neigh_comm_time = 0.000571 sec, ptp_comm_time = 0.000002 sec, coll_comm_time = 0.000002 sec
rank 126: Tb = 0.014539 sec, Ta = 0.057940 sec, comp_time = 0.071391 sec,comm_time = 0.000512 sec, neigh_comm_time = 0.000502 sec, ptp_comm_time = 0.000002 sec, coll_comm_time = 0.000002 sec
rank 341: Tb = 0.014515 sec, Ta = 0.057949 sec, comp_time = 0.071391 sec,comm_time = 0.000579 sec, neigh_comm_time = 0.000569 sec, ptp_comm_time = 0.000002 sec, coll_comm_time = 0.000002 sec
rank 353: Tb = 0.014517 sec, Ta = 0.057947 sec, comp_time = 0.071391 sec,comm_time = 0.000578 sec, neigh_comm_time = 0.000569 sec, ptp_comm_time = 0.000002 sec, coll_comm_time = 0.000002 sec
rank 9: Tb = 0.014528 sec, Ta = 0.057952 sec, comp_time = 0.071391 sec,comm_time = 0.000511 sec, neigh_comm_time = 0.000501 sec, ptp_comm_time = 0.000002 sec, coll_comm_time = 0.000002 sec
rank 307: Tb = 0.014523 sec, Ta = 0.057946 sec, comp_time = 0.071391 sec,comm_time = 0.000576 sec, neigh_comm_time = 0.000567 sec, ptp_comm_time = 0.000001 sec, coll_comm_time = 0.000002 sec
rank 161: Tb = 0.014524 sec, Ta = 0.057948 sec, comp_time = 0.071391 sec,comm_time = 0.000580 sec, neigh_comm_time = 0.000571 sec, ptp_comm_time = 0.000002 sec, coll_comm_time = 0.000002 sec
rank 143: Tb = 0.014533 sec, Ta = 0.057950 sec, comp_time = 0.071391 sec,comm_time = 0.000513 sec, neigh_comm_time = 0.000503 sec, ptp_comm_time = 0.000002 sec, coll_comm_time = 0.000002 sec
rank 325: Tb = 0.014525 sec, Ta = 0.057950 sec, comp_time = 0.071391 sec,comm_time = 0.000511 sec, neigh_comm_time = 0.000501 sec, ptp_comm_time = 0.000002 sec, coll_comm_time = 0.000002 sec
rank 510: Tb = 0.014541 sec, Ta = 0.057938 sec, comp_time = 0.071390 sec,comm_time = 0.000426 sec, neigh_comm_time = 0.000416 sec, ptp_comm_time = 0.000002 sec, coll_comm_time = 0.000002 sec
rank 182: Tb = 0.014541 sec, Ta = 0.057943 sec, comp_time = 0.071391 sec,comm_time = 0.000580 sec, neigh_comm_time = 0.000570 sec, ptp_comm_time = 0.000002 sec, coll_comm_time = 0.000002 sec
rank 222: Tb = 0.014541 sec, Ta = 0.057940 sec, comp_time = 0.071390 sec,comm_time = 0.000579 sec, neigh_comm_time = 0.000570 sec, ptp_comm_time = 0.000001 sec, coll_comm_time = 0.000002 sec
rank 384: Tb = 0.014534 sec, Ta = 0.057938 sec, comp_time = 0.071390 sec,comm_time = 0.000430 sec, neigh_comm_time = 0.000420 sec, ptp_comm_time = 0.000001 sec, coll_comm_time = 0.000002 sec
rank 103: Tb = 0.014532 sec, Ta = 0.057951 sec, comp_time = 0.071391 sec,comm_time = 0.000511 sec, neigh_comm_time = 0.000501 sec, ptp_comm_time = 0.000002 sec, coll_comm_time = 0.000002 sec
rank 425: Tb = 0.014524 sec, Ta = 0.057945 sec, comp_time = 0.071391 sec,comm_time = 0.000575 sec, neigh_comm_time = 0.000565 sec, ptp_comm_time = 0.000002 sec, coll_comm_time = 0.000002 sec
rank 408: Tb = 0.014536 sec, Ta = 0.057944 sec, comp_time = 0.071391 sec,comm_time = 0.000508 sec, neigh_comm_time = 0.000498 sec, ptp_comm_time = 0.000002 sec, coll_comm_time = 0.000002 sec
rank 89: Tb = 0.014525 sec, Ta = 0.057950 sec, comp_time = 0.071391 sec,comm_time = 0.000580 sec, neigh_comm_time = 0.000570 sec, ptp_comm_time = 0.000002 sec, coll_comm_time = 0.000002 sec
rank 293: Tb = 0.014523 sec, Ta = 0.057950 sec, comp_time = 0.071391 sec,comm_time = 0.000579 sec, neigh_comm_time = 0.000570 sec, ptp_comm_time = 0.000001 sec, coll_comm_time = 0.000002 sec
rank 347: Tb = 0.014521 sec, Ta = 0.057946 sec, comp_time = 0.071391 sec,comm_time = 0.000582 sec, neigh_comm_time = 0.000572 sec, ptp_comm_time = 0.000001 sec, coll_comm_time = 0.000002 sec
rank 48: Tb = 0.014527 sec, Ta = 0.057944 sec, comp_time = 0.071390 sec,comm_time = 0.000431 sec, neigh_comm_time = 0.000421 sec, ptp_comm_time = 0.000001 sec, coll_comm_time = 0.000002 sec
rank 79: Tb = 0.014527 sec, Ta = 0.057950 sec, comp_time = 0.071391 sec,comm_time = 0.000511 sec, neigh_comm_time = 0.000502 sec, ptp_comm_time = 0.000002 sec, coll_comm_time = 0.000002 sec
rank 375: Tb = 0.014527 sec, Ta = 0.057946 sec, comp_time = 0.071390 sec,comm_time = 0.000509 sec, neigh_comm_time = 0.000499 sec, ptp_comm_time = 0.000002 sec, coll_comm_time = 0.000002 sec
rank 166: Tb = 0.014536 sec, Ta = 0.057945 sec, comp_time = 0.071391 sec,comm_time = 0.000581 sec, neigh_comm_time = 0.000571 sec, ptp_comm_time = 0.000002 sec, coll_comm_time = 0.000002 sec
rank 201: Tb = 0.014527 sec, Ta = 0.057947 sec, comp_time = 0.071391 sec,comm_time = 0.000575 sec, neigh_comm_time = 0.000565 sec, ptp_comm_time = 0.000002 sec, coll_comm_time = 0.000002 sec
rank 21: Tb = 0.014520 sec, Ta = 0.057953 sec, comp_time = 0.071390 sec,comm_time = 0.000515 sec, neigh_comm_time = 0.000506 sec, ptp_comm_time = 0.000001 sec, coll_comm_time = 0.000002 sec
rank 498: Tb = 0.014537 sec, Ta = 0.057942 sec, comp_time = 0.071390 sec,comm_time = 0.000509 sec, neigh_comm_time = 0.000499 sec, ptp_comm_time = 0.000002 sec, coll_comm_time = 0.000002 sec
rank 423: Tb = 0.014531 sec, Ta = 0.057946 sec, comp_time = 0.071390 sec,comm_time = 0.000510 sec, neigh_comm_time = 0.000501 sec, ptp_comm_time = 0.000002 sec, coll_comm_time = 0.000002 sec
rank 452: Tb = 0.014538 sec, Ta = 0.057946 sec, comp_time = 0.071390 sec,comm_time = 0.000431 sec, neigh_comm_time = 0.000422 sec, ptp_comm_time = 0.000001 sec, coll_comm_time = 0.000002 sec
rank 145: Tb = 0.014523 sec, Ta = 0.057949 sec, comp_time = 0.071391 sec,comm_time = 0.000579 sec, neigh_comm_time = 0.000569 sec, ptp_comm_time = 0.000002 sec, coll_comm_time = 0.000002 sec
rank 96: Tb = 0.014532 sec, Ta = 0.057943 sec, comp_time = 0.071391 sec,comm_time = 0.000511 sec, neigh_comm_time = 0.000501 sec, ptp_comm_time = 0.000002 sec, coll_comm_time = 0.000002 sec
rank 185: Tb = 0.014528 sec, Ta = 0.057945 sec, comp_time = 0.071391 sec,comm_time = 0.000511 sec, neigh_comm_time = 0.000501 sec, ptp_comm_time = 0.000002 sec, coll_comm_time = 0.000002 sec
rank 218: Tb = 0.014535 sec, Ta = 0.057944 sec, comp_time = 0.071391 sec,comm_time = 0.000578 sec, neigh_comm_time = 0.000569 sec, ptp_comm_time = 0.000001 sec, coll_comm_time = 0.000002 sec
rank 322: Tb = 0.014536 sec, Ta = 0.057948 sec, comp_time = 0.071390 sec,comm_time = 0.000510 sec, neigh_comm_time = 0.000500 sec, ptp_comm_time = 0.000002 sec, coll_comm_time = 0.000002 sec
rank 125: Tb = 0.014520 sec, Ta = 0.057945 sec, comp_time = 0.071391 sec,comm_time = 0.000512 sec, neigh_comm_time = 0.000503 sec, ptp_comm_time = 0.000002 sec, coll_comm_time = 0.000002 sec
rank 279: Tb = 0.014538 sec, Ta = 0.057952 sec, comp_time = 0.071390 sec,comm_time = 0.000508 sec, neigh_comm_time = 0.000499 sec, ptp_comm_time = 0.000001 sec, coll_comm_time = 0.000001 sec
rank 297: Tb = 0.014524 sec, Ta = 0.057948 sec, comp_time = 0.071390 sec,comm_time = 0.000576 sec, neigh_comm_time = 0.000566 sec, ptp_comm_time = 0.000002 sec, coll_comm_time = 0.000002 sec
rank 73: Tb = 0.014526 sec, Ta = 0.057950 sec, comp_time = 0.071391 sec,comm_time = 0.000578 sec, neigh_comm_time = 0.000569 sec, ptp_comm_time = 0.000002 sec, coll_comm_time = 0.000002 sec
rank 313: Tb = 0.014522 sec, Ta = 0.057947 sec, comp_time = 0.071390 sec,comm_time = 0.000511 sec, neigh_comm_time = 0.000502 sec, ptp_comm_time = 0.000002 sec, coll_comm_time = 0.000002 sec
rank 224: Tb = 0.014537 sec, Ta = 0.057940 sec, comp_time = 0.071391 sec,comm_time = 0.000511 sec, neigh_comm_time = 0.000501 sec, ptp_comm_time = 0.000002 sec, coll_comm_time = 0.000002 sec
rank 204: Tb = 0.014538 sec, Ta = 0.057946 sec, comp_time = 0.071391 sec,comm_time = 0.000579 sec, neigh_comm_time = 0.000569 sec, ptp_comm_time = 0.000002 sec, coll_comm_time = 0.000002 sec
rank 5: Tb = 0.014524 sec, Ta = 0.057953 sec, comp_time = 0.071391 sec,comm_time = 0.000434 sec, neigh_comm_time = 0.000424 sec, ptp_comm_time = 0.000002 sec, coll_comm_time = 0.000002 sec
rank 508: Tb = 0.014538 sec, Ta = 0.057941 sec, comp_time = 0.071390 sec,comm_time = 0.000429 sec, neigh_comm_time = 0.000419 sec, ptp_comm_time = 0.000002 sec, coll_comm_time = 0.000002 sec
rank 246: Tb = 0.014540 sec, Ta = 0.057941 sec, comp_time = 0.071391 sec,comm_time = 0.000577 sec, neigh_comm_time = 0.000568 sec, ptp_comm_time = 0.000002 sec, coll_comm_time = 0.000002 sec
rank 214: Tb = 0.014541 sec, Ta = 0.057943 sec, comp_time = 0.071391 sec,comm_time = 0.000582 sec, neigh_comm_time = 0.000572 sec, ptp_comm_time = 0.000001 sec, coll_comm_time = 0.000002 sec
rank 448: Tb = 0.014536 sec, Ta = 0.057939 sec, comp_time = 0.071390 sec,comm_time = 0.000361 sec, neigh_comm_time = 0.000352 sec, ptp_comm_time = 0.000002 sec, coll_comm_time = 0.000002 sec
rank 38: Tb = 0.014542 sec, Ta = 0.057952 sec, comp_time = 0.071390 sec,comm_time = 0.000516 sec, neigh_comm_time = 0.000506 sec, ptp_comm_time = 0.000002 sec, coll_comm_time = 0.000002 sec
rank 226: Tb = 0.014531 sec, Ta = 0.057943 sec, comp_time = 0.071391 sec,comm_time = 0.000578 sec, neigh_comm_time = 0.000569 sec, ptp_comm_time = 0.000002 sec, coll_comm_time = 0.000002 sec
rank 471: Tb = 0.014529 sec, Ta = 0.057946 sec, comp_time = 0.071390 sec,comm_time = 0.000429 sec, neigh_comm_time = 0.000420 sec, ptp_comm_time = 0.000001 sec, coll_comm_time = 0.000002 sec
rank 26: Tb = 0.014536 sec, Ta = 0.057950 sec, comp_time = 0.071391 sec,comm_time = 0.000514 sec, neigh_comm_time = 0.000504 sec, ptp_comm_time = 0.000002 sec, coll_comm_time = 0.000002 sec
rank 303: Tb = 0.014530 sec, Ta = 0.057947 sec, comp_time = 0.071391 sec,comm_time = 0.000509 sec, neigh_comm_time = 0.000499 sec, ptp_comm_time = 0.000002 sec, coll_comm_time = 0.000002 sec
rank 338: Tb = 0.014533 sec, Ta = 0.057946 sec, comp_time = 0.071391 sec,comm_time = 0.000582 sec, neigh_comm_time = 0.000572 sec, ptp_comm_time = 0.000002 sec, coll_comm_time = 0.000002 sec
rank 306: Tb = 0.014535 sec, Ta = 0.057945 sec, comp_time = 0.071391 sec,comm_time = 0.000580 sec, neigh_comm_time = 0.000571 sec, ptp_comm_time = 0.000002 sec, coll_comm_time = 0.000002 sec
rank 4: Tb = 0.014537 sec, Ta = 0.057953 sec, comp_time = 0.071391 sec,comm_time = 0.000433 sec, neigh_comm_time = 0.000423 sec, ptp_comm_time = 0.000002 sec, coll_comm_time = 0.000002 sec
rank 316: Tb = 0.014542 sec, Ta = 0.057944 sec, comp_time = 0.071391 sec,comm_time = 0.000508 sec, neigh_comm_time = 0.000498 sec, ptp_comm_time = 0.000002 sec, coll_comm_time = 0.000002 sec
rank 172: Tb = 0.014534 sec, Ta = 0.057945 sec, comp_time = 0.071391 sec,comm_time = 0.000578 sec, neigh_comm_time = 0.000568 sec, ptp_comm_time = 0.000002 sec, coll_comm_time = 0.000002 sec
rank 195: Tb = 0.014528 sec, Ta = 0.057948 sec, comp_time = 0.071391 sec,comm_time = 0.000509 sec, neigh_comm_time = 0.000500 sec, ptp_comm_time = 0.000001 sec, coll_comm_time = 0.000002 sec
rank 23: Tb = 0.014536 sec, Ta = 0.057952 sec, comp_time = 0.071391 sec,comm_time = 0.000433 sec, neigh_comm_time = 0.000423 sec, ptp_comm_time = 0.000002 sec, coll_comm_time = 0.000002 sec
rank 250: Tb = 0.014536 sec, Ta = 0.057941 sec, comp_time = 0.071390 sec,comm_time = 0.000508 sec, neigh_comm_time = 0.000498 sec, ptp_comm_time = 0.000002 sec, coll_comm_time = 0.000002 sec
rank 422: Tb = 0.014536 sec, Ta = 0.057943 sec, comp_time = 0.071391 sec,comm_time = 0.000577 sec, neigh_comm_time = 0.000567 sec, ptp_comm_time = 0.000002 sec, coll_comm_time = 0.000002 sec
rank 460: Tb = 0.014534 sec, Ta = 0.057943 sec, comp_time = 0.071391 sec,comm_time = 0.000512 sec, neigh_comm_time = 0.000502 sec, ptp_comm_time = 0.000002 sec, coll_comm_time = 0.000002 sec
rank 467: Tb = 0.014519 sec, Ta = 0.057946 sec, comp_time = 0.071391 sec,comm_time = 0.000510 sec, neigh_comm_time = 0.000500 sec, ptp_comm_time = 0.000002 sec, coll_comm_time = 0.000002 sec
rank 32: Tb = 0.014530 sec, Ta = 0.057945 sec, comp_time = 0.071391 sec,comm_time = 0.000432 sec, neigh_comm_time = 0.000423 sec, ptp_comm_time = 0.000001 sec, coll_comm_time = 0.000002 sec
rank 499: Tb = 0.014525 sec, Ta = 0.057943 sec, comp_time = 0.071390 sec,comm_time = 0.000510 sec, neigh_comm_time = 0.000500 sec, ptp_comm_time = 0.000002 sec, coll_comm_time = 0.000002 sec
rank 474: Tb = 0.014535 sec, Ta = 0.057943 sec, comp_time = 0.071391 sec,comm_time = 0.000509 sec, neigh_comm_time = 0.000499 sec, ptp_comm_time = 0.000002 sec, coll_comm_time = 0.000002 sec
rank 265: Tb = 0.014525 sec, Ta = 0.057952 sec, comp_time = 0.071391 sec,comm_time = 0.000577 sec, neigh_comm_time = 0.000568 sec, ptp_comm_time = 0.000002 sec, coll_comm_time = 0.000002 sec
rank 55: Tb = 0.014535 sec, Ta = 0.057949 sec, comp_time = 0.071390 sec,comm_time = 0.000430 sec, neigh_comm_time = 0.000421 sec, ptp_comm_time = 0.000001 sec, coll_comm_time = 0.000002 sec
rank 343: Tb = 0.014537 sec, Ta = 0.057950 sec, comp_time = 0.071391 sec,comm_time = 0.000509 sec, neigh_comm_time = 0.000500 sec, ptp_comm_time = 0.000002 sec, coll_comm_time = 0.000002 sec
rank 363: Tb = 0.014524 sec, Ta = 0.057946 sec, comp_time = 0.071391 sec,comm_time = 0.000578 sec, neigh_comm_time = 0.000568 sec, ptp_comm_time = 0.000002 sec, coll_comm_time = 0.000002 sec
rank 0: Tb = 0.014525 sec, Ta = 0.057953 sec, comp_time = 0.071391 sec,comm_time = 0.000374 sec, neigh_comm_time = 0.000365 sec, ptp_comm_time = 0.000001 sec, coll_comm_time = 0.000002 sec
rank 315: Tb = 0.014526 sec, Ta = 0.057944 sec, comp_time = 0.071391 sec,comm_time = 0.000509 sec, neigh_comm_time = 0.000499 sec, ptp_comm_time = 0.000002 sec, coll_comm_time = 0.000002 sec
rank 160: Tb = 0.014534 sec, Ta = 0.057941 sec, comp_time = 0.071391 sec,comm_time = 0.000513 sec, neigh_comm_time = 0.000503 sec, ptp_comm_time = 0.000001 sec, coll_comm_time = 0.000002 sec
rank 142: Tb = 0.014535 sec, Ta = 0.057948 sec, comp_time = 0.071391 sec,comm_time = 0.000580 sec, neigh_comm_time = 0.000571 sec, ptp_comm_time = 0.000001 sec, coll_comm_time = 0.000002 sec
rank 326: Tb = 0.014541 sec, Ta = 0.057947 sec, comp_time = 0.071390 sec,comm_time = 0.000510 sec, neigh_comm_time = 0.000501 sec, ptp_comm_time = 0.000002 sec, coll_comm_time = 0.000002 sec
rank 502: Tb = 0.014541 sec, Ta = 0.057941 sec, comp_time = 0.071390 sec,comm_time = 0.000505 sec, neigh_comm_time = 0.000494 sec, ptp_comm_time = 0.000002 sec, coll_comm_time = 0.000002 sec
rank 247: Tb = 0.014531 sec, Ta = 0.057944 sec, comp_time = 0.071390 sec,comm_time = 0.000511 sec, neigh_comm_time = 0.000501 sec, ptp_comm_time = 0.000002 sec, coll_comm_time = 0.000002 sec
rank 469: Tb = 0.014517 sec, Ta = 0.057946 sec, comp_time = 0.071391 sec,comm_time = 0.000507 sec, neigh_comm_time = 0.000498 sec, ptp_comm_time = 0.000002 sec, coll_comm_time = 0.000002 sec
rank 395: Tb = 0.014527 sec, Ta = 0.057949 sec, comp_time = 0.071391 sec,comm_time = 0.000576 sec, neigh_comm_time = 0.000566 sec, ptp_comm_time = 0.000002 sec, coll_comm_time = 0.000002 sec
rank 111: Tb = 0.014533 sec, Ta = 0.057951 sec, comp_time = 0.071391 sec,comm_time = 0.000512 sec, neigh_comm_time = 0.000502 sec, ptp_comm_time = 0.000002 sec, coll_comm_time = 0.000002 sec
rank 489: Tb = 0.014525 sec, Ta = 0.057944 sec, comp_time = 0.071390 sec,comm_time = 0.000510 sec, neigh_comm_time = 0.000500 sec, ptp_comm_time = 0.000001 sec, coll_comm_time = 0.000002 sec
rank 406: Tb = 0.014538 sec, Ta = 0.057945 sec, comp_time = 0.071391 sec,comm_time = 0.000578 sec, neigh_comm_time = 0.000569 sec, ptp_comm_time = 0.000002 sec, coll_comm_time = 0.000002 sec
rank 82: Tb = 0.014534 sec, Ta = 0.057950 sec, comp_time = 0.071391 sec,comm_time = 0.000582 sec, neigh_comm_time = 0.000572 sec, ptp_comm_time = 0.000002 sec, coll_comm_time = 0.000002 sec
rank 359: Tb = 0.014529 sec, Ta = 0.057949 sec, comp_time = 0.071391 sec,comm_time = 0.000511 sec, neigh_comm_time = 0.000502 sec, ptp_comm_time = 0.000002 sec, coll_comm_time = 0.000002 sec
rank 346: Tb = 0.014534 sec, Ta = 0.057945 sec, comp_time = 0.071391 sec,comm_time = 0.000580 sec, neigh_comm_time = 0.000571 sec, ptp_comm_time = 0.000002 sec, coll_comm_time = 0.000002 sec
rank 121: Tb = 0.014523 sec, Ta = 0.057947 sec, comp_time = 0.071390 sec,comm_time = 0.000510 sec, neigh_comm_time = 0.000500 sec, ptp_comm_time = 0.000002 sec, coll_comm_time = 0.000002 sec
rank 68: Tb = 0.014544 sec, Ta = 0.057951 sec, comp_time = 0.071391 sec,comm_time = 0.000512 sec, neigh_comm_time = 0.000502 sec, ptp_comm_time = 0.000002 sec, coll_comm_time = 0.000002 sec
rank 311: Tb = 0.014532 sec, Ta = 0.057948 sec, comp_time = 0.071390 sec,comm_time = 0.000506 sec, neigh_comm_time = 0.000496 sec, ptp_comm_time = 0.000002 sec, coll_comm_time = 0.000002 sec
rank 167: Tb = 0.014533 sec, Ta = 0.057947 sec, comp_time = 0.071391 sec,comm_time = 0.000510 sec, neigh_comm_time = 0.000501 sec, ptp_comm_time = 0.000002 sec, coll_comm_time = 0.000002 sec
rank 128: Tb = 0.014535 sec, Ta = 0.057940 sec, comp_time = 0.071391 sec,comm_time = 0.000432 sec, neigh_comm_time = 0.000422 sec, ptp_comm_time = 0.000001 sec, coll_comm_time = 0.000002 sec
rank 94: Tb = 0.014543 sec, Ta = 0.057946 sec, comp_time = 0.071391 sec,comm_time = 0.000581 sec, neigh_comm_time = 0.000571 sec, ptp_comm_time = 0.000002 sec, coll_comm_time = 0.000002 sec
rank 507: Tb = 0.014527 sec, Ta = 0.057942 sec, comp_time = 0.071390 sec,comm_time = 0.000428 sec, neigh_comm_time = 0.000418 sec, ptp_comm_time = 0.000002 sec, coll_comm_time = 0.000002 sec
rank 421: Tb = 0.014522 sec, Ta = 0.057946 sec, comp_time = 0.071391 sec,comm_time = 0.000576 sec, neigh_comm_time = 0.000566 sec, ptp_comm_time = 0.000002 sec, coll_comm_time = 0.000002 sec
rank 389: Tb = 0.014524 sec, Ta = 0.057949 sec, comp_time = 0.071391 sec,comm_time = 0.000511 sec, neigh_comm_time = 0.000502 sec, ptp_comm_time = 0.000002 sec, coll_comm_time = 0.000002 sec
rank 216: Tb = 0.014539 sec, Ta = 0.057943 sec, comp_time = 0.071391 sec,comm_time = 0.000508 sec, neigh_comm_time = 0.000499 sec, ptp_comm_time = 0.000002 sec, coll_comm_time = 0.000002 sec
rank 298: Tb = 0.014530 sec, Ta = 0.057947 sec, comp_time = 0.071391 sec,comm_time = 0.000577 sec, neigh_comm_time = 0.000568 sec, ptp_comm_time = 0.000002 sec, coll_comm_time = 0.000002 sec
rank 241: Tb = 0.014523 sec, Ta = 0.057945 sec, comp_time = 0.071390 sec,comm_time = 0.000571 sec, neigh_comm_time = 0.000562 sec, ptp_comm_time = 0.000001 sec, coll_comm_time = 0.000002 sec
rank 473: Tb = 0.014524 sec, Ta = 0.057946 sec, comp_time = 0.071390 sec,comm_time = 0.000510 sec, neigh_comm_time = 0.000501 sec, ptp_comm_time = 0.000001 sec, coll_comm_time = 0.000002 sec
rank 330: Tb = 0.014534 sec, Ta = 0.057947 sec, comp_time = 0.071391 sec,comm_time = 0.000580 sec, neigh_comm_time = 0.000570 sec, ptp_comm_time = 0.000002 sec, coll_comm_time = 0.000002 sec
rank 53: Tb = 0.014525 sec, Ta = 0.057949 sec, comp_time = 0.071390 sec,comm_time = 0.000516 sec, neigh_comm_time = 0.000506 sec, ptp_comm_time = 0.000002 sec, coll_comm_time = 0.000002 sec
rank 277: Tb = 0.014519 sec, Ta = 0.057952 sec, comp_time = 0.071391 sec,comm_time = 0.000577 sec, neigh_comm_time = 0.000568 sec, ptp_comm_time = 0.000002 sec, coll_comm_time = 0.000002 sec
rank 354: Tb = 0.014529 sec, Ta = 0.057947 sec, comp_time = 0.071391 sec,comm_time = 0.000581 sec, neigh_comm_time = 0.000571 sec, ptp_comm_time = 0.000002 sec, coll_comm_time = 0.000002 sec
rank 72: Tb = 0.014534 sec, Ta = 0.057948 sec, comp_time = 0.071391 sec,comm_time = 0.000519 sec, neigh_comm_time = 0.000509 sec, ptp_comm_time = 0.000002 sec, coll_comm_time = 0.000002 sec
rank 379: Tb = 0.014524 sec, Ta = 0.057943 sec, comp_time = 0.071390 sec,comm_time = 0.000510 sec, neigh_comm_time = 0.000500 sec, ptp_comm_time = 0.000002 sec, coll_comm_time = 0.000002 sec
rank 169: Tb = 0.014526 sec, Ta = 0.057947 sec, comp_time = 0.071391 sec,comm_time = 0.000578 sec, neigh_comm_time = 0.000569 sec, ptp_comm_time = 0.000002 sec, coll_comm_time = 0.000002 sec
rank 205: Tb = 0.014523 sec, Ta = 0.057949 sec, comp_time = 0.071391 sec,comm_time = 0.000575 sec, neigh_comm_time = 0.000566 sec, ptp_comm_time = 0.000001 sec, coll_comm_time = 0.000002 sec
rank 270: Tb = 0.014534 sec, Ta = 0.057946 sec, comp_time = 0.071391 sec,comm_time = 0.000575 sec, neigh_comm_time = 0.000566 sec, ptp_comm_time = 0.000001 sec, coll_comm_time = 0.000002 sec
rank 252: Tb = 0.014541 sec, Ta = 0.057941 sec, comp_time = 0.071390 sec,comm_time = 0.000511 sec, neigh_comm_time = 0.000502 sec, ptp_comm_time = 0.000002 sec, coll_comm_time = 0.000002 sec
rank 190: Tb = 0.014538 sec, Ta = 0.057939 sec, comp_time = 0.071391 sec,comm_time = 0.000509 sec, neigh_comm_time = 0.000499 sec, ptp_comm_time = 0.000001 sec, coll_comm_time = 0.000002 sec
rank 215: Tb = 0.014536 sec, Ta = 0.057947 sec, comp_time = 0.071391 sec,comm_time = 0.000508 sec, neigh_comm_time = 0.000499 sec, ptp_comm_time = 0.000001 sec, coll_comm_time = 0.000002 sec
rank 219: Tb = 0.014524 sec, Ta = 0.057945 sec, comp_time = 0.071391 sec,comm_time = 0.000577 sec, neigh_comm_time = 0.000568 sec, ptp_comm_time = 0.000002 sec, coll_comm_time = 0.000002 sec
rank 102: Tb = 0.014542 sec, Ta = 0.057951 sec, comp_time = 0.071391 sec,comm_time = 0.000581 sec, neigh_comm_time = 0.000571 sec, ptp_comm_time = 0.000002 sec, coll_comm_time = 0.000002 sec
rank 483: Tb = 0.014519 sec, Ta = 0.057945 sec, comp_time = 0.071391 sec,comm_time = 0.000509 sec, neigh_comm_time = 0.000499 sec, ptp_comm_time = 0.000002 sec, coll_comm_time = 0.000002 sec
rank 478: Tb = 0.014542 sec, Ta = 0.057940 sec, comp_time = 0.071390 sec,comm_time = 0.000507 sec, neigh_comm_time = 0.000498 sec, ptp_comm_time = 0.000002 sec, coll_comm_time = 0.000002 sec
rank 19: Tb = 0.014525 sec, Ta = 0.057953 sec, comp_time = 0.071391 sec,comm_time = 0.000513 sec, neigh_comm_time = 0.000504 sec, ptp_comm_time = 0.000002 sec, coll_comm_time = 0.000002 sec
rank 295: Tb = 0.014531 sec, Ta = 0.057950 sec, comp_time = 0.071391 sec,comm_time = 0.000510 sec, neigh_comm_time = 0.000500 sec, ptp_comm_time = 0.000002 sec, coll_comm_time = 0.000002 sec
rank 344: Tb = 0.014537 sec, Ta = 0.057946 sec, comp_time = 0.071391 sec,comm_time = 0.000513 sec, neigh_comm_time = 0.000503 sec, ptp_comm_time = 0.000002 sec, coll_comm_time = 0.000002 sec
rank 57: Tb = 0.014525 sec, Ta = 0.057948 sec, comp_time = 0.071390 sec,comm_time = 0.000430 sec, neigh_comm_time = 0.000420 sec, ptp_comm_time = 0.000002 sec, coll_comm_time = 0.000002 sec
rank 14: Tb = 0.014535 sec, Ta = 0.057951 sec, comp_time = 0.071390 sec,comm_time = 0.000515 sec, neigh_comm_time = 0.000506 sec, ptp_comm_time = 0.000002 sec, coll_comm_time = 0.000002 sec
rank 382: Tb = 0.014538 sec, Ta = 0.057938 sec, comp_time = 0.071390 sec,comm_time = 0.000508 sec, neigh_comm_time = 0.000499 sec, ptp_comm_time = 0.000002 sec, coll_comm_time = 0.000002 sec
rank 230: Tb = 0.014540 sec, Ta = 0.057946 sec, comp_time = 0.071391 sec,comm_time = 0.000578 sec, neigh_comm_time = 0.000568 sec, ptp_comm_time = 0.000002 sec, coll_comm_time = 0.000002 sec
rank 193: Tb = 0.014526 sec, Ta = 0.057949 sec, comp_time = 0.071391 sec,comm_time = 0.000509 sec, neigh_comm_time = 0.000499 sec, ptp_comm_time = 0.000001 sec, coll_comm_time = 0.000002 sec
rank 86: Tb = 0.014539 sec, Ta = 0.057948 sec, comp_time = 0.071391 sec,comm_time = 0.000584 sec, neigh_comm_time = 0.000575 sec, ptp_comm_time = 0.000002 sec, coll_comm_time = 0.000002 sec
rank 440: Tb = 0.014538 sec, Ta = 0.057942 sec, comp_time = 0.071390 sec,comm_time = 0.000428 sec, neigh_comm_time = 0.000418 sec, ptp_comm_time = 0.000002 sec, coll_comm_time = 0.000002 sec
rank 484: Tb = 0.014534 sec, Ta = 0.057943 sec, comp_time = 0.071390 sec,comm_time = 0.000510 sec, neigh_comm_time = 0.000500 sec, ptp_comm_time = 0.000001 sec, coll_comm_time = 0.000002 sec
rank 462: Tb = 0.014538 sec, Ta = 0.057941 sec, comp_time = 0.071391 sec,comm_time = 0.000506 sec, neigh_comm_time = 0.000497 sec, ptp_comm_time = 0.000002 sec, coll_comm_time = 0.000002 sec
rank 387: Tb = 0.014524 sec, Ta = 0.057950 sec, comp_time = 0.071390 sec,comm_time = 0.000511 sec, neigh_comm_time = 0.000502 sec, ptp_comm_time = 0.000002 sec, coll_comm_time = 0.000002 sec
rank 98: Tb = 0.014529 sec, Ta = 0.057948 sec, comp_time = 0.071391 sec,comm_time = 0.000580 sec, neigh_comm_time = 0.000571 sec, ptp_comm_time = 0.000002 sec, coll_comm_time = 0.000002 sec
rank 248: Tb = 0.014539 sec, Ta = 0.057941 sec, comp_time = 0.071390 sec,comm_time = 0.000431 sec, neigh_comm_time = 0.000421 sec, ptp_comm_time = 0.000001 sec, coll_comm_time = 0.000002 sec
rank 400: Tb = 0.014530 sec, Ta = 0.057944 sec, comp_time = 0.071391 sec,comm_time = 0.000512 sec, neigh_comm_time = 0.000502 sec, ptp_comm_time = 0.000002 sec, coll_comm_time = 0.000002 sec
rank 259: Tb = 0.014525 sec, Ta = 0.057952 sec, comp_time = 0.071390 sec,comm_time = 0.000512 sec, neigh_comm_time = 0.000502 sec, ptp_comm_time = 0.000002 sec, coll_comm_time = 0.000002 sec
rank 54: Tb = 0.014543 sec, Ta = 0.057948 sec, comp_time = 0.071390 sec,comm_time = 0.000510 sec, neigh_comm_time = 0.000501 sec, ptp_comm_time = 0.000002 sec, coll_comm_time = 0.000002 sec
rank 350: Tb = 0.014541 sec, Ta = 0.057945 sec, comp_time = 0.071391 sec,comm_time = 0.000580 sec, neigh_comm_time = 0.000570 sec, ptp_comm_time = 0.000002 sec, coll_comm_time = 0.000002 sec
rank 362: Tb = 0.014527 sec, Ta = 0.057946 sec, comp_time = 0.071391 sec,comm_time = 0.000581 sec, neigh_comm_time = 0.000571 sec, ptp_comm_time = 0.000002 sec, coll_comm_time = 0.000002 sec
rank 74: Tb = 0.014534 sec, Ta = 0.057948 sec, comp_time = 0.071391 sec,comm_time = 0.000580 sec, neigh_comm_time = 0.000570 sec, ptp_comm_time = 0.000002 sec, coll_comm_time = 0.000002 sec
rank 314: Tb = 0.014535 sec, Ta = 0.057945 sec, comp_time = 0.071391 sec,comm_time = 0.000508 sec, neigh_comm_time = 0.000499 sec, ptp_comm_time = 0.000002 sec, coll_comm_time = 0.000002 sec
rank 491: Tb = 0.014525 sec, Ta = 0.057943 sec, comp_time = 0.071390 sec,comm_time = 0.000507 sec, neigh_comm_time = 0.000498 sec, ptp_comm_time = 0.000002 sec, coll_comm_time = 0.000002 sec
rank 198: Tb = 0.014540 sec, Ta = 0.057948 sec, comp_time = 0.071391 sec,comm_time = 0.000510 sec, neigh_comm_time = 0.000500 sec, ptp_comm_time = 0.000002 sec, coll_comm_time = 0.000002 sec
rank 332: Tb = 0.014537 sec, Ta = 0.057947 sec, comp_time = 0.071391 sec,comm_time = 0.000581 sec, neigh_comm_time = 0.000571 sec, ptp_comm_time = 0.000002 sec, coll_comm_time = 0.000002 sec
rank 444: Tb = 0.014539 sec, Ta = 0.057942 sec, comp_time = 0.071390 sec,comm_time = 0.000512 sec, neigh_comm_time = 0.000502 sec, ptp_comm_time = 0.000002 sec, coll_comm_time = 0.000002 sec
rank 254: Tb = 0.014539 sec, Ta = 0.057938 sec, comp_time = 0.071390 sec,comm_time = 0.000509 sec, neigh_comm_time = 0.000499 sec, ptp_comm_time = 0.000002 sec, coll_comm_time = 0.000002 sec
rank 213: Tb = 0.014519 sec, Ta = 0.057948 sec, comp_time = 0.071391 sec,comm_time = 0.000577 sec, neigh_comm_time = 0.000568 sec, ptp_comm_time = 0.000002 sec, coll_comm_time = 0.000002 sec
rank 211: Tb = 0.014525 sec, Ta = 0.057948 sec, comp_time = 0.071391 sec,comm_time = 0.000579 sec, neigh_comm_time = 0.000570 sec, ptp_comm_time = 0.000002 sec, coll_comm_time = 0.000002 sec
rank 46: Tb = 0.014535 sec, Ta = 0.057951 sec, comp_time = 0.071391 sec,comm_time = 0.000513 sec, neigh_comm_time = 0.000503 sec, ptp_comm_time = 0.000002 sec, coll_comm_time = 0.000002 sec
rank 481: Tb = 0.014518 sec, Ta = 0.057948 sec, comp_time = 0.071390 sec,comm_time = 0.000510 sec, neigh_comm_time = 0.000500 sec, ptp_comm_time = 0.000001 sec, coll_comm_time = 0.000002 sec
rank 405: Tb = 0.014515 sec, Ta = 0.057951 sec, comp_time = 0.071391 sec,comm_time = 0.000577 sec, neigh_comm_time = 0.000567 sec, ptp_comm_time = 0.000002 sec, coll_comm_time = 0.000002 sec
rank 80: Tb = 0.014525 sec, Ta = 0.057948 sec, comp_time = 0.071391 sec,comm_time = 0.000512 sec, neigh_comm_time = 0.000503 sec, ptp_comm_time = 0.000002 sec, coll_comm_time = 0.000002 sec
rank 294: Tb = 0.014537 sec, Ta = 0.057947 sec, comp_time = 0.071391 sec,comm_time = 0.000580 sec, neigh_comm_time = 0.000570 sec, ptp_comm_time = 0.000002 sec, coll_comm_time = 0.000002 sec
rank 280: Tb = 0.014539 sec, Ta = 0.057947 sec, comp_time = 0.071391 sec,comm_time = 0.000510 sec, neigh_comm_time = 0.000501 sec, ptp_comm_time = 0.000002 sec, coll_comm_time = 0.000002 sec
rank 50: Tb = 0.014538 sec, Ta = 0.057948 sec, comp_time = 0.071391 sec,comm_time = 0.000514 sec, neigh_comm_time = 0.000504 sec, ptp_comm_time = 0.000002 sec, coll_comm_time = 0.000002 sec
rank 77: Tb = 0.014523 sec, Ta = 0.057953 sec, comp_time = 0.071391 sec,comm_time = 0.000578 sec, neigh_comm_time = 0.000569 sec, ptp_comm_time = 0.000001 sec, coll_comm_time = 0.000002 sec
rank 310: Tb = 0.014539 sec, Ta = 0.057945 sec, comp_time = 0.071391 sec,comm_time = 0.000580 sec, neigh_comm_time = 0.000570 sec, ptp_comm_time = 0.000002 sec, coll_comm_time = 0.000002 sec
rank 174: Tb = 0.014534 sec, Ta = 0.057945 sec, comp_time = 0.071391 sec,comm_time = 0.000582 sec, neigh_comm_time = 0.000572 sec, ptp_comm_time = 0.000002 sec, coll_comm_time = 0.000002 sec
rank 192: Tb = 0.014535 sec, Ta = 0.057941 sec, comp_time = 0.071390 sec,comm_time = 0.000431 sec, neigh_comm_time = 0.000422 sec, ptp_comm_time = 0.000002 sec, coll_comm_time = 0.000002 sec
rank 92: Tb = 0.014548 sec, Ta = 0.057947 sec, comp_time = 0.071391 sec,comm_time = 0.000583 sec, neigh_comm_time = 0.000573 sec, ptp_comm_time = 0.000002 sec, coll_comm_time = 0.000002 sec
rank 504: Tb = 0.014542 sec, Ta = 0.057940 sec, comp_time = 0.071390 sec,comm_time = 0.000363 sec, neigh_comm_time = 0.000353 sec, ptp_comm_time = 0.000001 sec, coll_comm_time = 0.000002 sec
rank 428: Tb = 0.014532 sec, Ta = 0.057944 sec, comp_time = 0.071391 sec,comm_time = 0.000577 sec, neigh_comm_time = 0.000567 sec, ptp_comm_time = 0.000002 sec, coll_comm_time = 0.000002 sec
rank 398: Tb = 0.014534 sec, Ta = 0.057944 sec, comp_time = 0.071391 sec,comm_time = 0.000574 sec, neigh_comm_time = 0.000565 sec, ptp_comm_time = 0.000001 sec, coll_comm_time = 0.000001 sec
rank 385: Tb = 0.014522 sec, Ta = 0.057952 sec, comp_time = 0.071390 sec,comm_time = 0.000509 sec, neigh_comm_time = 0.000500 sec, ptp_comm_time = 0.000002 sec, coll_comm_time = 0.000002 sec
rank 109: Tb = 0.014526 sec, Ta = 0.057952 sec, comp_time = 0.071391 sec,comm_time = 0.000581 sec, neigh_comm_time = 0.000572 sec, ptp_comm_time = 0.000002 sec, coll_comm_time = 0.000002 sec
rank 184: Tb = 0.014539 sec, Ta = 0.057943 sec, comp_time = 0.071390 sec,comm_time = 0.000432 sec, neigh_comm_time = 0.000423 sec, ptp_comm_time = 0.000002 sec, coll_comm_time = 0.000002 sec
rank 465: Tb = 0.014519 sec, Ta = 0.057948 sec, comp_time = 0.071391 sec,comm_time = 0.000506 sec, neigh_comm_time = 0.000496 sec, ptp_comm_time = 0.000002 sec, coll_comm_time = 0.000002 sec
rank 256: Tb = 0.014536 sec, Ta = 0.057939 sec, comp_time = 0.071390 sec,comm_time = 0.000430 sec, neigh_comm_time = 0.000420 sec, ptp_comm_time = 0.000001 sec, coll_comm_time = 0.000002 sec
rank 117: Tb = 0.014519 sec, Ta = 0.057949 sec, comp_time = 0.071391 sec,comm_time = 0.000579 sec, neigh_comm_time = 0.000569 sec, ptp_comm_time = 0.000002 sec, coll_comm_time = 0.000002 sec
rank 287: Tb = 0.014532 sec, Ta = 0.057950 sec, comp_time = 0.071391 sec,comm_time = 0.000508 sec, neigh_comm_time = 0.000499 sec, ptp_comm_time = 0.000002 sec, coll_comm_time = 0.000002 sec
rank 361: Tb = 0.014523 sec, Ta = 0.057949 sec, comp_time = 0.071391 sec,comm_time = 0.000577 sec, neigh_comm_time = 0.000568 sec, ptp_comm_time = 0.000002 sec, coll_comm_time = 0.000002 sec
rank 67: Tb = 0.014532 sec, Ta = 0.057953 sec, comp_time = 0.071390 sec,comm_time = 0.000512 sec, neigh_comm_time = 0.000502 sec, ptp_comm_time = 0.000002 sec, coll_comm_time = 0.000002 sec
rank 312: Tb = 0.014539 sec, Ta = 0.057945 sec, comp_time = 0.071391 sec,comm_time = 0.000429 sec, neigh_comm_time = 0.000420 sec, ptp_comm_time = 0.000001 sec, coll_comm_time = 0.000002 sec
rank 233: Tb = 0.014522 sec, Ta = 0.057946 sec, comp_time = 0.071391 sec,comm_time = 0.000577 sec, neigh_comm_time = 0.000567 sec, ptp_comm_time = 0.000001 sec, coll_comm_time = 0.000002 sec
rank 199: Tb = 0.014533 sec, Ta = 0.057953 sec, comp_time = 0.071390 sec,comm_time = 0.000433 sec, neigh_comm_time = 0.000423 sec, ptp_comm_time = 0.000001 sec, coll_comm_time = 0.000002 sec
rank 87: Tb = 0.014535 sec, Ta = 0.057953 sec, comp_time = 0.071391 sec,comm_time = 0.000510 sec, neigh_comm_time = 0.000500 sec, ptp_comm_time = 0.000002 sec, coll_comm_time = 0.000002 sec
rank 446: Tb = 0.014539 sec, Ta = 0.057939 sec, comp_time = 0.071390 sec,comm_time = 0.000505 sec, neigh_comm_time = 0.000495 sec, ptp_comm_time = 0.000002 sec, coll_comm_time = 0.000002 sec
rank 501: Tb = 0.014524 sec, Ta = 0.057943 sec, comp_time = 0.071390 sec,comm_time = 0.000508 sec, neigh_comm_time = 0.000498 sec, ptp_comm_time = 0.000002 sec, coll_comm_time = 0.000002 sec
rank 159: Tb = 0.014535 sec, Ta = 0.057948 sec, comp_time = 0.071390 sec,comm_time = 0.000514 sec, neigh_comm_time = 0.000504 sec, ptp_comm_time = 0.000002 sec, coll_comm_time = 0.000002 sec
rank 208: Tb = 0.014534 sec, Ta = 0.057944 sec, comp_time = 0.071391 sec,comm_time = 0.000510 sec, neigh_comm_time = 0.000500 sec, ptp_comm_time = 0.000002 sec, coll_comm_time = 0.000002 sec
rank 42: Tb = 0.014530 sec, Ta = 0.057949 sec, comp_time = 0.071390 sec,comm_time = 0.000512 sec, neigh_comm_time = 0.000503 sec, ptp_comm_time = 0.000002 sec, coll_comm_time = 0.000002 sec
rank 424: Tb = 0.014532 sec, Ta = 0.057944 sec, comp_time = 0.071391 sec,comm_time = 0.000508 sec, neigh_comm_time = 0.000498 sec, ptp_comm_time = 0.000002 sec, coll_comm_time = 0.000002 sec
rank 407: Tb = 0.014529 sec, Ta = 0.057952 sec, comp_time = 0.071391 sec,comm_time = 0.000510 sec, neigh_comm_time = 0.000500 sec, ptp_comm_time = 0.000002 sec, coll_comm_time = 0.000002 sec
rank 25: Tb = 0.014526 sec, Ta = 0.057953 sec, comp_time = 0.071391 sec,comm_time = 0.000512 sec, neigh_comm_time = 0.000503 sec, ptp_comm_time = 0.000002 sec, coll_comm_time = 0.000002 sec
rank 367: Tb = 0.014532 sec, Ta = 0.057948 sec, comp_time = 0.071391 sec,comm_time = 0.000515 sec, neigh_comm_time = 0.000505 sec, ptp_comm_time = 0.000002 sec, coll_comm_time = 0.000002 sec
rank 283: Tb = 0.014524 sec, Ta = 0.057950 sec, comp_time = 0.071391 sec,comm_time = 0.000576 sec, neigh_comm_time = 0.000567 sec, ptp_comm_time = 0.000001 sec, coll_comm_time = 0.000002 sec
rank 123: Tb = 0.014522 sec, Ta = 0.057945 sec, comp_time = 0.071391 sec,comm_time = 0.000512 sec, neigh_comm_time = 0.000502 sec, ptp_comm_time = 0.000002 sec, coll_comm_time = 0.000002 sec
rank 13: Tb = 0.014525 sec, Ta = 0.057955 sec, comp_time = 0.071390 sec,comm_time = 0.000514 sec, neigh_comm_time = 0.000504 sec, ptp_comm_time = 0.000002 sec, coll_comm_time = 0.000002 sec
rank 318: Tb = 0.014539 sec, Ta = 0.057942 sec, comp_time = 0.071390 sec,comm_time = 0.000508 sec, neigh_comm_time = 0.000499 sec, ptp_comm_time = 0.000001 sec, coll_comm_time = 0.000002 sec
rank 175: Tb = 0.014531 sec, Ta = 0.057949 sec, comp_time = 0.071390 sec,comm_time = 0.000510 sec, neigh_comm_time = 0.000500 sec, ptp_comm_time = 0.000002 sec, coll_comm_time = 0.000002 sec
rank 131: Tb = 0.014527 sec, Ta = 0.057951 sec, comp_time = 0.071391 sec,comm_time = 0.000514 sec, neigh_comm_time = 0.000505 sec, ptp_comm_time = 0.000002 sec, coll_comm_time = 0.000002 sec
rank 333: Tb = 0.014520 sec, Ta = 0.057947 sec, comp_time = 0.071391 sec,comm_time = 0.000577 sec, neigh_comm_time = 0.000567 sec, ptp_comm_time = 0.000001 sec, coll_comm_time = 0.000002 sec
rank 433: Tb = 0.014525 sec, Ta = 0.057949 sec, comp_time = 0.071391 sec,comm_time = 0.000576 sec, neigh_comm_time = 0.000566 sec, ptp_comm_time = 0.000002 sec, coll_comm_time = 0.000002 sec
rank 431: Tb = 0.014529 sec, Ta = 0.057946 sec, comp_time = 0.071391 sec,comm_time = 0.000509 sec, neigh_comm_time = 0.000499 sec, ptp_comm_time = 0.000002 sec, coll_comm_time = 0.000002 sec
rank 454: Tb = 0.014540 sec, Ta = 0.057946 sec, comp_time = 0.071390 sec,comm_time = 0.000428 sec, neigh_comm_time = 0.000418 sec, ptp_comm_time = 0.000001 sec, coll_comm_time = 0.000002 sec
rank 450: Tb = 0.014535 sec, Ta = 0.057947 sec, comp_time = 0.071390 sec,comm_time = 0.000430 sec, neigh_comm_time = 0.000421 sec, ptp_comm_time = 0.000001 sec, coll_comm_time = 0.000002 sec
rank 100: Tb = 0.014545 sec, Ta = 0.057953 sec, comp_time = 0.071391 sec,comm_time = 0.000584 sec, neigh_comm_time = 0.000574 sec, ptp_comm_time = 0.000002 sec, coll_comm_time = 0.000002 sec
rank 251: Tb = 0.014528 sec, Ta = 0.057943 sec, comp_time = 0.071390 sec,comm_time = 0.000513 sec, neigh_comm_time = 0.000503 sec, ptp_comm_time = 0.000002 sec, coll_comm_time = 0.000002 sec
rank 464: Tb = 0.014535 sec, Ta = 0.057942 sec, comp_time = 0.071391 sec,comm_time = 0.000434 sec, neigh_comm_time = 0.000424 sec, ptp_comm_time = 0.000001 sec, coll_comm_time = 0.000002 sec
rank 323: Tb = 0.014528 sec, Ta = 0.057951 sec, comp_time = 0.071391 sec,comm_time = 0.000512 sec, neigh_comm_time = 0.000502 sec, ptp_comm_time = 0.000002 sec, coll_comm_time = 0.000002 sec
rank 62: Tb = 0.014541 sec, Ta = 0.057944 sec, comp_time = 0.071390 sec,comm_time = 0.000430 sec, neigh_comm_time = 0.000421 sec, ptp_comm_time = 0.000002 sec, coll_comm_time = 0.000002 sec
rank 348: Tb = 0.014540 sec, Ta = 0.057949 sec, comp_time = 0.071391 sec,comm_time = 0.000582 sec, neigh_comm_time = 0.000573 sec, ptp_comm_time = 0.000002 sec, coll_comm_time = 0.000002 sec
rank 352: Tb = 0.014535 sec, Ta = 0.057944 sec, comp_time = 0.071391 sec,comm_time = 0.000513 sec, neigh_comm_time = 0.000504 sec, ptp_comm_time = 0.000002 sec, coll_comm_time = 0.000002 sec
rank 66: Tb = 0.014537 sec, Ta = 0.057952 sec, comp_time = 0.071390 sec,comm_time = 0.000512 sec, neigh_comm_time = 0.000502 sec, ptp_comm_time = 0.000002 sec, coll_comm_time = 0.000002 sec
rank 305: Tb = 0.014523 sec, Ta = 0.057951 sec, comp_time = 0.071391 sec,comm_time = 0.000574 sec, neigh_comm_time = 0.000564 sec, ptp_comm_time = 0.000002 sec, coll_comm_time = 0.000002 sec
rank 235: Tb = 0.014523 sec, Ta = 0.057944 sec, comp_time = 0.071391 sec,comm_time = 0.000576 sec, neigh_comm_time = 0.000566 sec, ptp_comm_time = 0.000002 sec, coll_comm_time = 0.000002 sec
rank 461: Tb = 0.014525 sec, Ta = 0.057946 sec, comp_time = 0.071391 sec,comm_time = 0.000508 sec, neigh_comm_time = 0.000499 sec, ptp_comm_time = 0.000002 sec, coll_comm_time = 0.000002 sec
rank 28: Tb = 0.014549 sec, Ta = 0.057951 sec, comp_time = 0.071391 sec,comm_time = 0.000513 sec, neigh_comm_time = 0.000504 sec, ptp_comm_time = 0.000002 sec, coll_comm_time = 0.000002 sec
rank 438: Tb = 0.014538 sec, Ta = 0.057943 sec, comp_time = 0.071390 sec,comm_time = 0.000579 sec, neigh_comm_time = 0.000569 sec, ptp_comm_time = 0.000002 sec, coll_comm_time = 0.000002 sec
rank 245: Tb = 0.014522 sec, Ta = 0.057944 sec, comp_time = 0.071391 sec,comm_time = 0.000574 sec, neigh_comm_time = 0.000564 sec, ptp_comm_time = 0.000002 sec, coll_comm_time = 0.000002 sec
rank 223: Tb = 0.014530 sec, Ta = 0.057949 sec, comp_time = 0.071391 sec,comm_time = 0.000508 sec, neigh_comm_time = 0.000498 sec, ptp_comm_time = 0.000002 sec, coll_comm_time = 0.000002 sec
rank 144: Tb = 0.014531 sec, Ta = 0.057946 sec, comp_time = 0.071391 sec,comm_time = 0.000511 sec, neigh_comm_time = 0.000501 sec, ptp_comm_time = 0.000002 sec, coll_comm_time = 0.000002 sec
rank 106: Tb = 0.014528 sec, Ta = 0.057948 sec, comp_time = 0.071391 sec,comm_time = 0.000581 sec, neigh_comm_time = 0.000571 sec, ptp_comm_time = 0.000002 sec, coll_comm_time = 0.000002 sec
rank 418: Tb = 0.014528 sec, Ta = 0.057946 sec, comp_time = 0.071391 sec,comm_time = 0.000575 sec, neigh_comm_time = 0.000566 sec, ptp_comm_time = 0.000002 sec, coll_comm_time = 0.000002 sec
rank 470: Tb = 0.014538 sec, Ta = 0.057947 sec, comp_time = 0.071390 sec,comm_time = 0.000508 sec, neigh_comm_time = 0.000499 sec, ptp_comm_time = 0.000002 sec, coll_comm_time = 0.000002 sec
rank 83: Tb = 0.014521 sec, Ta = 0.057952 sec, comp_time = 0.071391 sec,comm_time = 0.000580 sec, neigh_comm_time = 0.000570 sec, ptp_comm_time = 0.000002 sec, coll_comm_time = 0.000002 sec
rank 358: Tb = 0.014541 sec, Ta = 0.057948 sec, comp_time = 0.071391 sec,comm_time = 0.000583 sec, neigh_comm_time = 0.000573 sec, ptp_comm_time = 0.000002 sec, coll_comm_time = 0.000002 sec
rank 281: Tb = 0.014526 sec, Ta = 0.057951 sec, comp_time = 0.071391 sec,comm_time = 0.000579 sec, neigh_comm_time = 0.000569 sec, ptp_comm_time = 0.000002 sec, coll_comm_time = 0.000002 sec
rank 51: Tb = 0.014530 sec, Ta = 0.057950 sec, comp_time = 0.071390 sec,comm_time = 0.000511 sec, neigh_comm_time = 0.000501 sec, ptp_comm_time = 0.000002 sec, coll_comm_time = 0.000002 sec
rank 71: Tb = 0.014534 sec, Ta = 0.057955 sec, comp_time = 0.071390 sec,comm_time = 0.000431 sec, neigh_comm_time = 0.000421 sec, ptp_comm_time = 0.000002 sec, coll_comm_time = 0.000002 sec
rank 383: Tb = 0.014528 sec, Ta = 0.057946 sec, comp_time = 0.071390 sec,comm_time = 0.000433 sec, neigh_comm_time = 0.000423 sec, ptp_comm_time = 0.000001 sec, coll_comm_time = 0.000002 sec
rank 173: Tb = 0.014521 sec, Ta = 0.057950 sec, comp_time = 0.071391 sec,comm_time = 0.000580 sec, neigh_comm_time = 0.000570 sec, ptp_comm_time = 0.000002 sec, coll_comm_time = 0.000002 sec
rank 200: Tb = 0.014536 sec, Ta = 0.057947 sec, comp_time = 0.071391 sec,comm_time = 0.000510 sec, neigh_comm_time = 0.000501 sec, ptp_comm_time = 0.000001 sec, coll_comm_time = 0.000002 sec
rank 271: Tb = 0.014531 sec, Ta = 0.057951 sec, comp_time = 0.071391 sec,comm_time = 0.000509 sec, neigh_comm_time = 0.000499 sec, ptp_comm_time = 0.000001 sec, coll_comm_time = 0.000002 sec
rank 506: Tb = 0.014537 sec, Ta = 0.057942 sec, comp_time = 0.071390 sec,comm_time = 0.000428 sec, neigh_comm_time = 0.000418 sec, ptp_comm_time = 0.000002 sec, coll_comm_time = 0.000002 sec
rank 430: Tb = 0.014534 sec, Ta = 0.057943 sec, comp_time = 0.071390 sec,comm_time = 0.000578 sec, neigh_comm_time = 0.000568 sec, ptp_comm_time = 0.000002 sec, coll_comm_time = 0.000002 sec
rank 391: Tb = 0.014538 sec, Ta = 0.057952 sec, comp_time = 0.071390 sec,comm_time = 0.000431 sec, neigh_comm_time = 0.000421 sec, ptp_comm_time = 0.000002 sec, coll_comm_time = 0.000002 sec
rank 456: Tb = 0.014535 sec, Ta = 0.057946 sec, comp_time = 0.071390 sec,comm_time = 0.000430 sec, neigh_comm_time = 0.000421 sec, ptp_comm_time = 0.000001 sec, coll_comm_time = 0.000002 sec
rank 40: Tb = 0.014530 sec, Ta = 0.057949 sec, comp_time = 0.071390 sec,comm_time = 0.000431 sec, neigh_comm_time = 0.000421 sec, ptp_comm_time = 0.000001 sec, coll_comm_time = 0.000002 sec
rank 186: Tb = 0.014535 sec, Ta = 0.057943 sec, comp_time = 0.071391 sec,comm_time = 0.000515 sec, neigh_comm_time = 0.000505 sec, ptp_comm_time = 0.000002 sec, coll_comm_time = 0.000002 sec
rank 401: Tb = 0.014521 sec, Ta = 0.057951 sec, comp_time = 0.071391 sec,comm_time = 0.000576 sec, neigh_comm_time = 0.000566 sec, ptp_comm_time = 0.000002 sec, coll_comm_time = 0.000002 sec
rank 321: Tb = 0.014526 sec, Ta = 0.057953 sec, comp_time = 0.071391 sec,comm_time = 0.000509 sec, neigh_comm_time = 0.000499 sec, ptp_comm_time = 0.000002 sec, coll_comm_time = 0.000002 sec
rank 127: Tb = 0.014531 sec, Ta = 0.057948 sec, comp_time = 0.071391 sec,comm_time = 0.000430 sec, neigh_comm_time = 0.000420 sec, ptp_comm_time = 0.000001 sec, coll_comm_time = 0.000002 sec
rank 285: Tb = 0.014522 sec, Ta = 0.057950 sec, comp_time = 0.071391 sec,comm_time = 0.000579 sec, neigh_comm_time = 0.000569 sec, ptp_comm_time = 0.000002 sec, coll_comm_time = 0.000002 sec
rank 288: Tb = 0.014532 sec, Ta = 0.057946 sec, comp_time = 0.071390 sec,comm_time = 0.000509 sec, neigh_comm_time = 0.000500 sec, ptp_comm_time = 0.000001 sec, coll_comm_time = 0.000002 sec
rank 65: Tb = 0.014526 sec, Ta = 0.057954 sec, comp_time = 0.071390 sec,comm_time = 0.000511 sec, neigh_comm_time = 0.000501 sec, ptp_comm_time = 0.000002 sec, coll_comm_time = 0.000002 sec
rank 369: Tb = 0.014522 sec, Ta = 0.057949 sec, comp_time = 0.071390 sec,comm_time = 0.000578 sec, neigh_comm_time = 0.000568 sec, ptp_comm_time = 0.000002 sec, coll_comm_time = 0.000002 sec
rank 168: Tb = 0.014532 sec, Ta = 0.057945 sec, comp_time = 0.071390 sec,comm_time = 0.000511 sec, neigh_comm_time = 0.000501 sec, ptp_comm_time = 0.000002 sec, coll_comm_time = 0.000002 sec
rank 141: Tb = 0.014526 sec, Ta = 0.057953 sec, comp_time = 0.071391 sec,comm_time = 0.000579 sec, neigh_comm_time = 0.000570 sec, ptp_comm_time = 0.000001 sec, coll_comm_time = 0.000002 sec
rank 20: Tb = 0.014540 sec, Ta = 0.057952 sec, comp_time = 0.071391 sec,comm_time = 0.000513 sec, neigh_comm_time = 0.000504 sec, ptp_comm_time = 0.000002 sec, coll_comm_time = 0.000002 sec
rank 442: Tb = 0.014533 sec, Ta = 0.057945 sec, comp_time = 0.071390 sec,comm_time = 0.000508 sec, neigh_comm_time = 0.000497 sec, ptp_comm_time = 0.000002 sec, coll_comm_time = 0.000002 sec
rank 189: Tb = 0.014524 sec, Ta = 0.057946 sec, comp_time = 0.071391 sec,comm_time = 0.000510 sec, neigh_comm_time = 0.000500 sec, ptp_comm_time = 0.000002 sec, coll_comm_time = 0.000002 sec
rank 151: Tb = 0.014536 sec, Ta = 0.057954 sec, comp_time = 0.071391 sec,comm_time = 0.000514 sec, neigh_comm_time = 0.000505 sec, ptp_comm_time = 0.000002 sec, coll_comm_time = 0.000002 sec
rank 217: Tb = 0.014526 sec, Ta = 0.057947 sec, comp_time = 0.071391 sec,comm_time = 0.000576 sec, neigh_comm_time = 0.000567 sec, ptp_comm_time = 0.000001 sec, coll_comm_time = 0.000002 sec
rank 36: Tb = 0.014545 sec, Ta = 0.057954 sec, comp_time = 0.071391 sec,comm_time = 0.000515 sec, neigh_comm_time = 0.000505 sec, ptp_comm_time = 0.000002 sec, coll_comm_time = 0.000002 sec
rank 490: Tb = 0.014529 sec, Ta = 0.057943 sec, comp_time = 0.071390 sec,comm_time = 0.000510 sec, neigh_comm_time = 0.000501 sec, ptp_comm_time = 0.000001 sec, coll_comm_time = 0.000002 sec
rank 479: Tb = 0.014528 sec, Ta = 0.057949 sec, comp_time = 0.071390 sec,comm_time = 0.000430 sec, neigh_comm_time = 0.000422 sec, ptp_comm_time = 0.000001 sec, coll_comm_time = 0.000001 sec
rank 24: Tb = 0.014538 sec, Ta = 0.057950 sec, comp_time = 0.071390 sec,comm_time = 0.000433 sec, neigh_comm_time = 0.000423 sec, ptp_comm_time = 0.000001 sec, coll_comm_time = 0.000002 sec
rank 302: Tb = 0.014534 sec, Ta = 0.057947 sec, comp_time = 0.071391 sec,comm_time = 0.000579 sec, neigh_comm_time = 0.000570 sec, ptp_comm_time = 0.000002 sec, coll_comm_time = 0.000002 sec
rank 272: Tb = 0.014529 sec, Ta = 0.057947 sec, comp_time = 0.071391 sec,comm_time = 0.000511 sec, neigh_comm_time = 0.000501 sec, ptp_comm_time = 0.000001 sec, coll_comm_time = 0.000002 sec
rank 49: Tb = 0.014525 sec, Ta = 0.057952 sec, comp_time = 0.071390 sec,comm_time = 0.000510 sec, neigh_comm_time = 0.000500 sec, ptp_comm_time = 0.000002 sec, coll_comm_time = 0.000002 sec
rank 12: Tb = 0.014539 sec, Ta = 0.057954 sec, comp_time = 0.071390 sec,comm_time = 0.000512 sec, neigh_comm_time = 0.000503 sec, ptp_comm_time = 0.000002 sec, coll_comm_time = 0.000002 sec
rank 319: Tb = 0.014535 sec, Ta = 0.057949 sec, comp_time = 0.071391 sec,comm_time = 0.000427 sec, neigh_comm_time = 0.000418 sec, ptp_comm_time = 0.000001 sec, coll_comm_time = 0.000002 sec
rank 238: Tb = 0.014536 sec, Ta = 0.057945 sec, comp_time = 0.071391 sec,comm_time = 0.000576 sec, neigh_comm_time = 0.000567 sec, ptp_comm_time = 0.000002 sec, coll_comm_time = 0.000002 sec
rank 137: Tb = 0.014531 sec, Ta = 0.057951 sec, comp_time = 0.071391 sec,comm_time = 0.000578 sec, neigh_comm_time = 0.000569 sec, ptp_comm_time = 0.000002 sec, coll_comm_time = 0.000002 sec
rank 269: Tb = 0.014521 sec, Ta = 0.057949 sec, comp_time = 0.071391 sec,comm_time = 0.000579 sec, neigh_comm_time = 0.000570 sec, ptp_comm_time = 0.000001 sec, coll_comm_time = 0.000002 sec
rank 447: Tb = 0.014533 sec, Ta = 0.057946 sec, comp_time = 0.071390 sec,comm_time = 0.000429 sec, neigh_comm_time = 0.000419 sec, ptp_comm_time = 0.000002 sec, coll_comm_time = 0.000002 sec
rank 495: Tb = 0.014531 sec, Ta = 0.057947 sec, comp_time = 0.071390 sec,comm_time = 0.000428 sec, neigh_comm_time = 0.000418 sec, ptp_comm_time = 0.000001 sec, coll_comm_time = 0.000002 sec
rank 463: Tb = 0.014532 sec, Ta = 0.057946 sec, comp_time = 0.071390 sec,comm_time = 0.000427 sec, neigh_comm_time = 0.000417 sec, ptp_comm_time = 0.000001 sec, coll_comm_time = 0.000002 sec
rank 451: Tb = 0.014524 sec, Ta = 0.057950 sec, comp_time = 0.071390 sec,comm_time = 0.000429 sec, neigh_comm_time = 0.000419 sec, ptp_comm_time = 0.000001 sec, coll_comm_time = 0.000002 sec
rank 107: Tb = 0.014521 sec, Ta = 0.057949 sec, comp_time = 0.071391 sec,comm_time = 0.000581 sec, neigh_comm_time = 0.000571 sec, ptp_comm_time = 0.000002 sec, coll_comm_time = 0.000002 sec
rank 249: Tb = 0.014523 sec, Ta = 0.057944 sec, comp_time = 0.071390 sec,comm_time = 0.000516 sec, neigh_comm_time = 0.000506 sec, ptp_comm_time = 0.000002 sec, coll_comm_time = 0.000002 sec
rank 411: Tb = 0.014528 sec, Ta = 0.057949 sec, comp_time = 0.071391 sec,comm_time = 0.000576 sec, neigh_comm_time = 0.000566 sec, ptp_comm_time = 0.000001 sec, coll_comm_time = 0.000002 sec
rank 328: Tb = 0.014538 sec, Ta = 0.057948 sec, comp_time = 0.071391 sec,comm_time = 0.000513 sec, neigh_comm_time = 0.000503 sec, ptp_comm_time = 0.000002 sec, coll_comm_time = 0.000002 sec
rank 63: Tb = 0.014536 sec, Ta = 0.057949 sec, comp_time = 0.071390 sec,comm_time = 0.000360 sec, neigh_comm_time = 0.000350 sec, ptp_comm_time = 0.000001 sec, coll_comm_time = 0.000002 sec
rank 351: Tb = 0.014527 sec, Ta = 0.057951 sec, comp_time = 0.071390 sec,comm_time = 0.000514 sec, neigh_comm_time = 0.000504 sec, ptp_comm_time = 0.000002 sec, coll_comm_time = 0.000002 sec
rank 296: Tb = 0.014533 sec, Ta = 0.057948 sec, comp_time = 0.071390 sec,comm_time = 0.000505 sec, neigh_comm_time = 0.000496 sec, ptp_comm_time = 0.000001 sec, coll_comm_time = 0.000002 sec
rank 64: Tb = 0.014536 sec, Ta = 0.057946 sec, comp_time = 0.071390 sec,comm_time = 0.000432 sec, neigh_comm_time = 0.000422 sec, ptp_comm_time = 0.000002 sec, coll_comm_time = 0.000002 sec
rank 304: Tb = 0.014530 sec, Ta = 0.057947 sec, comp_time = 0.071391 sec,comm_time = 0.000508 sec, neigh_comm_time = 0.000498 sec, ptp_comm_time = 0.000001 sec, coll_comm_time = 0.000002 sec
rank 170: Tb = 0.014533 sec, Ta = 0.057947 sec, comp_time = 0.071391 sec,comm_time = 0.000581 sec, neigh_comm_time = 0.000571 sec, ptp_comm_time = 0.000002 sec, coll_comm_time = 0.000002 sec
rank 135: Tb = 0.014539 sec, Ta = 0.057955 sec, comp_time = 0.071391 sec,comm_time = 0.000432 sec, neigh_comm_time = 0.000422 sec, ptp_comm_time = 0.000002 sec, coll_comm_time = 0.000002 sec
rank 84: Tb = 0.014536 sec, Ta = 0.057950 sec, comp_time = 0.071391 sec,comm_time = 0.000584 sec, neigh_comm_time = 0.000574 sec, ptp_comm_time = 0.000002 sec, coll_comm_time = 0.000002 sec
rank 432: Tb = 0.014530 sec, Ta = 0.057943 sec, comp_time = 0.071390 sec,comm_time = 0.000507 sec, neigh_comm_time = 0.000497 sec, ptp_comm_time = 0.000002 sec, coll_comm_time = 0.000002 sec
rank 492: Tb = 0.014531 sec, Ta = 0.057946 sec, comp_time = 0.071390 sec,comm_time = 0.000512 sec, neigh_comm_time = 0.000503 sec, ptp_comm_time = 0.000002 sec, coll_comm_time = 0.000002 sec
rank 221: Tb = 0.014520 sec, Ta = 0.057948 sec, comp_time = 0.071391 sec,comm_time = 0.000581 sec, neigh_comm_time = 0.000571 sec, ptp_comm_time = 0.000001 sec, coll_comm_time = 0.000002 sec
rank 153: Tb = 0.014525 sec, Ta = 0.057952 sec, comp_time = 0.071391 sec,comm_time = 0.000579 sec, neigh_comm_time = 0.000569 sec, ptp_comm_time = 0.000002 sec, coll_comm_time = 0.000002 sec
rank 110: Tb = 0.014537 sec, Ta = 0.057951 sec, comp_time = 0.071391 sec,comm_time = 0.000581 sec, neigh_comm_time = 0.000571 sec, ptp_comm_time = 0.000002 sec, coll_comm_time = 0.000002 sec
rank 480: Tb = 0.014536 sec, Ta = 0.057940 sec, comp_time = 0.071390 sec,comm_time = 0.000433 sec, neigh_comm_time = 0.000423 sec, ptp_comm_time = 0.000001 sec, coll_comm_time = 0.000002 sec
rank 415: Tb = 0.014531 sec, Ta = 0.057951 sec, comp_time = 0.071390 sec,comm_time = 0.000508 sec, neigh_comm_time = 0.000499 sec, ptp_comm_time = 0.000002 sec, coll_comm_time = 0.000002 sec
rank 88: Tb = 0.014538 sec, Ta = 0.057949 sec, comp_time = 0.071391 sec,comm_time = 0.000512 sec, neigh_comm_time = 0.000503 sec, ptp_comm_time = 0.000002 sec, coll_comm_time = 0.000002 sec
rank 37: Tb = 0.014525 sec, Ta = 0.057955 sec, comp_time = 0.071390 sec,comm_time = 0.000515 sec, neigh_comm_time = 0.000506 sec, ptp_comm_time = 0.000001 sec, coll_comm_time = 0.000002 sec
rank 345: Tb = 0.014527 sec, Ta = 0.057950 sec, comp_time = 0.071391 sec,comm_time = 0.000579 sec, neigh_comm_time = 0.000569 sec, ptp_comm_time = 0.000002 sec, coll_comm_time = 0.000002 sec
rank 58: Tb = 0.014538 sec, Ta = 0.057948 sec, comp_time = 0.071390 sec,comm_time = 0.000433 sec, neigh_comm_time = 0.000423 sec, ptp_comm_time = 0.000002 sec, coll_comm_time = 0.000002 sec
rank 78: Tb = 0.014539 sec, Ta = 0.057951 sec, comp_time = 0.071391 sec,comm_time = 0.000582 sec, neigh_comm_time = 0.000573 sec, ptp_comm_time = 0.000001 sec, coll_comm_time = 0.000002 sec
rank 381: Tb = 0.014519 sec, Ta = 0.057947 sec, comp_time = 0.071390 sec,comm_time = 0.000511 sec, neigh_comm_time = 0.000501 sec, ptp_comm_time = 0.000002 sec, coll_comm_time = 0.000002 sec
rank 239: Tb = 0.014531 sec, Ta = 0.057949 sec, comp_time = 0.071391 sec,comm_time = 0.000507 sec, neigh_comm_time = 0.000497 sec, ptp_comm_time = 0.000002 sec, coll_comm_time = 0.000002 sec
rank 202: Tb = 0.014535 sec, Ta = 0.057947 sec, comp_time = 0.071391 sec,comm_time = 0.000576 sec, neigh_comm_time = 0.000567 sec, ptp_comm_time = 0.000002 sec, coll_comm_time = 0.000002 sec
rank 335: Tb = 0.014528 sec, Ta = 0.057948 sec, comp_time = 0.071391 sec,comm_time = 0.000511 sec, neigh_comm_time = 0.000501 sec, ptp_comm_time = 0.000002 sec, coll_comm_time = 0.000002 sec
rank 511: Tb = 0.014529 sec, Ta = 0.057946 sec, comp_time = 0.071390 sec,comm_time = 0.000362 sec, neigh_comm_time = 0.000352 sec, ptp_comm_time = 0.000002 sec, coll_comm_time = 0.000002 sec
rank 191: Tb = 0.014535 sec, Ta = 0.057947 sec, comp_time = 0.071390 sec,comm_time = 0.000432 sec, neigh_comm_time = 0.000422 sec, ptp_comm_time = 0.000002 sec, coll_comm_time = 0.000002 sec
rank 455: Tb = 0.014533 sec, Ta = 0.057951 sec, comp_time = 0.071390 sec,comm_time = 0.000363 sec, neigh_comm_time = 0.000354 sec, ptp_comm_time = 0.000001 sec, coll_comm_time = 0.000002 sec
rank 457: Tb = 0.014527 sec, Ta = 0.057950 sec, comp_time = 0.071390 sec,comm_time = 0.000506 sec, neigh_comm_time = 0.000497 sec, ptp_comm_time = 0.000002 sec, coll_comm_time = 0.000002 sec
rank 105: Tb = 0.014525 sec, Ta = 0.057952 sec, comp_time = 0.071391 sec,comm_time = 0.000577 sec, neigh_comm_time = 0.000567 sec, ptp_comm_time = 0.000002 sec, coll_comm_time = 0.000002 sec
rank 240: Tb = 0.014533 sec, Ta = 0.057944 sec, comp_time = 0.071390 sec,comm_time = 0.000510 sec, neigh_comm_time = 0.000500 sec, ptp_comm_time = 0.000001 sec, coll_comm_time = 0.000002 sec
rank 409: Tb = 0.014525 sec, Ta = 0.057952 sec, comp_time = 0.071391 sec,comm_time = 0.000576 sec, neigh_comm_time = 0.000566 sec, ptp_comm_time = 0.000002 sec, coll_comm_time = 0.000002 sec
rank 320: Tb = 0.014537 sec, Ta = 0.057943 sec, comp_time = 0.071391 sec,comm_time = 0.000429 sec, neigh_comm_time = 0.000420 sec, ptp_comm_time = 0.000002 sec, coll_comm_time = 0.000002 sec
rank 60: Tb = 0.014547 sec, Ta = 0.057949 sec, comp_time = 0.071390 sec,comm_time = 0.000432 sec, neigh_comm_time = 0.000423 sec, ptp_comm_time = 0.000002 sec, coll_comm_time = 0.000002 sec
rank 349: Tb = 0.014518 sec, Ta = 0.057951 sec, comp_time = 0.071391 sec,comm_time = 0.000581 sec, neigh_comm_time = 0.000571 sec, ptp_comm_time = 0.000002 sec, coll_comm_time = 0.000002 sec
rank 360: Tb = 0.014535 sec, Ta = 0.057949 sec, comp_time = 0.071390 sec,comm_time = 0.000509 sec, neigh_comm_time = 0.000500 sec, ptp_comm_time = 0.000002 sec, coll_comm_time = 0.000002 sec
rank 75: Tb = 0.014525 sec, Ta = 0.057954 sec, comp_time = 0.071391 sec,comm_time = 0.000578 sec, neigh_comm_time = 0.000569 sec, ptp_comm_time = 0.000002 sec, coll_comm_time = 0.000002 sec
rank 368: Tb = 0.014532 sec, Ta = 0.057946 sec, comp_time = 0.071391 sec,comm_time = 0.000514 sec, neigh_comm_time = 0.000504 sec, ptp_comm_time = 0.000001 sec, coll_comm_time = 0.000002 sec
rank 232: Tb = 0.014536 sec, Ta = 0.057946 sec, comp_time = 0.071390 sec,comm_time = 0.000507 sec, neigh_comm_time = 0.000498 sec, ptp_comm_time = 0.000002 sec, coll_comm_time = 0.000002 sec
rank 133: Tb = 0.014525 sec, Ta = 0.057956 sec, comp_time = 0.071391 sec,comm_time = 0.000512 sec, neigh_comm_time = 0.000502 sec, ptp_comm_time = 0.000002 sec, coll_comm_time = 0.000002 sec
rank 85: Tb = 0.014515 sec, Ta = 0.057954 sec, comp_time = 0.071392 sec,comm_time = 0.000580 sec, neigh_comm_time = 0.000570 sec, ptp_comm_time = 0.000002 sec, coll_comm_time = 0.000002 sec
rank 497: Tb = 0.014523 sec, Ta = 0.057949 sec, comp_time = 0.071390 sec,comm_time = 0.000508 sec, neigh_comm_time = 0.000499 sec, ptp_comm_time = 0.000002 sec, coll_comm_time = 0.000002 sec
rank 494: Tb = 0.014537 sec, Ta = 0.057945 sec, comp_time = 0.071391 sec,comm_time = 0.000507 sec, neigh_comm_time = 0.000497 sec, ptp_comm_time = 0.000002 sec, coll_comm_time = 0.000002 sec
rank 149: Tb = 0.014517 sec, Ta = 0.057954 sec, comp_time = 0.071391 sec,comm_time = 0.000581 sec, neigh_comm_time = 0.000571 sec, ptp_comm_time = 0.000002 sec, coll_comm_time = 0.000002 sec
rank 147: Tb = 0.014523 sec, Ta = 0.057953 sec, comp_time = 0.071391 sec,comm_time = 0.000578 sec, neigh_comm_time = 0.000569 sec, ptp_comm_time = 0.000002 sec, coll_comm_time = 0.000002 sec
rank 44: Tb = 0.014539 sec, Ta = 0.057953 sec, comp_time = 0.071390 sec,comm_time = 0.000513 sec, neigh_comm_time = 0.000503 sec, ptp_comm_time = 0.000002 sec, coll_comm_time = 0.000002 sec
rank 482: Tb = 0.014529 sec, Ta = 0.057945 sec, comp_time = 0.071390 sec,comm_time = 0.000510 sec, neigh_comm_time = 0.000500 sec, ptp_comm_time = 0.000002 sec, coll_comm_time = 0.000002 sec
rank 477: Tb = 0.014519 sec, Ta = 0.057948 sec, comp_time = 0.071391 sec,comm_time = 0.000510 sec, neigh_comm_time = 0.000501 sec, ptp_comm_time = 0.000002 sec, coll_comm_time = 0.000002 sec
rank 90: Tb = 0.014533 sec, Ta = 0.057949 sec, comp_time = 0.071391 sec,comm_time = 0.000579 sec, neigh_comm_time = 0.000570 sec, ptp_comm_time = 0.000002 sec, coll_comm_time = 0.000002 sec
rank 366: Tb = 0.014536 sec, Ta = 0.057946 sec, comp_time = 0.071391 sec,comm_time = 0.000579 sec, neigh_comm_time = 0.000569 sec, ptp_comm_time = 0.000002 sec, coll_comm_time = 0.000002 sec
rank 336: Tb = 0.014534 sec, Ta = 0.057946 sec, comp_time = 0.071391 sec,comm_time = 0.000513 sec, neigh_comm_time = 0.000504 sec, ptp_comm_time = 0.000002 sec, coll_comm_time = 0.000002 sec
rank 56: Tb = 0.014542 sec, Ta = 0.057948 sec, comp_time = 0.071390 sec,comm_time = 0.000364 sec, neigh_comm_time = 0.000354 sec, ptp_comm_time = 0.000001 sec, coll_comm_time = 0.000002 sec
rank 69: Tb = 0.014529 sec, Ta = 0.057956 sec, comp_time = 0.071391 sec,comm_time = 0.000512 sec, neigh_comm_time = 0.000502 sec, ptp_comm_time = 0.000002 sec, coll_comm_time = 0.000002 sec
rank 317: Tb = 0.014524 sec, Ta = 0.057950 sec, comp_time = 0.071390 sec,comm_time = 0.000510 sec, neigh_comm_time = 0.000500 sec, ptp_comm_time = 0.000002 sec, coll_comm_time = 0.000002 sec
rank 236: Tb = 0.014535 sec, Ta = 0.057948 sec, comp_time = 0.071391 sec,comm_time = 0.000577 sec, neigh_comm_time = 0.000568 sec, ptp_comm_time = 0.000002 sec, coll_comm_time = 0.000002 sec
rank 129: Tb = 0.014522 sec, Ta = 0.057954 sec, comp_time = 0.071391 sec,comm_time = 0.000512 sec, neigh_comm_time = 0.000503 sec, ptp_comm_time = 0.000002 sec, coll_comm_time = 0.000002 sec
rank 327: Tb = 0.014534 sec, Ta = 0.057952 sec, comp_time = 0.071391 sec,comm_time = 0.000431 sec, neigh_comm_time = 0.000422 sec, ptp_comm_time = 0.000002 sec, coll_comm_time = 0.000002 sec
rank 445: Tb = 0.014521 sec, Ta = 0.057946 sec, comp_time = 0.071390 sec,comm_time = 0.000509 sec, neigh_comm_time = 0.000499 sec, ptp_comm_time = 0.000002 sec, coll_comm_time = 0.000002 sec
rank 253: Tb = 0.014521 sec, Ta = 0.057944 sec, comp_time = 0.071391 sec,comm_time = 0.000510 sec, neigh_comm_time = 0.000500 sec, ptp_comm_time = 0.000002 sec, coll_comm_time = 0.000002 sec
rank 397: Tb = 0.014523 sec, Ta = 0.057949 sec, comp_time = 0.071391 sec,comm_time = 0.000577 sec, neigh_comm_time = 0.000568 sec, ptp_comm_time = 0.000001 sec, coll_comm_time = 0.000002 sec
rank 393: Tb = 0.014530 sec, Ta = 0.057952 sec, comp_time = 0.071391 sec,comm_time = 0.000577 sec, neigh_comm_time = 0.000567 sec, ptp_comm_time = 0.000002 sec, coll_comm_time = 0.000002 sec
rank 104: Tb = 0.014528 sec, Ta = 0.057948 sec, comp_time = 0.071391 sec,comm_time = 0.000511 sec, neigh_comm_time = 0.000502 sec, ptp_comm_time = 0.000002 sec, coll_comm_time = 0.000002 sec
rank 176: Tb = 0.014531 sec, Ta = 0.057945 sec, comp_time = 0.071391 sec,comm_time = 0.000512 sec, neigh_comm_time = 0.000501 sec, ptp_comm_time = 0.000002 sec, coll_comm_time = 0.000002 sec
rank 472: Tb = 0.014538 sec, Ta = 0.057946 sec, comp_time = 0.071390 sec,comm_time = 0.000431 sec, neigh_comm_time = 0.000421 sec, ptp_comm_time = 0.000001 sec, coll_comm_time = 0.000002 sec
rank 329: Tb = 0.014527 sec, Ta = 0.057952 sec, comp_time = 0.071391 sec,comm_time = 0.000578 sec, neigh_comm_time = 0.000568 sec, ptp_comm_time = 0.000002 sec, coll_comm_time = 0.000002 sec
rank 364: Tb = 0.014530 sec, Ta = 0.057949 sec, comp_time = 0.071391 sec,comm_time = 0.000581 sec, neigh_comm_time = 0.000570 sec, ptp_comm_time = 0.000002 sec, coll_comm_time = 0.000002 sec
rank 29: Tb = 0.014525 sec, Ta = 0.057953 sec, comp_time = 0.071391 sec,comm_time = 0.000515 sec, neigh_comm_time = 0.000505 sec, ptp_comm_time = 0.000002 sec, coll_comm_time = 0.000002 sec
rank 35: Tb = 0.014525 sec, Ta = 0.057956 sec, comp_time = 0.071391 sec,comm_time = 0.000513 sec, neigh_comm_time = 0.000504 sec, ptp_comm_time = 0.000002 sec, coll_comm_time = 0.000002 sec
rank 11: Tb = 0.014524 sec, Ta = 0.057956 sec, comp_time = 0.071391 sec,comm_time = 0.000513 sec, neigh_comm_time = 0.000504 sec, ptp_comm_time = 0.000002 sec, coll_comm_time = 0.000002 sec
rank 59: Tb = 0.014526 sec, Ta = 0.057954 sec, comp_time = 0.071390 sec,comm_time = 0.000432 sec, neigh_comm_time = 0.000423 sec, ptp_comm_time = 0.000002 sec, coll_comm_time = 0.000002 sec
rank 234: Tb = 0.014529 sec, Ta = 0.057949 sec, comp_time = 0.071391 sec,comm_time = 0.000580 sec, neigh_comm_time = 0.000570 sec, ptp_comm_time = 0.000002 sec, coll_comm_time = 0.000002 sec
rank 197: Tb = 0.014526 sec, Ta = 0.057954 sec, comp_time = 0.071391 sec,comm_time = 0.000511 sec, neigh_comm_time = 0.000501 sec, ptp_comm_time = 0.000001 sec, coll_comm_time = 0.000002 sec
rank 93: Tb = 0.014520 sec, Ta = 0.057953 sec, comp_time = 0.071391 sec,comm_time = 0.000584 sec, neigh_comm_time = 0.000574 sec, ptp_comm_time = 0.000002 sec, coll_comm_time = 0.000002 sec
rank 496: Tb = 0.014534 sec, Ta = 0.057944 sec, comp_time = 0.071390 sec,comm_time = 0.000428 sec, neigh_comm_time = 0.000418 sec, ptp_comm_time = 0.000001 sec, coll_comm_time = 0.000002 sec
rank 486: Tb = 0.014542 sec, Ta = 0.057949 sec, comp_time = 0.071390 sec,comm_time = 0.000512 sec, neigh_comm_time = 0.000503 sec, ptp_comm_time = 0.000002 sec, coll_comm_time = 0.000002 sec
rank 157: Tb = 0.014523 sec, Ta = 0.057952 sec, comp_time = 0.071391 sec,comm_time = 0.000580 sec, neigh_comm_time = 0.000571 sec, ptp_comm_time = 0.000001 sec, coll_comm_time = 0.000002 sec
rank 155: Tb = 0.014525 sec, Ta = 0.057954 sec, comp_time = 0.071391 sec,comm_time = 0.000578 sec, neigh_comm_time = 0.000568 sec, ptp_comm_time = 0.000002 sec, coll_comm_time = 0.000002 sec
rank 108: Tb = 0.014541 sec, Ta = 0.057953 sec, comp_time = 0.071391 sec,comm_time = 0.000580 sec, neigh_comm_time = 0.000570 sec, ptp_comm_time = 0.000002 sec, coll_comm_time = 0.000002 sec
rank 488: Tb = 0.014536 sec, Ta = 0.057948 sec, comp_time = 0.071390 sec,comm_time = 0.000430 sec, neigh_comm_time = 0.000421 sec, ptp_comm_time = 0.000001 sec, coll_comm_time = 0.000002 sec
rank 413: Tb = 0.014521 sec, Ta = 0.057951 sec, comp_time = 0.071391 sec,comm_time = 0.000577 sec, neigh_comm_time = 0.000568 sec, ptp_comm_time = 0.000002 sec, coll_comm_time = 0.000002 sec
rank 91: Tb = 0.014521 sec, Ta = 0.057955 sec, comp_time = 0.071391 sec,comm_time = 0.000581 sec, neigh_comm_time = 0.000572 sec, ptp_comm_time = 0.000001 sec, coll_comm_time = 0.000002 sec
rank 52: Tb = 0.014539 sec, Ta = 0.057951 sec, comp_time = 0.071390 sec,comm_time = 0.000510 sec, neigh_comm_time = 0.000501 sec, ptp_comm_time = 0.000002 sec, coll_comm_time = 0.000002 sec
rank 27: Tb = 0.014524 sec, Ta = 0.057956 sec, comp_time = 0.071391 sec,comm_time = 0.000512 sec, neigh_comm_time = 0.000503 sec, ptp_comm_time = 0.000001 sec, coll_comm_time = 0.000002 sec
rank 115: Tb = 0.014521 sec, Ta = 0.057951 sec, comp_time = 0.071391 sec,comm_time = 0.000579 sec, neigh_comm_time = 0.000570 sec, ptp_comm_time = 0.000002 sec, coll_comm_time = 0.000002 sec
rank 76: Tb = 0.014542 sec, Ta = 0.057953 sec, comp_time = 0.071391 sec,comm_time = 0.000581 sec, neigh_comm_time = 0.000571 sec, ptp_comm_time = 0.000002 sec, coll_comm_time = 0.000002 sec
rank 61: Tb = 0.014524 sec, Ta = 0.057953 sec, comp_time = 0.071390 sec,comm_time = 0.000431 sec, neigh_comm_time = 0.000422 sec, ptp_comm_time = 0.000002 sec, coll_comm_time = 0.000002 sec
rank 237: Tb = 0.014520 sec, Ta = 0.057951 sec, comp_time = 0.071391 sec,comm_time = 0.000578 sec, neigh_comm_time = 0.000568 sec, ptp_comm_time = 0.000002 sec, coll_comm_time = 0.000002 sec
rank 139: Tb = 0.014529 sec, Ta = 0.057954 sec, comp_time = 0.071391 sec,comm_time = 0.000581 sec, neigh_comm_time = 0.000571 sec, ptp_comm_time = 0.000002 sec, coll_comm_time = 0.000002 sec
rank 334: Tb = 0.014537 sec, Ta = 0.057945 sec, comp_time = 0.071391 sec,comm_time = 0.000576 sec, neigh_comm_time = 0.000567 sec, ptp_comm_time = 0.000001 sec, coll_comm_time = 0.000002 sec
rank 509: Tb = 0.014520 sec, Ta = 0.057945 sec, comp_time = 0.071391 sec,comm_time = 0.000427 sec, neigh_comm_time = 0.000418 sec, ptp_comm_time = 0.000002 sec, coll_comm_time = 0.000002 sec
rank 255: Tb = 0.014532 sec, Ta = 0.057946 sec, comp_time = 0.071390 sec,comm_time = 0.000428 sec, neigh_comm_time = 0.000419 sec, ptp_comm_time = 0.000002 sec, coll_comm_time = 0.000002 sec
rank 399: Tb = 0.014531 sec, Ta = 0.057950 sec, comp_time = 0.071391 sec,comm_time = 0.000509 sec, neigh_comm_time = 0.000499 sec, ptp_comm_time = 0.000002 sec, coll_comm_time = 0.000002 sec
rank 449: Tb = 0.014526 sec, Ta = 0.057952 sec, comp_time = 0.071390 sec,comm_time = 0.000431 sec, neigh_comm_time = 0.000421 sec, ptp_comm_time = 0.000002 sec, coll_comm_time = 0.000002 sec
